N#お/30 助け/38$	助け+POLITE
N#十/48 年/53 前/67$	十年前
N#上/66 ハンサム/38$	上ハンサム
N#お/30 医者/38 様/55$	医者+FORMAL+ANIMATE+POLITE
N#ご/30 面会/36$	面会+POLITE
N#ぎきなので/38 真偽/38$	ぎきなので真偽
N#生き物/38$	生き物
N#みな/67 早起き/36$	みな早起き
N#出方/38$	出方
N#金塊/38$	金塊
N#バッグ/38 お/30$	バッグ+POLITE	tagger error
N#公僕/38$	公僕
N#アンジェラ/38$	アンジェラ
N#コーヒー/38 ショップ/38$	コーヒーショップ
N#悲観/36$	悲観
N#タイム/38$	タイム
N#これ/59 以上/66 傷口/38$	これ以上傷口
N#時/66 宿題/36$	時宿題
N#ハリソン/44 氏/55$	ハリソン+FORMAL+ANIMATE
N#進/44$	進
N#最近/67 自動車/38 事故/38$	最近自動車事故
N#ハイ/38 リターン/38$	ハイリターン
N#アジア/46 諸国/38$	アジア諸国
N#迷惑/40 電話/36$	迷惑電話
N#暖流/38$	暖流
N#内側/38$	内側
N#養鶏/38 場/51$	養鶏場
N#あいさつ/36$	あいさつ
N#正常/40$	正常
N#就労/36 意欲/38$	就労意欲
N#犠牲/38 者/51 達/51$	犠牲者+COLLECTIVE
N#交渉/36 ごと/51$	交渉ごと
N#青田/38$	青田
N#乗組/38 員/51 たち/51$	乗組員+COLLECTIVE
N#昨晩/67 レコード/38$	昨晩レコード
N#ょの/38 声/51$	ょの声
N#四つ/38 葉/38$	四つ葉
N#お尋ね/36$	お尋ね
N#日向/38$	日向
N#制作/36$	制作
N#レッスン/38 代/51$	レッスン代
N#毎日/67 大食/36$	毎日大食
N#賛美/36$	賛美
N#１/48 ９/48 ５/48 ７/48 年/53$	１９５７年
N#Microsoft/45$	Microsoft
N#技術/38 的/52 解決/36 策/51$	技術的解決策
N#昨年/67 ４/48 ％/53 成長/36$	昨年４％成長
N#オラ/38 気分/38$	オラ気分
N#最小/38 限/51$	最小限
N#議事/38 内容/38$	議事内容
N#ウーマン・リブ/38 運動/36$	ウーマン・リブ運動
N#中小/38 企業/38 向け/51 融資/36$	中小企業向け融資
N#なべ/38 物/51$	なべ物
N#ＲＶ/38 車/51$	ＲＶ車
N#精神/38 発達/36$	精神発達
N#５/48 ヶ月/53$	５ヶ月
N#モニカ/44$	モニカ
N#日付変更線/38$	日付変更線
N#ドルペッグ/38$	ドルペッグ
N#砂利/38$	砂利
N#原油/38$	原油
N#免疫/38$	免疫
N#カリフォルニア/46 出身/38$	カリフォルニア出身
N#アレン/43 さん/55 お/30 目/38$	アレン目+ANIMATE+POLITE	tagger error
N#求婚/36$	求婚
N#薬指/38$	薬指
N#住所/38 お/30$	住所+POLITE
N#一年中/67 雨/38$	一年中雨
N#部員/38 問題/37$	部員問題
N#昨日/67 英語/38$	昨日英語
N#作法/38$	作法
N#化学/38 者/51$	化学者
N#到来/36$	到来
N#一瞬/67 目/51$	一瞬目
N#民間/38 企業/38$	民間企業
N#強大/40$	強大
N#母親/38$	母親
N#音楽/38 的/52 才能/38$	音楽的才能
N#男の子/38 たち/51 ２/48 人/53$	男の子２人+COLLECTIVE	tagger error
N#大変/40 感謝/36$	大変感謝
N#空威張り/38$	空威張り
N#税理士/38 試験/36$	税理士試験
N#７月/67 ２/48 ５/48 日/53 付/51$	７月２５日付
N#肺炎/38$	肺炎
N#鎮静/36 化/50$	鎮静化
N#大/30 家族/38$	大家族
N#うま/38$	うま
N#明々白々/38$	明々白々
N#ソビエト/47$	ソビエト
N#いるか/38$	いるか
N#コンパクト/38 型/51$	コンパクト型
N#御/30 要望/36$	要望+POLITE
N#一番/67 影響/36$	一番影響
N#所得/38 税/38$	所得税
N#剣/38 岳/51$	剣岳
N#先行き/38 不安/40$	先行き不安
N#林檎/38$	林檎
N#薄暗がり/38$	薄暗がり
N#結局/67 成功/36$	結局成功
N#外交/38 的/52$	外交的
N#こと/63 みたい/64$	ことみたい
N#優美/40 さ/57$	優美さ
N#バーナード/38$	バーナード
N#夏/38 九州/46 巡り/51$	夏九州巡り
N#御/30 自由/40$	自由+POLITE
N#本日/67 中止/36$	本日中止
N#形容詞/38$	形容詞
N#修理/36 費用/38$	修理費用
N#夜/67 銀行/38$	夜銀行
N#時/66 真っ暗/40$	時真っ暗
N#学習/36 者/51 用/51 辞書/38$	学習者用辞書
N#昨日/67 勉強/36$	昨日勉強
N#シルクロード/46$	シルクロード
N#日/38 一/48 日/53$	日一日
N#限り/66 援助/36$	限り援助
N#代金/38 引換/38$	代金引換
N#丁度/40 １/48 年/53$	丁度１年
N#貧困/38 階級/38$	貧困階級
N#明日/67 おいで/38$	明日おいで
N#冷や汗/38 もの/63$	冷や汗も+POSSESSIVE
N#同居/36$	同居
N#薪割り/38$	薪割り
N#満面/38$	満面
N#心底/38$	心底
N#４/48 万/48 円/53 以上/66$	４万円以上
N#横/38 ぎって/38$	横ぎって
N#耽溺/36$	耽溺
N#サラリーマン/38$	サラリーマン
N#豪華/40$	豪華
N#今度/67 郵便/38 局/51$	今度郵便局
N#ゴールデン/41$	ゴールデン
N#乳首/38$	乳首
N#大変/40 得意/40$	大変得意
N#畑/38 全体/67$	畑全体
N#不満足/40$	不満足
N#人口/38$	人口
N#流星/38$	流星
N#搭乗/36 ゲート/38$	搭乗ゲート
N#乗車/36$	乗車
N#シナリオ/38 みたい/64$	シナリオみたい
N#適当/40$	適当
N#完成/36 間近/67$	完成間近
N#先月/67 開業/36$	先月開業
N#よう/65 彼/59$	ようPRN+3PER+SG+INFORMAL
N#みんな/59 お互い/38$	みんなお互い
N#ホワイトニング/38$	ホワイトニング
N#折/38$	折
N#私/59 たち/51 子ども/38$	子どもPRN+1PER+PL	tagger error
N#エスニック/38$	エスニック
N#よそ/59$	よそ
N#模様/38$	模様
N#旅立ち/38$	旅立ち
N#薬/38$	薬
N#写真/38 画/51$	写真画
N#プレハブ/38 小屋/38$	プレハブ小屋
N#チョッキ/38$	チョッキ
N#調印/36$	調印
N#ＫＲＳ/38$	ＫＲＳ
N#幾ら/38 強調/36$	幾ら強調
N#ため/66 外出/36$	ため外出
N#管轄/36 外/51$	管轄外
N#カナヅチ/38 同様/40$	カナヅチ同様
N#一喜一憂/36$	一喜一憂
N#保険/38 業/51$	保険業
N#うつ/38 伏せ/36$	うつ伏せ
N#小節/38$	小節
N#カレン/44 さん/55$	カレン+ANIMATE
N#水筒/38$	水筒
N#文才/38$	文才
N#仕立て屋/38$	仕立て屋
N#深み/38$	深み
N#あす/67 手紙/38$	あす手紙
N#数/48 そう/53$	数そう
N#ドシン/38$	ドシン
N#あした/67 家/51$	あした家
N#メモ用紙/38$	メモ用紙
N#臆病者/38$	臆病者
N#債券/38 市場/38$	債券市場
N#鱗/38$	鱗
N#９/48 ０/48 ４/48$	９０４
N#流動/36 体/51$	流動体
N#ホームラン/38$	ホームラン
N#夏/38 彼女/59$	夏PRN+3PER+FEMALE+SG+INFORMAL
N#ベジタリアン/38$	ベジタリアン
N#一体/38 化/50$	一体化
N#広島/46 平和/40 公園/38$	広島平和公園
N#洗練/36$	洗練
N#文学/38 化/50$	文学化
N#現在/67 どこ/59$	現在どこ
N#コーラス/38$	コーラス
N#政治/38 的/52 将来/67$	政治的将来
N#手順/38$	手順
N#年齢/38 順/51$	年齢順
N#御/30 湯/38$	湯+POLITE
N#近東/38 地域/38$	近東地域
N#刑務所/38$	刑務所
N#既往/38$	既往
N#３/48 ヶ月/53 間/51 休会/36$	３ヶ月間休会
N#数カ所/38$	数カ所
N#いつ/59 財布/38$	財布PRN+3PER+SG+INFORMAL
N#VLBI/38$	VLBI
N#都会/38$	都会
N#レントゲン/38$	レントゲン
N#お互い/38 喧嘩/36$	お互い喧嘩
N#２/48 足駄/38 目/51$	２足駄目
N#みんな/59 独立/36$	みんな独立
N#ウイリアム/38 氏/55$	ウイリアム+FORMAL+ANIMATE
N#人事/38 記録/36$	人事記録
N#お/30 祭り/38$	祭り+POLITE
N#北極/46 探検/36$	北極探検
N#お/30 尻/38 みたい/64$	尻みたい+POLITE
N#近く/67 本/38$	近く本
N#ファン/38 達/51$	ファン+COLLECTIVE
N#this/38 ,/36 that/38 ,/36 these/38 ,/36 those/38$	this,that,these,those
N#夕方/67 本/38$	夕方本
N#新風/38$	新風
N#二/48 卵/38 性/51$	二卵性
N#今日/67 昼食/38$	今日昼食
N#プラスチック/38 製/51 コップ/38$	プラスチック製コップ
N#５/48 ０/48 分/53$	５０分
N#商法/38$	商法
N#上級/38 者/51$	上級者
N#栄養/38 摂取/36$	栄養摂取
N#選手/38$	選手
N#８つ/38$	８つ
N#新幹線/38$	新幹線
N#退屈/36 そう/54$	退屈そう
N#新/30 キャプテン/38$	新キャプテン
N#今晩/67 チェス/38$	今晩チェス
N#視覚/38$	視覚
N#塗装/36$	塗装
N#一/48 週間/53 ここ/59$	一週間ここ
N#放課後/38$	放課後
N#授業/36$	授業
N#盛岡/46$	盛岡
N#クープ/41 氏/55$	クープ+FORMAL+ANIMATE
N#身分/38 確認/36$	身分確認
N#作り/38 かた/51$	作り+COLLECTIVE
N#合計/36 ２/48 ５/48 ドル/53 以上/66$	合計２５ドル以上
N#経費/38$	経費
N#クリス/44 ティー/38$	クリスティー
N#５/48 ０/48 ％/53$	５０％
N#昨日/67 解雇/36$	昨日解雇
N#スルー/38$	スルー
N#軽率/40$	軽率
N#こと/63 すべて/67$	ことすべて
N#悪意/38$	悪意
N#少年/38 達/51$	少年+COLLECTIVE
N#名人/38$	名人
N#知り合い/38$	知り合い
N#４/48 時の間/38$	４時の間
N#一刀両断/38$	一刀両断
N#技法/38$	技法
N#予定/36 通り/51$	予定通り
N#数/48 十/48 年/53$	数十年
N#今/67 家/51$	今家
N#将来/67 君/55$	将来+INFORMAL+ANIMATE
N#三/48 個/53$	三個
N#ファミレス/38$	ファミレス
N#結局/67 ノー/38$	結局ノー
N#思い出/38 料/51$	思い出料
N#クラス/38 討論/36$	クラス討論
N#お/30 屋敷/38$	屋敷+POLITE
N#インシュリン/38$	インシュリン
N#調べ/38$	調べ
N#１/48 ９/48 ９/48 ８/48 年/53 日本/47$	１９９８年日本
N#１/48 日/53 休暇/38$	１日休暇
N#歯医者/38 さん/55$	歯医者+ANIMATE
N#きのう/67 ここ/59$	きのうここ
N#アジア/46 出身/38$	アジア出身
N#１/48 部屋/38$	１部屋
N#それぞれ/67 ３/48 個/53$	それぞれ３個
N#不正確/40$	不正確
N#渋面/38$	渋面
N#反/30 体制/38 指導/36 者/51 ら/51$	反体制指導者+COLLECTIVE
N#お/30 願い事/38$	願い事+POLITE
N#ホルクハイマー/38 ら/51$	ホルクハイマー+COLLECTIVE
N#見舞い/36$	見舞い
N#ダイヤル/36$	ダイヤル
N#みんな/59 招待/36$	みんな招待
N#文化/38 衰退/36$	文化衰退
N#かっこ/36$	かっこ
N#国際/38 情勢/38$	国際情勢
N#３/48 ０/48 年間/53 国民/38$	３０年間国民
N#風当たり/38$	風当たり
N#口紅/38$	口紅
N#鑑賞/36 力/51$	鑑賞力
N#子/38 達/51$	子+COLLECTIVE
N#本/38 どの/55$	本+FORMAL+ANIMATE
N#結局/67 そん/38$	結局そん
N#申告/36 もの/51$	申告もの
N#女の子/38 たち/51$	女の子+COLLECTIVE
N#正確/40 さ/57$	正確さ
N#総会/38$	総会
N#兄達/38$	兄達	analyzer error
N#８/48 １/48 才/53$	８１才
N#今/30 空き家/38$	今空き家
N#数/38$	数
N#講堂/38$	講堂
N#２/48 日間/53 皿洗い/38$	２日間皿洗い
N#8/48 冊/53$	8冊
N#ご/30 主人/38$	主人+POLITE
N#限り/66 君/55$	限り+INFORMAL+ANIMATE
N#未遂/38$	未遂
N#６/48 人/53 用/51$	６人用
N#漁師/38 達/51$	漁師+COLLECTIVE
N#無事/40 到着/36$	無事到着
N#洋服/38 ダンス/36$	洋服ダンス
N#善行/38$	善行
N#財政/38 不安/40$	財政不安
N#化石/36 みたい/64$	化石みたい
N#定員/38$	定員
N#南/38 フランス/47$	南フランス
N#哲学/38 的/52 研究/36$	哲学的研究
N#瞬間/67 世界中/38$	瞬間世界中
N#調節/36$	調節
N#数/48 発/53$	数発
N#バイト/38$	バイト
N#賢明/38$	賢明
N#我々/59 みんな/59$	みんなPRN+1PER+PL+FORMAL
N#釣瓶/38 落とし/38$	釣瓶落とし
N#今日/67 彼女/59$	今日PRN+3PER+FEMALE+SG+INFORMAL
N#１月/67 ７/48 日/53 付け/51$	１月７日付け
N#ギア/38$	ギア
N#書棚/38$	書棚
N#住所/38$	住所
N#伝統/38 的/52$	伝統的
N#ゴマ/38$	ゴマ
N#正午/67 前/67$	正午前
N#遊び場/38$	遊び場
N#今/30 建築/36$	今建築
N#５/48 分の/53 距離/38$	５分の距離
N#交戦/36$	交戦
N#限り/66 砂/38 以外/66 何/59$	限り砂以外何
N#厳重/40$	厳重
N#消費/36 税/38$	消費税
N#明言/36$	明言
N#ため/66 窓/38$	ため窓
N#友人/38 たち/51$	友人+COLLECTIVE
N#サービス/36$	サービス
N#貧困/38 層/51$	貧困層
N#劇団/38$	劇団
N#長身/38$	長身
N#石段/38$	石段
N#カフェテリア/38$	カフェテリア
N#サイフ/38$	サイフ
N#結膜炎/38$	結膜炎
N#沖/38$	沖
N#垂直/40 線/51$	垂直線
N#池田/43 夫妻/38$	池田夫妻
N#定め/38$	定め
N#共同/36 体/51$	共同体
N#山崎/43 氏/55$	山崎+FORMAL+ANIMATE
N#皆さん/38 お/30 元気/40$	皆さん元気+POLITE
N#マネー/38$	マネー
N#経済/38 運営/36$	経済運営
N#間中/43 スキー/38$	間中スキー
N#海外/38 移転/36$	海外移転
N#みち/38$	みち
N#朝/67 九/48 時/53$	朝九時
N#明日/67 電話/36$	明日電話
N#金沢/46$	金沢
N#頭角/38$	頭角
N#一/48 儲け/38$	一儲け
N#至急/38$	至急
N#陰謀/38$	陰謀
N#議長/38 選出/36$	議長選出
N#比肩/36$	比肩
N#陰謀/38 説/51$	陰謀説
N#何/48 十/48 万/48 人/53$	何十万人
N#食器/38 棚/38$	食器棚
N#受諾/36$	受諾
N#アルプス/46$	アルプス
N#適性/38$	適性
N#９/48 番目/53$	９番目
N#森/43 首相/38$	森首相
N#駅/38$	駅
N#都市/38 計画/36$	都市計画
N#掌中/38$	掌中
N#躍動/36 感/51$	躍動感
N#今日/67 ビザ/38$	今日ビザ
N#搭乗/36 者/51 達/51$	搭乗者+COLLECTIVE
N#水面/38$	水面
N#しっと/38$	しっと
N#診療/36 所/51$	診療所
N#お前/59 たち/51$	PRN+2PER+MALE+PL+INFORMAL
N#別/40$	別
N#２/48 課/53$	２課
N#滅茶苦茶/40$	滅茶苦茶
N#一/48 年/53 前/67$	一年前
N#無/30 遠慮/36$	無遠慮
N#バター/38 卵/38$	バター卵
N#リズム/38$	リズム
N#３/48 列/53$	３列
N#旧/30 システム/38 用/51$	旧システム用
N#２/48 ０/48 年/53$	２０年
N#われ/59 ら/51$	PRN+1PER+PL+FORMAL
N#裁決/36$	裁決
N#２/48 ８/48 人/53$	２８人
N#出来高/38 払い/38$	出来高払い
N#３月/67 ６/48 日/53$	３月６日
N#ダン/38$	ダン
N#投票/36 権/51$	投票権
N#お/30 楽しみ/38$	楽しみ+POLITE
N#感電/36 死/50$	感電死
N#譲歩/36$	譲歩
N#年/38 １/48 回/53$	年１回
N#一つ/38 思いつき/38$	一つ思いつき
N#堅牢/40$	堅牢
N#歩調/38$	歩調
N#隠れ/38 キャラ/38$	隠れキャラ
N#ブランデー/38$	ブランデー
N#背水/38$	背水
N#着心地/38$	着心地
N#大蔵省/45$	大蔵省
N#合計/36 １/48$	合計１
N#近代/38 戦/51$	近代戦
N#市販/36$	市販
N#取り付け/38 騒ぎ/38$	取り付け騒ぎ
N#女/38 事務/38 員/51 たち/51$	女事務員+COLLECTIVE
N#昨夜/67 あなた/59$	昨夜PRN+2PER+SG+PL	tagger error
N#おうじ/38$	おうじ
N#４/48 か国/53 語/51$	４か国語
N#エンターテイナー/38$	エンターテイナー
N#盗賊/38 達/51$	盗賊+COLLECTIVE
N#今朝/67 職場/38$	今朝職場
N#ツボ/38$	ツボ
N#流感/38$	流感
N#ふた/30 ご/30$	ふた+POLITE
N#中央/38 銀行/38$	中央銀行
N#シロアリ/38$	シロアリ
N#すべて/67 過半数/38$	すべて過半数
N#直子/44 さん/55$	直子+ANIMATE
N#今年/67 成年/38$	今年成年
N#ご/30 入用/38$	入用+POLITE
N#時折/67 クラブ/38$	時折クラブ
N#逃げ道/38$	逃げ道
N#海軍/38 士官/38$	海軍士官
N#彼ら/59 一行/38$	一行PRN+3PER+PL+INFORMAL
N#オーロラ/38$	オーロラ
N#ニーズ/38$	ニーズ
N#確定/36 事項/38$	確定事項
N#一癖/38$	一癖
N#十/48 年/53 以上/66$	十年以上
N#暗殺/36 計画/36$	暗殺計画
N#無関心/40$	無関心
N#抵抗/36 力/51$	抵抗力
N#老/30 紳士/38$	老紳士
N#選挙/36 公約/36$	選挙公約
N#散らし/38$	散らし
N#停止/36 信号/38$	停止信号
N#死者/38 三/48 名/53$	死者三名
N#今夜/67 九/48 時/53$	今夜九時
N#競争/36 者/51$	競争者
N#早稲田/45$	早稲田
N#最新/38 型/51$	最新型
N#停止/36$	停止
N#ウフッ/38$	ウフッ
N#大砲/38$	大砲
N#中心/38 的/52 問題/37$	中心的問題
N#袖/38$	袖
N#塀/38$	塀
N#真似/36$	真似
N#ビーフストロガノフ/38$	ビーフストロガノフ
N#五月/67 十/48 日/53$	五月十日
N#俺/59 ら/51 いま/67$	いまPRN+1PER+MALE+PL+INFORMAL
N#スゴイ/38$	スゴイ
N#知識欲/38$	知識欲
N#感激/36$	感激
N#何/48 カ国/53 語/51$	何カ国語
N#有用/40$	有用
N#明日/67 ６/48 時/53$	明日６時
N#信二/44$	信二
N#３/48 時間/53 １/48 ０/48 分/53$	３時間１０分
N#アイス/38 付き/51$	アイス付き
N#日本/47 観/51$	日本観
N#得/38$	得
N#昼食/38 時間/67$	昼食時間
N#絶対/67 退屈/36$	絶対退屈
N#お/30 渡し/38$	渡し+POLITE
N#近年/67 作業/36 療法/38$	近年作業療法
N#これ/59 以上/66 効果/38 的/52$	これ以上効果的
N#職務/38 執行/36$	職務執行
N#細菌/38 感染/36$	細菌感染
N#１/48 時間/53 前/67$	１時間前
N#ファイト/38 クラブ/38$	ファイトクラブ
N#私/59 達/51 ４月/67 ２/48 日/53$	４月２日PRN+1PER+PL
N#スキー/38 ウェア/38$	スキーウェア
N#逆説/38 的/52$	逆説的
N#１/48 ２/48 か月/53$	１２か月
N#来週/67 会議/36$	来週会議
N#前歴/38$	前歴
N#声明/36 文/38$	声明文
N#ベタニヤ/38$	ベタニヤ
N#佳子/44$	佳子
N#配線/36$	配線
N#恋人/38$	恋人
N#限り/66 冬/38$	限り冬
N#ご/30 記入/36$	記入+POLITE
N#亡者/38$	亡者
N#食糧/38$	食糧
N#明日/67 葵/43 さん/55$	明日葵+ANIMATE
N#フットボール/38 選手/38$	フットボール選手
N#キー/38 キー/38$	キーキー
N#フライドエッグ/38$	フライドエッグ
N#中島/43 さん/55$	中島+ANIMATE
N#熱心/38$	熱心
N#玲子/44$	玲子
N#弟/38 の/63$	弟+POSSESSIVE
N#家族/38 全員/38$	家族全員
N#いつか/67 電話/36$	いつか電話
N#医師/38 づくり/51$	医師づくり
N#毛皮/38$	毛皮
N#ホブソン/38$	ホブソン
N#朝鮮/47 語/51$	朝鮮語
N#結局/67 我々/59$	結局PRN+1PER+PL+FORMAL
N#２/48 ６/48 文字/38$	２６文字
N#完璧/40 主義/38 者/51$	完璧主義者
N#サンディエゴ/46 ２/48 枚/53$	サンディエゴ２枚
N#専門/38 家/51 たち/51$	専門家+COLLECTIVE
N#３/48 ５/48$	３５
N#権限/38$	権限
N#刺繍/36$	刺繍
N#高慢/40 さ/57$	高慢さ
N#いちど/38 金メダル/38$	いちど金メダル
N#引き抜き/38 専門/38$	引き抜き専門
N#北欧/46$	北欧
N#夏/38 富士山/41$	夏富士山
N#ジョー/44$	ジョー
N#グロテスク/40$	グロテスク
N#赤/38 ぶどう酒/38$	赤ぶどう酒
N#愛用/36$	愛用
N#被害/38 総額/38$	被害総額
N#ため/66 彼女/59$	ためPRN+3PER+FEMALE+SG+INFORMAL
N#いつ/59 あなた/59$	PRN+3PER+2PER+SG+PL+INFORMAL
N#梅雨/38$	梅雨
N#こと/63 お/30$	こと+POLITE
N#卑下/36$	卑下
N#ロビンソン/43 さん/55$	ロビンソン+ANIMATE
N#結果/67 彼女/59$	結果PRN+3PER+FEMALE+SG+INFORMAL
N#今日/67 ノート/38$	今日ノート
N#非/30 軍事/38 的/52 目的/38$	非軍事的目的
N#絵筆/38$	絵筆
N#１/48 箱/53$	１箱
N#獰猛/40$	獰猛
N#一/48 千/48 万/48 円/53$	一千万円
N#もの/63 日々/67$	もの日々
N#お/30 返事/36$	返事+POLITE
N#百/48 歳/53$	百歳
N#僻地/38$	僻地
N#安堵/36$	安堵
N#トランペット/38$	トランペット
N#お/30 こづかい/38$	こづかい+POLITE
N#朝っぱら/38$	朝っぱら
N#雑談/36$	雑談
N#ロング/38 氏/55$	ロング+FORMAL+ANIMATE
N#多言/36$	多言
N#マーク/36 アップ/36$	マークアップ
N#今/30 運動/36 場/51$	今運動場
N#スリー/38 サイズ/38$	スリーサイズ
N#一/48 週間/53 分/51$	一週間分
N#皿/38$	皿
N#夏/38 青森/46$	夏青森
N#テーブル/38 越し/51$	テーブル越し
N#こ/38 ー/38 ゆ/38 ー/38$	こーゆー
N#金/38 時計/38$	金時計
N#星座/38$	星座
N#政治/38 的/52 事件/38$	政治的事件
N#市街/38 戦/51$	市街戦
N#無言/38$	無言
N#ワイン/38 祭り/38$	ワイン祭り
N#エール/38 大学/38$	エール大学
N#黄色/38$	黄色
N#１/48 サイズ/38$	１サイズ
N#小作/38 人達/38$	小作人達
N#ダンピング/36$	ダンピング
N#看板/38$	看板
N#日/66 以来/67 彼/59$	日以来PRN+3PER+SG+INFORMAL
N#周辺/38 環境/38$	周辺環境
N#京都/46 見物/36$	京都見物
N#毎晩/67 ひつじ/38$	毎晩ひつじ
N#晴れ/38$	晴れ
N#変身/36$	変身
N#３/48 ８/48 サイズ/38$	３８サイズ
N#１/48 ドル/53 １/48 ４/48 ５/48 円/53$	１ドル１４５円
N#すえ/63 彼ら/59$	すえPRN+3PER+PL+INFORMAL
N#正式/40$	正式
N#ひな/38 ぎく/36$	ひなぎく
N#強健/40 どころ/63$	強健どころ
N#５/48 分/53 ５/48 分/53$	５分５分
N#ブラウン管/38$	ブラウン管
N#非常/40 階段/38$	非常階段
N#ロング/38 さん/55$	ロング+ANIMATE
N#テリーテイト/38$	テリーテイト
N#都会人/38$	都会人
N#１/48 ８/48 ６/48 ３/48 年/53$	１８６３年
N#ＩＢＭ/45$	ＩＢＭ
N#尊重/36$	尊重
N#選手権/38$	選手権
N#月例/38 会/51$	月例会
N#転校生/38$	転校生
N#前/30 英国/47$	前英国
N#ギャング/38$	ギャング
N#サスペンス/38 映画/38$	サスペンス映画
N#日本/47 におい/38$	日本におい
N#散乱/36$	散乱
N#両/30 脇腹/38$	両脇腹
N#１/48 ５/48 年/53 ぶり/51$	１５年ぶり
N#宣言/36$	宣言
N#はにかみ屋/38$	はにかみ屋
N#ドル/38 買い支え/38$	ドル買い支え
N#系図/38$	系図
N#１/48 ０/48 キロ/53$	１０キロ
N#一年中/67 気候/38$	一年中気候
N#下記/38 新/30 住所/38$	下記新住所
N#由紀子/44 ちゃん/55$	由紀子+INFORMAL+ANIMATE
N#倒産/36 寸前/38$	倒産寸前
N#票/38$	票
N#一/48 人/53 旅/36$	一人旅
N#つまり/38$	つまり
N#仕業/38$	仕業
N#政治/38 的/52 権力/38$	政治的権力
N#雨天/38$	雨天
N#ドライビングスクール/38$	ドライビングスクール
N#ここ/59$	ここ
N#５/48 台/53$	５台
N#ライバル/38 企業/38$	ライバル企業
N#カート/38$	カート
N#実験/36 用/51$	実験用
N#局地/38 的/52$	局地的
N#商業/38$	商業
N#バル/38 ボア/38 さん/55$	バルボア+ANIMATE
N#市長/38 選挙/36$	市長選挙
N#お/30 別れ/38 パーティー/38$	別れパーティー+POLITE
N#お/30 つなぎ/38$	つなぎ+POLITE
N#アシカ/38$	アシカ
N#江崎/43 優/44$	江崎優
N#一瞬/67 魔/38$	一瞬魔
N#シュン/41 シュン/41$	シュンシュン
N#５/48 年間/53 アメリカ/47$	５年間アメリカ
N#３/48 年/53$	３年
N#言語/38$	言語
N#手紙/38 タイプ/38$	手紙タイプ
N#エベレスト/38 登頂/36$	エベレスト登頂
N#往生/36$	往生
N#分解/36$	分解
N#一酸化/38 炭素/38$	一酸化炭素
N#過度/38$	過度
N#北半球/46$	北半球
N#ずぶ濡れ/38$	ずぶ濡れ
N#金儲け/36$	金儲け
N#設定/36 済み/51$	設定済み
N#氷河/38 時代/38$	氷河時代
N#みんな/59 仕事/36$	みんな仕事
N#交代/36$	交代
N#手間/38$	手間
N#古風/40$	古風
N#自首/36$	自首
N#借家/38 人/51$	借家人
N#両/30 天びん/38$	両天びん
N#指導/36$	指導
N#目覚し/38$	目覚し
N#ハイキング/38$	ハイキング
N#心配/36$	心配
N#最大/38 １/48 ０/48 名/53$	最大１０名
N#ＮＡＴＯ/45$	ＮＡＴＯ
N#全て/67 あなた/59$	全てPRN+2PER+SG+PL	tagger error
N#ギャンブラー/38$	ギャンブラー
N#飛行機/38 ８/48 時間/53$	飛行機８時間
N#先生/38 の/63$	先生+POSSESSIVE
N#とき/66 の/63$	とき+POSSESSIVE
N#グレイハウンドバス/38$	グレイハウンドバス
N#短期/38 契約/36 社員/38 達/51$	短期契約社員+COLLECTIVE
N#岸/43$	岸
N#同級生/38$	同級生
N#ランニング/38$	ランニング
N#スローガン/38$	スローガン
N#直接/67 ニューヨーク/46$	直接ニューヨーク
N#１/48 ０/48 ０/48 ０/48 円/53 札/51$	１０００円札
N#不正/40 行為/36$	不正行為
N#西海岸/38$	西海岸
N#戦歴/38$	戦歴
N#ぉ/38$	ぉ
N#ハーフタイム/38$	ハーフタイム
N#公務員/38 試験/36$	公務員試験
N#何/59 ひとつ/67$	何ひとつ
N#摩天楼/38$	摩天楼
N#大勝/36$	大勝
N#客人/38$	客人
N#審判/36$	審判
N#管制塔/38$	管制塔
N#皆さん/38 ネチケット/38$	皆さんネチケット
N#アルゴリズム/38$	アルゴリズム
N#一/48 列/53 前/67$	一列前
N#終列車/38$	終列車
N#何/48 時間/53 勉強/36$	何時間勉強
N#人/38 内股/38$	人内股
N#ころ/66 メキシコ/47$	ころメキシコ
N#昨夜/67 大火/38$	昨夜大火
N#通勤/36 客/38$	通勤客
N#シングル/38$	シングル
N#テレカ/38$	テレカ
N#保護/36 回路/38$	保護回路
N#母さん/38$	母さん
N#弾丸/38$	弾丸
N#マッチ/36$	マッチ
N#実物/38 大/51$	実物大
N#ピップ/41 君/55$	ピップ+INFORMAL+ANIMATE
N#東京/46 株式/38 市場/38$	東京株式市場
N#皆/59 地獄/38$	皆地獄
N#結果/67 数/48 多く/67$	結果数多く
N#人口/38 増加/36 ゼロ/48$	人口増加ゼロ
N#女王/38 ご/30 自身/38$	女王自身+POLITE
N#ビキニスタイル/38$	ビキニスタイル
N#国/38$	国
N#郵政/38 事業/38$	郵政事業
N#何/48 分/53$	何分
N#さ/57 ３/48 ７/48 ７/48 ６/48 メートル/53$	さ３７７６メートル
N#テレビ/38 ニュース/38$	テレビニュース
N#不治の病/38$	不治の病
N#色調/38$	色調
N#スタメン/38$	スタメン
N#市/38$	市
N#妹/38 達/51$	妹+COLLECTIVE
N#２/48 回/53 ここ/59$	２回ここ
N#両国/38$	両国
N#審理/36$	審理
N#瞬間/67 彼女/59$	瞬間PRN+3PER+FEMALE+SG+INFORMAL
N#一/48 冊/53 本/38$	一冊本
N#不/30 節制/36$	不節制
N#レース/38$	レース
N#いた事/38$	いた事
N#北方/38$	北方
N#良心/38$	良心
N#４/48 人/53 姉妹/38$	４人姉妹
N#ブラック・ユーモア/38$	ブラック・ユーモア
N#豊能/46 郡/56$	豊能郡
N#犯罪/38 組織/36$	犯罪組織
N#みな/59 だめ/40$	みなだめ
N#さ/57 自慢/36$	さ自慢
N#果樹/38 栽培/36 者/51$	果樹栽培者
N#タンガニーカ/46 湖/56$	タンガニーカ湖
N#頃/66 一/48 度/53$	頃一度
N#単純/40 そのもの/38$	単純そのもの
N#老父/38$	老父
N#撮影/36$	撮影
N#バンクーバー/46 行き/56$	バンクーバー行き
N#核/38 シェルター/38$	核シェルター
N#３/48 パーセント/53 割引/36$	３パーセント割引
N#柄/38$	柄
N#たらい/38 回し/51$	たらい回し
N#十/48 年/53$	十年
N#賢明/40$	賢明
N#中川/43 君/55$	中川+INFORMAL+ANIMATE
N#すべて/67 今/67 在庫/36 切れ/51$	すべて今在庫切れ
N#間欠泉/38$	間欠泉
N#１/48 年/53 半/38 ぶり/51$	１年半ぶり
N#巧み/40$	巧み
N#交通/38 信号/38$	交通信号
N#預金/36 口座/38$	預金口座
N#８/48 回/53 参拝/36$	８回参拝
N#ウジャウジャ/38$	ウジャウジャ
N#一口/38$	一口
N#抽象/36 名詞/38$	抽象名詞
N#時/66 私/59$	時PRN+1PER+SG
N#早朝/67 出発/36$	早朝出発
N#反抗/36 期/51$	反抗期
N#トーマス/44 先生/38$	トーマス先生
N#高級/40 住宅/38 地/51$	高級住宅地
N#日本人/38 全体/67$	日本人全体
N#６/48 時/53$	６時
N#渚/38$	渚
N#５/48 ０/48 ０/48 人/53 分/51$	５００人分
N#知識/38$	知識
N#１/48 ０/48 ０/48 ドル/53 貯金/36$	１００ドル貯金
N#パートタイム/38$	パートタイム
N#人/38 たち/51 全員/38$	人全員+COLLECTIVE
N#体温/38 上昇/36$	体温上昇
N#１/48 ０/48 進/53 法/51$	１０進法
N#大/30 ブリ/38 テン/38$	大ブリテン
N#表れ/38$	表れ
N#ところ/66 何/59$	ところ何
N#三/48 時半/53$	三時半
N#悩み/38$	悩み
N#供述/36$	供述
N#限り/66 何事/38$	限り何事
N#社会/38 人/51$	社会人
N#目下/67 建築/36$	目下建築
N#無試験/38$	無試験
N#装飾/36$	装飾
N#今晩/67 お/30 電話/36$	今晩電話+POLITE
N#来月/67 タクシー/38 料金/38$	来月タクシー料金
N#お/30 げんき/40$	げんき+POLITE
N#５/48 ０/48 ０/48 ０/48 円/53$	５０００円
N#自然/40 保護/36$	自然保護
N#現在/67 病院/38$	現在病院
N#親戚/38 たち/51$	親戚+COLLECTIVE
N#高齢/38 者/51$	高齢者
N#持ち株/38$	持ち株
N#与信/38 管理/36$	与信管理
N#損傷/36$	損傷
N#関係/36 項目/38$	関係項目
N#梅毒/38$	梅毒
N#雨戸/38$	雨戸
N#その道/38$	その道
N#何/48 時間/53$	何時間
N#高望み/36$	高望み
N#後藤/43 教授/38$	後藤教授
N#あっち/59$	あっち
N#賢治/44 君/55$	賢治+INFORMAL+ANIMATE
N#増発/36$	増発
N#北海道/46 出身/38$	北海道出身
N#新聞/38 記者/38 たち/51$	新聞記者+COLLECTIVE
N#彼女/59 達/51$	PRN+3PER+FEMALE+PL+INFORMAL
N#今し方/38 地平線/38$	今し方地平線
N#小事/38$	小事
N#代用/36 貨幣/38$	代用貨幣
N#軍事/38 訓練/36$	軍事訓練
N#リムジン/38 バス/38$	リムジンバス
N#なまけもの/38$	なまけもの
N#お/30 とこ/38$	とこ+POLITE
N#２/48 ０/48 ドル/53 札/51 ３/48 枚/53$	２０ドル札３枚
N#小人/38$	小人
N#雨漏り/36$	雨漏り
N#２/48 日/53$	２日
N#旅館/38$	旅館
N#一室/38$	一室
N#申し出/38$	申し出
N#１/48 倍/53 半/51$	１倍半
N#これ/59 以上/66 生意気/40$	これ以上生意気
N#評判/38$	評判
N#ダイアナ/44$	ダイアナ
N#ヒーロー/38$	ヒーロー
N#彼/59 以外/66$	以外PRN+3PER+SG+INFORMAL
N#今/67 一/48 番/53$	今一番
N#プリントアウト/38$	プリントアウト
N#発射/36 音/51$	発射音
N#チャールズ/43$	チャールズ
N#和英/44 辞書/38$	和英辞書
N#解法/38$	解法
N#有理子/44$	有理子
N#うだつ/38$	うだつ
N#アメリカ大陸/41$	アメリカ大陸
N#融和/36$	融和
N#奥/38$	奥
N#とおり/66 彼ら/59$	とおりPRN+3PER+PL+INFORMAL
N#実験/36 台/51$	実験台
N#訓練/36 生/51$	訓練生
N#荷車/38$	荷車
N#侍/38 物語/38$	侍物語
N#ご/30 確認/36$	確認+POLITE
N#泥んこ/38 道/51$	泥んこ道
N#旅行/36 用/51$	旅行用
N#異臭/38$	異臭
N#３/48 日間/53$	３日間
N#一番/67 近く/67$	一番近く
N#ピンチ/38 ヒッター/38$	ピンチヒッター
N#一目/36$	一目
N#ジプシー/38 たち/51$	ジプシー+COLLECTIVE
N#ポーチ/38$	ポーチ
N#殺人/38 推理/36 小説/38$	殺人推理小説
N#英文/38$	英文
N#韓国/47 語/51$	韓国語
N#何/48 年間/53$	何年間
N#閃光/38$	閃光
N#最近/67 タバコ/38$	最近タバコ
N#メソメソ/38$	メソメソ
N#二/48 度/53 ニューヨーク/46$	二度ニューヨーク
N#スミス/43 一家/44$	スミス一家
N#居酒屋/38$	居酒屋
N#遵守/36$	遵守
N#笑いごと/38$	笑いごと
N#私/59 たち/51 みんな/59 恒久/38 的/52$	みんな恒久的PRN+1PER+PL
N#足首/38$	足首
N#発車/36 ホーム/38$	発車ホーム
N#たくさん/67 お/30 酒/38$	たくさん酒+POLITE
N#ひと/30 がん/38 ばり/36$	ひとがんばり
N#パティー/38$	パティー
N#毎日テレビ/45$	毎日テレビ
N#出血/36$	出血
N#ご/30 入会/36$	入会+POLITE
N#５月/67 １/48 ０/48 日/53$	５月１０日
N#６/48 ０/48 歳/53$	６０歳
N#こと/63 初め/67$	こと初め
N#ジェラシー/38$	ジェラシー
N#お/30 心遣い/38$	心遣い+POLITE
N#それら/59 大変/40 有用/40$	それら大変有用
N#高等/40 哺乳/36 動物/38$	高等哺乳動物
N#利用/36 者/51$	利用者
N#すべて/67 等質/40$	すべて等質
N#バチ/38$	バチ
N#競泳/36 選手権/38$	競泳選手権
N#最小/38$	最小
N#かみ合わせ/38$	かみ合わせ
N#おまわりさん/38$	おまわりさん
N#先払い/38$	先払い
N#ジュディ/38 さん/55$	ジュディ+ANIMATE
N#晩/67 彼女/59$	晩PRN+3PER+FEMALE+SG+INFORMAL
N#５/48 分の/53 ４/48 以上/66$	５分の４以上
N#猛犬/38$	猛犬
N#言い過ぎ/38$	言い過ぎ
N#コウモリ/38$	コウモリ
N#生物/38 学/51 教授/38$	生物学教授
N#敷地/38$	敷地
N#焼き/38$	焼き
N#１/48 ０/48 回/53$	１０回
N#ガッ/38$	ガッ
N#キョクアジサシ/45$	キョクアジサシ
N#ご/30 来社/36$	来社+POLITE
N#飛び込み/38$	飛び込み
N#３/48 度/53$	３度
N#花子/44$	花子
N#苦痛/38$	苦痛
N#すべて/67 仕事/36$	すべて仕事
N#時/66 大変/40$	時大変
N#ボストン/46$	ボストン
N#デザイン/36$	デザイン
N#新/30 会計/36 年度/38$	新会計年度
N#喧嘩/36$	喧嘩
N#人/38 ごと/51$	人ごと
N#待遇/36$	待遇
N#要請/36$	要請
N#保守/36 的/52 傾向/38$	保守的傾向
N#いくら/38 年/51$	いくら年
N#問い/38$	問い
N#生活/36 様式/38$	生活様式
N#偉大/40$	偉大
N#五つ/38 木/38 通り/51$	五つ木通り
N#単純/40 そう/54$	単純そう
N#試合/36 内容/38$	試合内容
N#麻酔/36$	麻酔
N#昔/67 煙草/38$	昔煙草
N#上の空/40$	上の空
N#毎日/67 犬/38$	毎日犬
N#クリケット/38 クラブ/38$	クリケットクラブ
N#指揮/36 下/51$	指揮下
N#３/48 歳/53 年下/38$	３歳年下
N#たけ/38$	たけ
N#二/48 言語/38$	二言語
N#利害/38 関係/36 者/51$	利害関係者
N#いいわけ/36$	いいわけ
N#歴代/38$	歴代
N#持ち物/38 検査/36$	持ち物検査
N#火災/38 警報/36 機/51$	火災警報機
N#植木/38 屋/51 さん/55$	植木屋+ANIMATE
N#気の毒/38$	気の毒
N#傾注/36$	傾注
N#秘密/38 兵器/38$	秘密兵器
N#あまり/38 歓声/38$	あまり歓声
N#警備/36 員/51 たち/51$	警備員+COLLECTIVE
N#おんな/38$	おんな
N#ベッド/38 生活/36$	ベッド生活
N#やくも/38 遅刻/36 魔/38$	やくも遅刻魔
N#キャンパス/38$	キャンパス
N#トランプ/38$	トランプ
N#井上/43 氏/55$	井上+FORMAL+ANIMATE
N#新型/38$	新型
N#作者/38$	作者
N#猛/30 台風/38$	猛台風
N#ご/30 参加/36 お待ち/36$	参加お待ち+POLITE
N#産科/38 医療/38$	産科医療
N#往復/36 料金/38$	往復料金
N#同/30 一/48 現象/38$	同一現象
N#木造/38 住宅/38$	木造住宅
N#フルコース/38$	フルコース
N#口頭/38$	口頭
N#最近/67 明るみ/38$	最近明るみ
N#学生/38 部長/38$	学生部長
N#テレビ/38 用/51$	テレビ用
N#毎日/67 一生懸命/67$	毎日一生懸命
N#自己/38 自身/38$	自己自身
N#大気/38$	大気
N#おじさん/38 たち/51$	おじさん+COLLECTIVE
N#素因/38$	素因
N#お前/59$	PRN+2PER+MALE+SG+PL+INFORMAL
N#いたずら/36 半分/67$	いたずら半分
N#引き出し/36$	引き出し
N#政治/38 家/51 たち/51$	政治家+COLLECTIVE
N#舗装/36$	舗装
N#８/48 ５/48 歳/53$	８５歳
N#滅私/38 奉公/36$	滅私奉公
N#８/48 割/53 近く/67$	８割近く
N#ハイジャック/36 犯/51 達/51$	ハイジャック犯+COLLECTIVE
N#軽挙妄動/36$	軽挙妄動
N#電子/38 タイプライター/38$	電子タイプライター
N#書店/38$	書店
N#ジョー/44 一/48 杯/53$	ジョー一杯
N#凍死/36 寸前/38$	凍死寸前
N#間/38 雑誌/38$	間雑誌
N#じき/67 学校/38$	じき学校
N#仙台/46$	仙台
N#一/48 財産/38$	一財産
N#証拠/38 不充分/40$	証拠不充分
N#締め/38 方/51$	締め+COLLECTIVE
N#日頃/38$	日頃
N#印象/38$	印象
N#山田/43 さん/55$	山田+ANIMATE
N#暗号/38 技術/38$	暗号技術
N#へきれき/38$	へきれき
N#明日/67 １/48 日/53$	明日１日
