み	みる+V_CONTINUATIVE
み	みる+V_IRREALIS

み	みる+V_CONTINUATIVE
み	みる+V_IRREALIS

み	みる+V_CONTINUATIVE
み	みる+V_IRREALIS

っ	+?

っ	+?

い	いる+V_CONTINUATIVE
い	いる+V_IRREALIS
い	い+ADJ
い	いい+ADJ
い	く+V_CONTINUATIVE
い	よい+ADJ

い	いる+V_CONTINUATIVE
い	いる+V_IRREALIS
い	い+ADJ
い	いい+ADJ
い	く+V_CONTINUATIVE
い	よい+ADJ

し	しい+ADJ
し	す+V_CONTINUATIVE
し	する+V_CONTINUATIVE

し	しい+ADJ
し	す+V_CONTINUATIVE
し	する+V_CONTINUATIVE

し	しい+ADJ
し	す+V_CONTINUATIVE
し	する+V_CONTINUATIVE

し	しい+ADJ
し	す+V_CONTINUATIVE
し	する+V_CONTINUATIVE

し	しい+ADJ
し	す+V_CONTINUATIVE
し	する+V_CONTINUATIVE

し	しい+ADJ
し	す+V_CONTINUATIVE
し	する+V_CONTINUATIVE

し	しい+ADJ
し	す+V_CONTINUATIVE
し	する+V_CONTINUATIVE

す	す+V
す	すい+ADJ

す	す+V
す	すい+ADJ

す	す+V
す	すい+ADJ

す	す+V
す	すい+ADJ

や	や+ADJ

効く	効く+V

乗り	乗る+V_CONTINUATIVE

乗る	乗る+V

乗る	乗る+V

乗り出すだろう	乗り出す+V+VOL

乗せて	乗せる+V+TE
乗せて	乗す+V+POT+TE

乗れます	乗れる+V+POL
乗れます	乗る+V+POT+POL

乗りました	乗る+V+NEG+VOL+PFV
乗りました	乗る+V+POL+PFV

ひ	ひる+V_CONTINUATIVE
ひ	ひる+V_IRREALIS

売り	売る+V_CONTINUATIVE

売る	売る+V

割り	割る+V_CONTINUATIVE

売れる	売れる+V
売れる	売る+V+POT

売れる	売れる+V
売れる	売る+V+POT

ひいた	ひる+V+PROG+PFV
ひいた	ひる+V+PROG+DESI
ひいた	ひる+V+PROG+PFV
ひいた	ひる+V+PROG+DESI
ひいた	ひく+V+PFV

ひいた	ひる+V+PROG+PFV
ひいた	ひる+V+PROG+DESI
ひいた	ひる+V+PROG+PFV
ひいた	ひる+V+PROG+DESI
ひいた	ひく+V+PFV

ひそめる	ひそめる+V
ひそめる	ひそむ+V+POT

ひろった	ひろう+V+PFV

割り当てられた	割り当てる+V+POT+PFV
割り当てられた	割り当てる+V+POT+DESI
割り当てられた	割り当てる+V+PASV+PFV
割り当てられた	割り当てる+V+PASV+DESI

ひいている	ひる+V+PROG+TE+PROG
ひいている	ひる+V+PROG+TE+PROG
ひいている	ひく+V+TE+PROG

始め	始める+V_CONTINUATIVE
始め	始める+V_IRREALIS

失う	失う+V

倒せ	倒せる+V_CONTINUATIVE
倒せ	倒せる+V_IRREALIS
倒せ	倒す+V+POT_CONTINUATIVE
倒せ	倒す+V+POT_IRREALIS
倒せ	倒す+V+IMP
倒せ	倒す+V_HYPOTHETICAL

借り	借る+V_CONTINUATIVE
借り	借りる+V_CONTINUATIVE
借り	借りる+V_IRREALIS

備え	備える+V_CONTINUATIVE
備え	備える+V_IRREALIS

働き	働く+V_CONTINUATIVE

働き	働く+V_CONTINUATIVE

働く	働く+V

働く	働く+V

入り	入る+V_CONTINUATIVE

入る	入る+V

入れ	入れる+V_CONTINUATIVE
入れ	入れる+V_IRREALIS
入れ	入る+V+POT_CONTINUATIVE
入れ	入る+V+POT_IRREALIS
入れ	入る+V+IMP
入れ	入る+V_HYPOTHETICAL

分け	分ける+V_CONTINUATIVE
分け	分ける+V_IRREALIS

勝つ	勝つ+V

勝る	勝る+V

去る	去る+V

取る	取る+V

受け	受ける+V_CONTINUATIVE
受け	受ける+V_IRREALIS

困っ	困る+V_CONTINUATIVE

回る	回る+V

みた	みる+V+PFV
みた	みる+V+DESI
みた	みつ+V_IRREALIS

みる	みる+V

みる	みる+V

つき	つく+V_CONTINUATIVE
つき	つきる+V_CONTINUATIVE
つき	つきる+V_IRREALIS

つけ	つける+V_CONTINUATIVE
つけ	つける+V_IRREALIS
つけ	つく+V+POT_CONTINUATIVE
つけ	つく+V+POT_IRREALIS
つけ	つく+V+IMP
つけ	つく+V_HYPOTHETICAL

つる	つる+V

あう	あう+V

あげ	あげる+V_CONTINUATIVE
あげ	あげる+V_IRREALIS

あり	ある+V_CONTINUATIVE

あり	ある+V_CONTINUATIVE

ある	ある+V

ある	ある+V

ある	ある+V

ある	ある+V

ある	ある+V

ある	ある+V

ある	ある+V

ある	ある+V

ある	ある+V

ある	ある+V

ある	ある+V

ある	ある+V

ある	ある+V

ある	ある+V

ある	ある+V

ある	ある+V

ある	ある+V

ある	ある+V

ある	ある+V

ある	ある+V

ある	ある+V

ある	ある+V

ある	ある+V

ある	ある+V

ある	ある+V

ある	ある+V

ある	ある+V

ある	ある+V

ある	ある+V

ある	ある+V

ある	ある+V

ある	ある+V

ある	ある+V

ある	ある+V

ある	ある+V

ある	ある+V

ある	ある+V

ある	ある+V

ある	ある+V

ある	ある+V

ある	ある+V

ある	ある+V

ある	ある+V

いく	いい+ADJ
いく	いい+ADJ+ADV
いく	いく+V
いく	よい+ADJ
いく	よい+ADJ+ADV

いく	いい+ADJ
いく	いい+ADJ+ADV
いく	いく+V
いく	よい+ADJ
いく	よい+ADJ+ADV

いた	いる+V+PFV
いた	いる+V+DESI
いた	いたい+ADJ
いた	く+V+PFV

いた	いる+V+PFV
いた	いる+V+DESI
いた	いたい+ADJ
いた	く+V+PFV

いた	いる+V+PFV
いた	いる+V+DESI
いた	いたい+ADJ
いた	く+V+PFV

いる	いる+V

いる	いる+V

いる	いる+V

いる	いる+V

いる	いる+V

いる	いる+V

いる	いる+V

いる	いる+V

いる	いる+V

いる	いる+V

いる	いる+V

おき	おく+V_CONTINUATIVE
おき	おきる+V_CONTINUATIVE
おき	おきる+V_IRREALIS

おく	おく+V

おく	おく+V

おけ	おける+V_CONTINUATIVE
おけ	おける+V_IRREALIS
おけ	おく+V+POT_CONTINUATIVE
おけ	おく+V+POT_IRREALIS
おけ	おく+V+IMP
おけ	おく+V_HYPOTHETICAL

おけ	おける+V_CONTINUATIVE
おけ	おける+V_IRREALIS
おけ	おく+V+POT_CONTINUATIVE
おけ	おく+V+POT_IRREALIS
おけ	おく+V+IMP
おけ	おく+V_HYPOTHETICAL

おり	おる+V_CONTINUATIVE
おり	おりる+V_CONTINUATIVE
おり	おりる+V_IRREALIS

がる	がる+V

きた	く+V+PFV
きた	く+V+DESI
きた	きる+V+PFV
きた	きる+V+DESI
きた	来る+V+PFV
きた	来る+V+DESI

きた	く+V+PFV
きた	く+V+DESI
きた	きる+V+PFV
きた	きる+V+DESI
きた	来る+V+PFV
きた	来る+V+DESI

きた	く+V+PFV
きた	く+V+DESI
きた	きる+V+PFV
きた	きる+V+DESI
きた	来る+V+PFV
きた	来る+V+DESI

きた	く+V+PFV
きた	く+V+DESI
きた	きる+V+PFV
きた	きる+V+DESI
きた	来る+V+PFV
きた	来る+V+DESI

きた	く+V+PFV
きた	く+V+DESI
きた	きる+V+PFV
きた	きる+V+DESI
きた	来る+V+PFV
きた	来る+V+DESI

きた	く+V+PFV
きた	く+V+DESI
きた	きる+V+PFV
きた	きる+V+DESI
きた	来る+V+PFV
きた	来る+V+DESI

きた	く+V+PFV
きた	く+V+DESI
きた	きる+V+PFV
きた	きる+V+DESI
きた	来る+V+PFV
きた	来る+V+DESI

きた	く+V+PFV
きた	く+V+DESI
きた	きる+V+PFV
きた	きる+V+DESI
きた	来る+V+PFV
きた	来る+V+DESI

きた	く+V+PFV
きた	く+V+DESI
きた	きる+V+PFV
きた	きる+V+DESI
きた	来る+V+PFV
きた	来る+V+DESI

きた	く+V+PFV
きた	く+V+DESI
きた	きる+V+PFV
きた	きる+V+DESI
きた	来る+V+PFV
きた	来る+V+DESI

きた	く+V+PFV
きた	く+V+DESI
きた	きる+V+PFV
きた	きる+V+DESI
きた	来る+V+PFV
きた	来る+V+DESI

きた	く+V+PFV
きた	く+V+DESI
きた	きる+V+PFV
きた	きる+V+DESI
きた	来る+V+PFV
きた	来る+V+DESI

くる	くる+V
くる	来る+V

くる	くる+V
くる	来る+V

くる	くる+V
くる	来る+V

くる	くる+V
くる	来る+V

くる	くる+V
くる	来る+V

くる	くる+V
くる	来る+V

くれ	くれる+V_CONTINUATIVE
くれ	くれる+V_IRREALIS
くれ	くる+V+POT_CONTINUATIVE
くれ	くる+V+POT_IRREALIS
くれ	くる+V+IMP
くれ	くる+V_HYPOTHETICAL
くれ	来る+V+POT_CONTINUATIVE
くれ	来る+V+POT_IRREALIS
くれ	来る+V_HYPOTHETICAL

くれ	くれる+V_CONTINUATIVE
くれ	くれる+V_IRREALIS
くれ	くる+V+POT_CONTINUATIVE
くれ	くる+V+POT_IRREALIS
くれ	くる+V+IMP
くれ	くる+V_HYPOTHETICAL
くれ	来る+V+POT_CONTINUATIVE
くれ	来る+V+POT_IRREALIS
くれ	来る+V_HYPOTHETICAL

くれ	くれる+V_CONTINUATIVE
くれ	くれる+V_IRREALIS
くれ	くる+V+POT_CONTINUATIVE
くれ	くる+V+POT_IRREALIS
くれ	くる+V+IMP
くれ	くる+V_HYPOTHETICAL
くれ	来る+V+POT_CONTINUATIVE
くれ	来る+V+POT_IRREALIS
くれ	来る+V_HYPOTHETICAL

した	したい+ADJ
した	す+V+PFV
した	す+V+DESI
した	する+V+PFV
した	する+V+DESI

した	したい+ADJ
した	す+V+PFV
した	す+V+DESI
した	する+V+PFV
した	する+V+DESI

した	したい+ADJ
した	す+V+PFV
した	す+V+DESI
した	する+V+PFV
した	する+V+DESI

した	したい+ADJ
した	す+V+PFV
した	す+V+DESI
した	する+V+PFV
した	する+V+DESI

した	したい+ADJ
した	す+V+PFV
した	す+V+DESI
した	する+V+PFV
した	する+V+DESI

した	したい+ADJ
した	す+V+PFV
した	す+V+DESI
した	する+V+PFV
した	する+V+DESI

した	したい+ADJ
した	す+V+PFV
した	す+V+DESI
した	する+V+PFV
した	する+V+DESI

した	したい+ADJ
した	す+V+PFV
した	す+V+DESI
した	する+V+PFV
した	する+V+DESI

した	したい+ADJ
した	す+V+PFV
した	す+V+DESI
した	する+V+PFV
した	する+V+DESI

した	したい+ADJ
した	す+V+PFV
した	す+V+DESI
した	する+V+PFV
した	する+V+DESI

した	したい+ADJ
した	す+V+PFV
した	す+V+DESI
した	する+V+PFV
した	する+V+DESI

した	したい+ADJ
した	す+V+PFV
した	す+V+DESI
した	する+V+PFV
した	する+V+DESI

した	したい+ADJ
した	す+V+PFV
した	す+V+DESI
した	する+V+PFV
した	する+V+DESI

した	したい+ADJ
した	す+V+PFV
した	す+V+DESI
した	する+V+PFV
した	する+V+DESI

した	したい+ADJ
した	す+V+PFV
した	す+V+DESI
した	する+V+PFV
した	する+V+DESI

した	したい+ADJ
した	す+V+PFV
した	す+V+DESI
した	する+V+PFV
した	する+V+DESI

した	したい+ADJ
した	す+V+PFV
した	す+V+DESI
した	する+V+PFV
した	する+V+DESI

した	したい+ADJ
した	す+V+PFV
した	す+V+DESI
した	する+V+PFV
した	する+V+DESI

した	したい+ADJ
した	す+V+PFV
した	す+V+DESI
した	する+V+PFV
した	する+V+DESI

した	したい+ADJ
した	す+V+PFV
した	す+V+DESI
した	する+V+PFV
した	する+V+DESI

した	したい+ADJ
した	す+V+PFV
した	す+V+DESI
した	する+V+PFV
した	する+V+DESI

した	したい+ADJ
した	す+V+PFV
した	す+V+DESI
した	する+V+PFV
した	する+V+DESI

した	したい+ADJ
した	す+V+PFV
した	す+V+DESI
した	する+V+PFV
した	する+V+DESI

した	したい+ADJ
した	す+V+PFV
した	す+V+DESI
した	する+V+PFV
した	する+V+DESI

した	したい+ADJ
した	す+V+PFV
した	す+V+DESI
した	する+V+PFV
した	する+V+DESI

した	したい+ADJ
した	す+V+PFV
した	す+V+DESI
した	する+V+PFV
した	する+V+DESI

した	したい+ADJ
した	す+V+PFV
した	す+V+DESI
した	する+V+PFV
した	する+V+DESI

した	したい+ADJ
した	す+V+PFV
した	す+V+DESI
した	する+V+PFV
した	する+V+DESI

した	したい+ADJ
した	す+V+PFV
した	す+V+DESI
した	する+V+PFV
した	する+V+DESI

した	したい+ADJ
した	す+V+PFV
した	す+V+DESI
した	する+V+PFV
した	する+V+DESI

した	したい+ADJ
した	す+V+PFV
した	す+V+DESI
した	する+V+PFV
した	する+V+DESI

した	したい+ADJ
した	す+V+PFV
した	す+V+DESI
した	する+V+PFV
した	する+V+DESI

した	したい+ADJ
した	す+V+PFV
した	す+V+DESI
した	する+V+PFV
した	する+V+DESI

した	したい+ADJ
した	す+V+PFV
した	す+V+DESI
した	する+V+PFV
した	する+V+DESI

した	したい+ADJ
した	す+V+PFV
した	す+V+DESI
した	する+V+PFV
した	する+V+DESI

した	したい+ADJ
した	す+V+PFV
した	す+V+DESI
した	する+V+PFV
した	する+V+DESI

した	したい+ADJ
した	す+V+PFV
した	す+V+DESI
した	する+V+PFV
した	する+V+DESI

した	したい+ADJ
した	す+V+PFV
した	す+V+DESI
した	する+V+PFV
した	する+V+DESI

した	したい+ADJ
した	す+V+PFV
した	す+V+DESI
した	する+V+PFV
した	する+V+DESI

した	したい+ADJ
した	す+V+PFV
した	す+V+DESI
した	する+V+PFV
した	する+V+DESI

した	したい+ADJ
した	す+V+PFV
した	す+V+DESI
した	する+V+PFV
した	する+V+DESI

した	したい+ADJ
した	す+V+PFV
した	す+V+DESI
した	する+V+PFV
した	する+V+DESI

した	したい+ADJ
した	す+V+PFV
した	す+V+DESI
した	する+V+PFV
した	する+V+DESI

した	したい+ADJ
した	す+V+PFV
した	す+V+DESI
した	する+V+PFV
した	する+V+DESI

した	したい+ADJ
した	す+V+PFV
した	す+V+DESI
した	する+V+PFV
した	する+V+DESI

した	したい+ADJ
した	す+V+PFV
した	す+V+DESI
した	する+V+PFV
した	する+V+DESI

した	したい+ADJ
した	す+V+PFV
した	す+V+DESI
した	する+V+PFV
した	する+V+DESI

した	したい+ADJ
した	す+V+PFV
した	す+V+DESI
した	する+V+PFV
した	する+V+DESI

した	したい+ADJ
した	す+V+PFV
した	す+V+DESI
した	する+V+PFV
した	する+V+DESI

した	したい+ADJ
した	す+V+PFV
した	す+V+DESI
した	する+V+PFV
した	する+V+DESI

した	したい+ADJ
した	す+V+PFV
した	す+V+DESI
した	する+V+PFV
した	する+V+DESI

した	したい+ADJ
した	す+V+PFV
した	す+V+DESI
した	する+V+PFV
した	する+V+DESI

した	したい+ADJ
した	す+V+PFV
した	す+V+DESI
した	する+V+PFV
した	する+V+DESI

した	したい+ADJ
した	す+V+PFV
した	す+V+DESI
した	する+V+PFV
した	する+V+DESI

した	したい+ADJ
した	す+V+PFV
した	す+V+DESI
した	する+V+PFV
した	する+V+DESI

した	したい+ADJ
した	す+V+PFV
した	す+V+DESI
した	する+V+PFV
した	する+V+DESI

した	したい+ADJ
した	す+V+PFV
した	す+V+DESI
した	する+V+PFV
した	する+V+DESI

した	したい+ADJ
した	す+V+PFV
した	す+V+DESI
した	する+V+PFV
した	する+V+DESI

した	したい+ADJ
した	す+V+PFV
した	す+V+DESI
した	する+V+PFV
した	する+V+DESI

した	したい+ADJ
した	す+V+PFV
した	す+V+DESI
した	する+V+PFV
した	する+V+DESI

した	したい+ADJ
した	す+V+PFV
した	す+V+DESI
した	する+V+PFV
した	する+V+DESI

した	したい+ADJ
した	す+V+PFV
した	す+V+DESI
した	する+V+PFV
した	する+V+DESI

した	したい+ADJ
した	す+V+PFV
した	す+V+DESI
した	する+V+PFV
した	する+V+DESI

した	したい+ADJ
した	す+V+PFV
した	す+V+DESI
した	する+V+PFV
した	する+V+DESI

した	したい+ADJ
した	す+V+PFV
した	す+V+DESI
した	する+V+PFV
した	する+V+DESI

した	したい+ADJ
した	す+V+PFV
した	す+V+DESI
した	する+V+PFV
した	する+V+DESI

した	したい+ADJ
した	す+V+PFV
した	す+V+DESI
した	する+V+PFV
した	する+V+DESI

した	したい+ADJ
した	す+V+PFV
した	す+V+DESI
した	する+V+PFV
した	する+V+DESI

した	したい+ADJ
した	す+V+PFV
した	す+V+DESI
した	する+V+PFV
した	する+V+DESI

した	したい+ADJ
した	す+V+PFV
した	す+V+DESI
した	する+V+PFV
した	する+V+DESI

した	したい+ADJ
した	す+V+PFV
した	す+V+DESI
した	する+V+PFV
した	する+V+DESI

した	したい+ADJ
した	す+V+PFV
した	す+V+DESI
した	する+V+PFV
した	する+V+DESI

した	したい+ADJ
した	す+V+PFV
した	す+V+DESI
した	する+V+PFV
した	する+V+DESI

した	したい+ADJ
した	す+V+PFV
した	す+V+DESI
した	する+V+PFV
した	する+V+DESI

した	したい+ADJ
した	す+V+PFV
した	す+V+DESI
した	する+V+PFV
した	する+V+DESI

した	したい+ADJ
した	す+V+PFV
した	す+V+DESI
した	する+V+PFV
した	する+V+DESI

した	したい+ADJ
した	す+V+PFV
した	す+V+DESI
した	する+V+PFV
した	する+V+DESI

した	したい+ADJ
した	す+V+PFV
した	す+V+DESI
した	する+V+PFV
した	する+V+DESI

した	したい+ADJ
した	す+V+PFV
した	す+V+DESI
した	する+V+PFV
した	する+V+DESI

した	したい+ADJ
した	す+V+PFV
した	す+V+DESI
した	する+V+PFV
した	する+V+DESI

した	したい+ADJ
した	す+V+PFV
した	す+V+DESI
した	する+V+PFV
した	する+V+DESI

した	したい+ADJ
した	す+V+PFV
した	す+V+DESI
した	する+V+PFV
した	する+V+DESI

した	したい+ADJ
した	す+V+PFV
した	す+V+DESI
した	する+V+PFV
した	する+V+DESI

した	したい+ADJ
した	す+V+PFV
した	す+V+DESI
した	する+V+PFV
した	する+V+DESI

した	したい+ADJ
した	す+V+PFV
した	す+V+DESI
した	する+V+PFV
した	する+V+DESI

した	したい+ADJ
した	す+V+PFV
した	す+V+DESI
した	する+V+PFV
した	する+V+DESI

した	したい+ADJ
した	す+V+PFV
した	す+V+DESI
した	する+V+PFV
した	する+V+DESI

した	したい+ADJ
した	す+V+PFV
した	す+V+DESI
した	する+V+PFV
した	する+V+DESI

した	したい+ADJ
した	す+V+PFV
した	す+V+DESI
した	する+V+PFV
した	する+V+DESI

した	したい+ADJ
した	す+V+PFV
した	す+V+DESI
した	する+V+PFV
した	する+V+DESI

した	したい+ADJ
した	す+V+PFV
した	す+V+DESI
した	する+V+PFV
した	する+V+DESI

した	したい+ADJ
した	す+V+PFV
した	す+V+DESI
した	する+V+PFV
した	する+V+DESI

した	したい+ADJ
した	す+V+PFV
した	す+V+DESI
した	する+V+PFV
した	する+V+DESI

しん	しん+ADJ
しん	しむ+V_CONTINUATIVE
しん	しぬ+V_CONTINUATIVE

すっ	すう+V_CONTINUATIVE
すっ	する+V_CONTINUATIVE

する	する+V

する	する+V

する	する+V

する	する+V

する	する+V

する	する+V

する	する+V

する	する+V

する	する+V

する	する+V

する	する+V

する	する+V

する	する+V

する	する+V

する	する+V

する	する+V

する	する+V

する	する+V

する	する+V

する	する+V

する	する+V

する	する+V

する	する+V

する	する+V

する	する+V

する	する+V

する	する+V

する	する+V

する	する+V

する	する+V

する	する+V

する	する+V

する	する+V

する	する+V

する	する+V

する	する+V

する	する+V

する	する+V

する	する+V

する	する+V

する	する+V

する	する+V

する	する+V

する	する+V

する	する+V

する	する+V

する	する+V

する	する+V

する	する+V

する	する+V

する	する+V

する	する+V

する	する+V

する	する+V

する	する+V

する	する+V

する	する+V

する	する+V

する	する+V

する	する+V

する	する+V

する	する+V

する	する+V

する	する+V

する	する+V

する	する+V

する	する+V

する	する+V

する	する+V

する	する+V

する	する+V

する	する+V

する	する+V

する	する+V

する	する+V

せよ	せる+V+IMP
せよ	す+V+POT+IMP
せよ	する+V+IMP

そる	そる+V

やり	やる+V_CONTINUATIVE

やる	やる+V

やる	やる+V

やる	やる+V

ゆく	ゆく+V

ゆく	ゆく+V

おびえた	おびえる+V+PFV
おびえた	おびえる+V+DESI

及びます	及ぶ+V+POL

尋ねた	尋ねる+V+PFV
尋ねた	尋ねる+V+DESI

尋ねる	尋ねる+V

寝よう	寝る+V+VOL

始めた	始める+V+PFV
始めた	始める+V+DESI

始めた	始める+V+PFV
始めた	始める+V+DESI

始めた	始める+V+PFV
始めた	始める+V+DESI

始めた	始める+V+PFV
始めた	始める+V+DESI

始めた	始める+V+PFV
始めた	始める+V+DESI

始めた	始める+V+PFV
始めた	始める+V+DESI

始めた	始める+V+PFV
始めた	始める+V+DESI

始める	始める+V

壊した	壊す+V+PFV
壊した	壊す+V+DESI

壊れた	壊れる+V+PFV
壊れた	壊れる+V+DESI

壊れた	壊れる+V+PFV
壊れた	壊れる+V+DESI

失った	失う+V+PFV

失われ	失う+V+PASV_CONTINUATIVE
失われ	失う+V+PASV_IRREALIS

変わり	変わる+V_CONTINUATIVE

値する	値する+V

値する	値する+V

倒れた	倒れる+V+PFV
倒れた	倒れる+V+DESI

倒れた	倒れる+V+PFV
倒れた	倒れる+V+DESI

入れた	入れる+V+PFV
入れた	入れる+V+DESI
入れた	入る+V+POT+PFV
入れた	入る+V+POT+DESI

入れる	入れる+V
入れる	入る+V+POT

助けた	助ける+V+PFV
助けた	助ける+V+DESI
助けた	助く+V+POT+PFV
助けた	助く+V+POT+DESI

劣らず	劣る+V+COND+NEG
劣らず	劣る+V+NEG

劣らず	劣る+V+COND+NEG
劣らず	劣る+V+NEG

勧めた	勧める+V+PFV
勧めた	勧める+V+DESI

叱った	叱る+V+PFV

取った	取る+V+PFV

取れる	取れる+V
取れる	取る+V+POT

受かる	受かる+V

受ける	受ける+V

合った	合う+V+PFV

代わる	代わる+V

はさむ	はさむ+V

はじめ	はじめる+V_CONTINUATIVE
はじめ	はじめる+V_IRREALIS

みたら	みる+V+PFV+COND
みたら	みつ+V+COND

みよう	みる+V+VOL
みよう	みよい+ADJ+VOL

できた	できる+V+PFV
できた	できる+V+DESI

できる	できる+V

できる	できる+V

できる	できる+V

できる	できる+V

できる	できる+V

できる	できる+V

できる	できる+V

できる	できる+V

できる	できる+V

ついた	つる+V+PROG+PFV
ついた	つる+V+PROG+DESI
ついた	つく+V+PFV

ついた	つる+V+PROG+PFV
ついた	つる+V+PROG+DESI
ついた	つく+V+PFV

つける	つける+V
つける	つく+V+POT

あった	あう+V+PFV
あった	ある+V+PFV

あった	あう+V+PFV
あった	ある+V+PFV

あった	あう+V+PFV
あった	ある+V+PFV

あった	あう+V+PFV
あった	ある+V+PFV

あった	あう+V+PFV
あった	ある+V+PFV

あった	あう+V+PFV
あった	ある+V+PFV

あった	あう+V+PFV
あった	ある+V+PFV

あった	あう+V+PFV
あった	ある+V+PFV

あった	あう+V+PFV
あった	ある+V+PFV

あった	あう+V+PFV
あった	ある+V+PFV

あった	あう+V+PFV
あった	ある+V+PFV

あった	あう+V+PFV
あった	ある+V+PFV

あいた	ある+V+PROG+PFV
あいた	ある+V+PROG+DESI
あいた	あう+V+PFV
あいた	あう+V+DESI
あいた	あく+V+PFV

あがる	あがる+V

あげる	あげる+V

あたる	あたる+V

あれば	あれる+V+COND
あれば	ある+V+COND
あれば	ある+V+POT+COND

あれば	あれる+V+COND
あれば	ある+V+COND
あれば	ある+V+POT+COND

あれば	あれる+V+COND
あれば	ある+V+COND
あれば	ある+V+POT+COND

あれば	あれる+V+COND
あれば	ある+V+COND
あれば	ある+V+POT+COND

あれば	あれる+V+COND
あれば	ある+V+COND
あれば	ある+V+POT+COND

いった	いう+V+PFV
いった	いる+V+PFV

いった	いう+V+PFV
いった	いる+V+PFV

いった	いう+V+PFV
いった	いる+V+PFV

いった	いう+V+PFV
いった	いる+V+PFV

いった	いう+V+PFV
いった	いる+V+PFV

いった	いう+V+PFV
いった	いる+V+PFV

いった	いう+V+PFV
いった	いる+V+PFV

いえば	いえる+V+COND
いえば	いう+V+COND
いえば	いう+V+POT+COND

いこう	いこう+V
いこう	いく+V+VOL

いれば	いれる+V+COND
いれば	いる+V+COND
いれば	いる+V+POT+COND

いれる	いれる+V
いれる	いる+V+POT

うるで	うる+V+TE

おいた	おる+V+PROG+PFV
おいた	おる+V+PROG+DESI
おいた	おう+V+PFV
おいた	おう+V+DESI
おいた	おいる+V+PFV
おいた	おいる+V+DESI
おいた	おく+V+PFV

おいた	おる+V+PROG+PFV
おいた	おる+V+PROG+DESI
おいた	おう+V+PFV
おいた	おう+V+DESI
おいた	おいる+V+PFV
おいた	おいる+V+DESI
おいた	おく+V+PFV

おろす	おろす+V

かかり	かかる+V_CONTINUATIVE

かがみ	かがむ+V_CONTINUATIVE

かけた	かける+V+PFV
かけた	かける+V+DESI
かけた	かく+V+POT+PFV
かけた	かく+V+POT+DESI

かけた	かける+V+PFV
かけた	かける+V+DESI
かけた	かく+V+POT+PFV
かけた	かく+V+POT+DESI

かけた	かける+V+PFV
かけた	かける+V+DESI
かけた	かく+V+POT+PFV
かけた	かく+V+POT+DESI

がった	がる+V+PFV

きいた	く+V+PROG+PFV
きいた	く+V+PROG+DESI
きいた	きる+V+PROG+PFV
きいた	きる+V+PROG+DESI
きいた	きる+V+PROG+PFV
きいた	きる+V+PROG+DESI
きいた	きく+V+PFV
きいた	来る+V+PROG+PFV
きいた	来る+V+PROG+DESI

きたら	く+V+PFV+COND
きたら	きる+V+PFV+COND
きたら	きたる+V+COND
きたら	きたる+V_IRREALIS
きたら	来る+V+PFV+COND

くれた	くれる+V+PFV
くれた	くれる+V+DESI
くれた	くる+V+POT+PFV
くれた	くる+V+POT+DESI
くれた	来る+V+POT+PFV
くれた	来る+V+POT+DESI

くれた	くれる+V+PFV
くれた	くれる+V+DESI
くれた	くる+V+POT+PFV
くれた	くる+V+POT+DESI
くれた	来る+V+POT+PFV
くれた	来る+V+POT+DESI

くれた	くれる+V+PFV
くれた	くれる+V+DESI
くれた	くる+V+POT+PFV
くれた	くる+V+POT+DESI
くれた	来る+V+POT+PFV
くれた	来る+V+POT+DESI

くれた	くれる+V+PFV
くれた	くれる+V+DESI
くれた	くる+V+POT+PFV
くれた	くる+V+POT+DESI
くれた	来る+V+POT+PFV
くれた	来る+V+POT+DESI

くれた	くれる+V+PFV
くれた	くれる+V+DESI
くれた	くる+V+POT+PFV
くれた	くる+V+POT+DESI
くれた	来る+V+POT+PFV
くれた	来る+V+POT+DESI

くれた	くれる+V+PFV
くれた	くれる+V+DESI
くれた	くる+V+POT+PFV
くれた	くる+V+POT+DESI
くれた	来る+V+POT+PFV
くれた	来る+V+POT+DESI

くれた	くれる+V+PFV
くれた	くれる+V+DESI
くれた	くる+V+POT+PFV
くれた	くる+V+POT+DESI
くれた	来る+V+POT+PFV
くれた	来る+V+POT+DESI

くれた	くれる+V+PFV
くれた	くれる+V+DESI
くれた	くる+V+POT+PFV
くれた	くる+V+POT+DESI
くれた	来る+V+POT+PFV
くれた	来る+V+POT+DESI

くれた	くれる+V+PFV
くれた	くれる+V+DESI
くれた	くる+V+POT+PFV
くれた	くる+V+POT+DESI
くれた	来る+V+POT+PFV
くれた	来る+V+POT+DESI

くれた	くれる+V+PFV
くれた	くれる+V+DESI
くれた	くる+V+POT+PFV
くれた	くる+V+POT+DESI
くれた	来る+V+POT+PFV
くれた	来る+V+POT+DESI

くれた	くれる+V+PFV
くれた	くれる+V+DESI
くれた	くる+V+POT+PFV
くれた	くる+V+POT+DESI
くれた	来る+V+POT+PFV
くれた	来る+V+POT+DESI

くれた	くれる+V+PFV
くれた	くれる+V+DESI
くれた	くる+V+POT+PFV
くれた	くる+V+POT+DESI
くれた	来る+V+POT+PFV
くれた	来る+V+POT+DESI

くれる	くれる+V
くれる	くる+V+POT
くれる	来る+V+POT

くれる	くれる+V
くれる	くる+V+POT
くれる	来る+V+POT

くれる	くれる+V
くれる	くる+V+POT
くれる	来る+V+POT

くれる	くれる+V
くれる	くる+V+POT
くれる	来る+V+POT

こいで	こる+V+PROG+TE
こいで	こい+ADJ+TE
こいで	こう+V+TE
こいで	こく+V+TE
こいで	こぐ+V+TE
こいで	来る+V+PROG+TE

こたえ	こたえる+V_CONTINUATIVE
こたえ	こたえる+V_IRREALIS

させた	させる+V+PFV
させた	させる+V+DESI
させた	さす+V+POT+PFV
させた	さす+V+POT+DESI
させた	す+V+CAUS+PFV
させた	す+V+CAUS+DESI
させた	する+V+CAUS+PFV
させた	する+V+CAUS+DESI

された	される+V+PFV
された	される+V+DESI
された	さる+V+POT+PFV
された	さる+V+POT+DESI
された	す+V+PASV+PFV
された	す+V+PASV+DESI
された	する+V+PASV+PFV
された	する+V+PASV+DESI

された	される+V+PFV
された	される+V+DESI
された	さる+V+POT+PFV
された	さる+V+POT+DESI
された	す+V+PASV+PFV
された	す+V+PASV+DESI
された	する+V+PASV+PFV
された	する+V+PASV+DESI

された	される+V+PFV
された	される+V+DESI
された	さる+V+POT+PFV
された	さる+V+POT+DESI
された	す+V+PASV+PFV
された	す+V+PASV+DESI
された	する+V+PASV+PFV
された	する+V+PASV+DESI

された	される+V+PFV
された	される+V+DESI
された	さる+V+POT+PFV
された	さる+V+POT+DESI
された	す+V+PASV+PFV
された	す+V+PASV+DESI
された	する+V+PASV+PFV
された	する+V+PASV+DESI

された	される+V+PFV
された	される+V+DESI
された	さる+V+POT+PFV
された	さる+V+POT+DESI
された	す+V+PASV+PFV
された	す+V+PASV+DESI
された	する+V+PASV+PFV
された	する+V+PASV+DESI

された	される+V+PFV
された	される+V+DESI
された	さる+V+POT+PFV
された	さる+V+POT+DESI
された	す+V+PASV+PFV
された	す+V+PASV+DESI
された	する+V+PASV+PFV
された	する+V+PASV+DESI

された	される+V+PFV
された	される+V+DESI
された	さる+V+POT+PFV
された	さる+V+POT+DESI
された	す+V+PASV+PFV
された	す+V+PASV+DESI
された	する+V+PASV+PFV
された	する+V+PASV+DESI

される	される+V
される	さる+V+POT
される	す+V+PASV
される	する+V+PASV

される	される+V
される	さる+V+POT
される	す+V+PASV
される	する+V+PASV

しかる	しかる+V

したい	したい+ADJ
したい	したう+V_CONTINUATIVE
したい	す+V+PFV+PROG_CONTINUATIVE
したい	す+V+PFV+PROG_IRREALIS
したい	す+V+DESI
したい	する+V+PFV+PROG_CONTINUATIVE
したい	する+V+PFV+PROG_IRREALIS
したい	する+V+DESI

したい	したい+ADJ
したい	したう+V_CONTINUATIVE
したい	す+V+PFV+PROG_CONTINUATIVE
したい	す+V+PFV+PROG_IRREALIS
したい	す+V+DESI
したい	する+V+PFV+PROG_CONTINUATIVE
したい	する+V+PFV+PROG_IRREALIS
したい	する+V+DESI

したい	したい+ADJ
したい	したう+V_CONTINUATIVE
したい	す+V+PFV+PROG_CONTINUATIVE
したい	す+V+PFV+PROG_IRREALIS
したい	す+V+DESI
したい	する+V+PFV+PROG_CONTINUATIVE
したい	する+V+PFV+PROG_IRREALIS
したい	する+V+DESI

したい	したい+ADJ
したい	したう+V_CONTINUATIVE
したい	す+V+PFV+PROG_CONTINUATIVE
したい	す+V+PFV+PROG_IRREALIS
したい	す+V+DESI
したい	する+V+PFV+PROG_CONTINUATIVE
したい	する+V+PFV+PROG_IRREALIS
したい	する+V+DESI

したら	す+V+PFV+COND
したら	する+V+PFV+COND

したら	す+V+PFV+COND
したら	する+V+PFV+COND

したら	す+V+PFV+COND
したら	する+V+PFV+COND

したら	す+V+PFV+COND
したら	する+V+PFV+COND

しよう	する+V+VOL

しよう	する+V+VOL

しよう	する+V+VOL

しよう	する+V+VOL

しよう	する+V+VOL

しよう	する+V+VOL

すぎる	すぎる+V

すぎる	すぎる+V

すれば	すれる+V+COND
すれば	する+V+COND
すれば	する+V+POT+COND

すれば	すれる+V+COND
すれば	する+V+COND
すれば	する+V+POT+COND

すれば	すれる+V+COND
すれば	する+V+COND
すれば	する+V+POT+COND

もらい	もらう+V_CONTINUATIVE

もらう	もらう+V

もらえ	もらえる+V_CONTINUATIVE
もらえ	もらえる+V_IRREALIS
もらえ	もらう+V+POT_CONTINUATIVE
もらえ	もらう+V+POT_IRREALIS
もらえ	もらう+V+IMP
もらえ	もらう+V_HYPOTHETICAL

やった	やる+V+PFV

やった	やる+V+PFV

やめた	やめる+V+PFV
やめた	やめる+V+DESI
やめた	やむ+V+POT+PFV
やめた	やむ+V+POT+DESI

やめた	やめる+V+PFV
やめた	やめる+V+DESI
やめた	やむ+V+POT+PFV
やめた	やむ+V+POT+DESI

やめる	やめる+V
やめる	やむ+V+POT

やれる	やれる+V
やれる	やる+V+POT

よらぬ	よる+V+COND+NEG
よらぬ	よる+V+NEG

よれば	よれる+V+COND
よれば	よる+V+COND
よれば	よる+V+POT+COND

よれば	よれる+V+COND
よれば	よる+V+COND
よれば	よる+V+POT+COND

わかる	わかる+V

努め	努める+V_CONTINUATIVE
努め	努める+V_IRREALIS
努め	努む+V+POT_CONTINUATIVE
努め	努む+V+POT_IRREALIS
努め	努む+V+IMP
努め	努む+V_HYPOTHETICAL

なり	なる+V_CONTINUATIVE

なり	なる+V_CONTINUATIVE

なり	なる+V_CONTINUATIVE

なる	なる+V

なる	なる+V

なる	なる+V

なる	なる+V

なる	なる+V

なる	なる+V

なる	なる+V

なる	なる+V

なる	なる+V

なる	なる+V

なる	なる+V

なる	なる+V

なる	なる+V

なる	なる+V

なる	なる+V

なる	なる+V

なる	なる+V

なる	なる+V

なる	なる+V

はこべません	はこべる+V+POL+NEG
はこべません	はこぶ+V+POT+POL+NEG

動き回る	動き回る+V

塗らせた	塗る+V+CAUS+PFV
塗らせた	塗る+V+CAUS+DESI

壊された	壊す+V+PASV+PFV
壊された	壊す+V+PASV+DESI

変えよう	変える+V+VOL

変わった	変わる+V+PFV

倒された	倒す+V+PASV+PFV
倒された	倒す+V+PASV+DESI

備えよう	備える+V+VOL

入ったら	入る+V+PFV+COND

分かった	分かる+V+PFV
分かった	分かつ+V+PFV

分かった	分かる+V+PFV
分かった	分かつ+V+PFV

分かった	分かる+V+PFV
分かった	分かつ+V+PFV

分かれる	分かれる+V
分かれる	分かる+V+POT

困らせる	困らせる+V
困らせる	困る+V+CAUS

代わった	代わる+V+PFV

ねむった	ねむる+V+PFV

ちゃった	ちゃう+V+PFV

ちゃった	ちゃう+V+PFV

ちゃった	ちゃう+V+PFV

つぶした	つぶす+V+PFV
つぶした	つぶす+V+DESI

つづけた	つづける+V+PFV
つづけた	つづける+V+DESI
つづけた	つづく+V+POT+PFV
つづけた	つづく+V+POT+DESI

あったら	あう+V+PFV+COND
あったら	ある+V+PFV+COND

あったら	あう+V+PFV+COND
あったら	ある+V+PFV+COND

あおむけ	あおむける+V_CONTINUATIVE
あおむけ	あおむける+V_IRREALIS
あおむけ	あおむく+V+POT_CONTINUATIVE
あおむけ	あおむく+V+POT_IRREALIS
あおむけ	あおむく+V+IMP
あおむけ	あおむく+V_HYPOTHETICAL

あおむけ	あおむける+V_CONTINUATIVE
あおむけ	あおむける+V_IRREALIS
あおむけ	あおむく+V+POT_CONTINUATIVE
あおむけ	あおむく+V+POT_IRREALIS
あおむけ	あおむく+V+IMP
あおむけ	あおむく+V_HYPOTHETICAL

あがった	あがる+V+PFV

あげよう	あげる+V+VOL

あげよう	あげる+V+VOL

かぶった	かぶる+V+PFV

かかった	かかる+V+PFV

かかれる	かかれる+V
かかれる	かかる+V+POT
かかれる	かく+V+PASV

かかわる	かかわる+V

かけたい	かける+V+PFV+PROG_CONTINUATIVE
かけたい	かける+V+PFV+PROG_IRREALIS
かけたい	かける+V+DESI
かけたい	かく+V+POT+PFV+PROG_CONTINUATIVE
かけたい	かく+V+POT+PFV+PROG_IRREALIS
かけたい	かく+V+POT+DESI

こすれば	こすれる+V+COND
こすれば	こする+V+COND
こすれば	こする+V+POT+COND

こらえる	こらえる+V

させたら	させる+V+PFV+COND
させたら	さす+V+POT+PFV+COND
させたら	す+V+CAUS+PFV+COND
させたら	する+V+CAUS+PFV+COND

すごした	すごい+ADJ+PFV
すごした	すごす+V+PFV
すごした	すごす+V+DESI
すごした	すごする+V+PFV
すごした	すごする+V+DESI

ずらかれ	ずらかる+V+POT_CONTINUATIVE
ずらかれ	ずらかる+V+POT_IRREALIS
ずらかれ	ずらかる+V+IMP
ずらかれ	ずらかる+V_HYPOTHETICAL

そむかぬ	そむく+V+NEG

もらった	もらう+V+PFV

もらった	もらう+V+PFV

もらった	もらう+V+PFV

もらえる	もらえる+V
もらえる	もらう+V+POT

やりたい	やる+V+PFV+PROG_CONTINUATIVE
やりたい	やる+V+PFV+PROG_IRREALIS
やりたい	やる+V+DESI

わかった	わかる+V+PFV
わかった	わかつ+V+PFV

わかった	わかる+V+PFV
わかった	わかつ+V+PFV

わかった	わかる+V+PFV
わかった	わかつ+V+PFV

わかった	わかる+V+PFV
わかった	わかつ+V+PFV

わかった	わかる+V+PFV
わかった	わかつ+V+PFV

わたった	わたる+V+PFV

奪った	奪う+V+PFV

呪った	呪う+V+PFV

なった	なう+V+PFV
なった	なる+V+PFV

なった	なう+V+PFV
なった	なる+V+PFV

なった	なう+V+PFV
なった	なる+V+PFV

なった	なう+V+PFV
なった	なる+V+PFV

なった	なう+V+PFV
なった	なる+V+PFV

なった	なう+V+PFV
なった	なる+V+PFV

なった	なう+V+PFV
なった	なる+V+PFV

なった	なう+V+PFV
なった	なる+V+PFV

なった	なう+V+PFV
なった	なる+V+PFV

なった	なう+V+PFV
なった	なる+V+PFV

なった	なう+V+PFV
なった	なる+V+PFV

なった	なう+V+PFV
なった	なる+V+PFV

なった	なう+V+PFV
なった	なる+V+PFV

なった	なう+V+PFV
なった	なる+V+PFV

なった	なう+V+PFV
なった	なる+V+PFV

なった	なう+V+PFV
なった	なる+V+PFV

なった	なう+V+PFV
なった	なる+V+PFV

なった	なう+V+PFV
なった	なる+V+PFV

なくす	なくす+V

なさい	なさる+V+PROG_CONTINUATIVE
なさい	なさる+V+PROG_IRREALIS
なさい	なさる+V+IMP
なさい	なさる+V_CONTINUATIVE

なさい	なさる+V+PROG_CONTINUATIVE
なさい	なさる+V+PROG_IRREALIS
なさい	なさる+V+IMP
なさい	なさる+V_CONTINUATIVE

なさい	なさる+V+PROG_CONTINUATIVE
なさい	なさる+V+PROG_IRREALIS
なさい	なさる+V+IMP
なさい	なさる+V_CONTINUATIVE

なさい	なさる+V+PROG_CONTINUATIVE
なさい	なさる+V+PROG_IRREALIS
なさい	なさる+V+IMP
なさい	なさる+V_CONTINUATIVE

なさい	なさる+V+PROG_CONTINUATIVE
なさい	なさる+V+PROG_IRREALIS
なさい	なさる+V+IMP
なさい	なさる+V_CONTINUATIVE

なさい	なさる+V+PROG_CONTINUATIVE
なさい	なさる+V+PROG_IRREALIS
なさい	なさる+V+IMP
なさい	なさる+V_CONTINUATIVE

なさい	なさる+V+PROG_CONTINUATIVE
なさい	なさる+V+PROG_IRREALIS
なさい	なさる+V+IMP
なさい	なさる+V_CONTINUATIVE

なさい	なさる+V+PROG_CONTINUATIVE
なさい	なさる+V+PROG_IRREALIS
なさい	なさる+V+IMP
なさい	なさる+V_CONTINUATIVE

なさい	なさる+V+PROG_CONTINUATIVE
なさい	なさる+V+PROG_IRREALIS
なさい	なさる+V+IMP
なさい	なさる+V_CONTINUATIVE

なさい	なさる+V+PROG_CONTINUATIVE
なさい	なさる+V+PROG_IRREALIS
なさい	なさる+V+IMP
なさい	なさる+V_CONTINUATIVE

なさい	なさる+V+PROG_CONTINUATIVE
なさい	なさる+V+PROG_IRREALIS
なさい	なさる+V+IMP
なさい	なさる+V_CONTINUATIVE

なさい	なさる+V+PROG_CONTINUATIVE
なさい	なさる+V+PROG_IRREALIS
なさい	なさる+V+IMP
なさい	なさる+V_CONTINUATIVE

なさい	なさる+V+PROG_CONTINUATIVE
なさい	なさる+V+PROG_IRREALIS
なさい	なさる+V+IMP
なさい	なさる+V_CONTINUATIVE

なさい	なさる+V+PROG_CONTINUATIVE
なさい	なさる+V+PROG_IRREALIS
なさい	なさる+V+IMP
なさい	なさる+V_CONTINUATIVE

なさい	なさる+V+PROG_CONTINUATIVE
なさい	なさる+V+PROG_IRREALIS
なさい	なさる+V+IMP
なさい	なさる+V_CONTINUATIVE

なさい	なさる+V+PROG_CONTINUATIVE
なさい	なさる+V+PROG_IRREALIS
なさい	なさる+V+IMP
なさい	なさる+V_CONTINUATIVE

なさい	なさる+V+PROG_CONTINUATIVE
なさい	なさる+V+PROG_IRREALIS
なさい	なさる+V+IMP
なさい	なさる+V_CONTINUATIVE

なさい	なさる+V+PROG_CONTINUATIVE
なさい	なさる+V+PROG_IRREALIS
なさい	なさる+V+IMP
なさい	なさる+V_CONTINUATIVE

なさい	なさる+V+PROG_CONTINUATIVE
なさい	なさる+V+PROG_IRREALIS
なさい	なさる+V+IMP
なさい	なさる+V_CONTINUATIVE

なさい	なさる+V+PROG_CONTINUATIVE
なさい	なさる+V+PROG_IRREALIS
なさい	なさる+V+IMP
なさい	なさる+V_CONTINUATIVE

なさい	なさる+V+PROG_CONTINUATIVE
なさい	なさる+V+PROG_IRREALIS
なさい	なさる+V+IMP
なさい	なさる+V_CONTINUATIVE

でない	でる+V+NEG
でない	でる+V+IMP+NEG

けなす	けなす+V

しない	しなる+V+PROG_CONTINUATIVE
しない	しなる+V+PROG_IRREALIS
しない	しなう+V_CONTINUATIVE
しない	す+V+IMP+NEG
しない	する+V+IMP+NEG
しない	する+V+NEG

しない	しなる+V+PROG_CONTINUATIVE
しない	しなる+V+PROG_IRREALIS
しない	しなう+V_CONTINUATIVE
しない	す+V+IMP+NEG
しない	する+V+IMP+NEG
しない	する+V+NEG

しない	しなる+V+PROG_CONTINUATIVE
しない	しなる+V+PROG_IRREALIS
しない	しなう+V_CONTINUATIVE
しない	す+V+IMP+NEG
しない	する+V+IMP+NEG
しない	する+V+NEG

しない	しなる+V+PROG_CONTINUATIVE
しない	しなる+V+PROG_IRREALIS
しない	しなう+V_CONTINUATIVE
しない	す+V+IMP+NEG
しない	する+V+IMP+NEG
しない	する+V+NEG

しない	しなる+V+PROG_CONTINUATIVE
しない	しなる+V+PROG_IRREALIS
しない	しなう+V_CONTINUATIVE
しない	す+V+IMP+NEG
しない	する+V+IMP+NEG
しない	する+V+NEG

しない	しなる+V+PROG_CONTINUATIVE
しない	しなる+V+PROG_IRREALIS
しない	しなう+V_CONTINUATIVE
しない	す+V+IMP+NEG
しない	する+V+IMP+NEG
しない	する+V+NEG

しない	しなる+V+PROG_CONTINUATIVE
しない	しなる+V+PROG_IRREALIS
しない	しなう+V_CONTINUATIVE
しない	す+V+IMP+NEG
しない	する+V+IMP+NEG
しない	する+V+NEG

分からせた	分かる+V+CAUS+PFV
分からせた	分かる+V+CAUS+DESI

分けられた	分ける+V+POT+PFV
分けられた	分ける+V+POT+DESI
分けられた	分ける+V+PASV+PFV
分けられた	分ける+V+PASV+DESI

のがれたい	のがれる+V+PFV+PROG_CONTINUATIVE
のがれたい	のがれる+V+PFV+PROG_IRREALIS
のがれたい	のがれる+V+DESI

おっしゃる	おっしゃる+V

からかわず	からかう+V+NEG

かわいがる	かわいがる+V

したかった	したい+ADJ+PFV
したかった	す+V+DESI+PFV
したかった	する+V+DESI+PFV

もらわねば	もらう+V+COND+NEG

やくしたい	やくす+V+PFV+PROG_CONTINUATIVE
やくしたい	やくす+V+PFV+PROG_IRREALIS
やくしたい	やくす+V+DESI

わからせる	わかる+V+CAUS

なったら	なう+V+PFV+COND
なったら	なる+V+PFV+COND

なくした	なくす+V+PFV
なくした	なくす+V+DESI

ならんで	なる+V+COND+NEG+TE
ならんで	ならぶ+V+TE
ならんで	なる+V+NEG+TE

忘れない	忘れる+V+NEG
忘れない	忘れる+V+IMP+NEG
忘れない	忘る+V+POT+NEG
忘れない	忘る+V+POT+IMP+NEG

忘れない	忘れる+V+NEG
忘れない	忘れる+V+IMP+NEG
忘れない	忘る+V+POT+NEG
忘れない	忘る+V+POT+IMP+NEG

取らない	取る+V+COND+NEG
取らない	取る+V+NEG

できない	できる+V+NEG
できない	できる+V+IMP+NEG

できない	できる+V+NEG
できない	できる+V+IMP+NEG

できない	できる+V+NEG
できない	できる+V+IMP+NEG

できない	できる+V+NEG
できない	できる+V+IMP+NEG

できない	できる+V+NEG
できない	できる+V+IMP+NEG

できない	できる+V+NEG
できない	できる+V+IMP+NEG

できない	できる+V+NEG
できない	できる+V+IMP+NEG

できない	できる+V+NEG
できない	できる+V+IMP+NEG

できない	できる+V+NEG
できない	できる+V+IMP+NEG

できない	できる+V+NEG
できない	できる+V+IMP+NEG

できない	できる+V+NEG
できない	できる+V+IMP+NEG

できない	できる+V+NEG
できない	できる+V+IMP+NEG

いけない	いける+V+NEG
いけない	いける+V+IMP+NEG
いけない	いく+V+POT+NEG
いけない	いく+V+POT+IMP+NEG

いけない	いける+V+NEG
いけない	いける+V+IMP+NEG
いけない	いく+V+POT+NEG
いけない	いく+V+POT+IMP+NEG

いけない	いける+V+NEG
いけない	いける+V+IMP+NEG
いけない	いく+V+POT+NEG
いけない	いく+V+POT+IMP+NEG

いけない	いける+V+NEG
いけない	いける+V+IMP+NEG
いけない	いく+V+POT+NEG
いけない	いく+V+POT+IMP+NEG

いけない	いける+V+NEG
いけない	いける+V+IMP+NEG
いけない	いく+V+POT+NEG
いけない	いく+V+POT+IMP+NEG

いけない	いける+V+NEG
いけない	いける+V+IMP+NEG
いけない	いく+V+POT+NEG
いけない	いく+V+POT+IMP+NEG

いけない	いける+V+NEG
いけない	いける+V+IMP+NEG
いけない	いく+V+POT+NEG
いけない	いく+V+POT+IMP+NEG

いけない	いける+V+NEG
いけない	いける+V+IMP+NEG
いけない	いく+V+POT+NEG
いけない	いく+V+POT+IMP+NEG

いけない	いける+V+NEG
いけない	いける+V+IMP+NEG
いけない	いく+V+POT+NEG
いけない	いく+V+POT+IMP+NEG

いけない	いける+V+NEG
いけない	いける+V+IMP+NEG
いけない	いく+V+POT+NEG
いけない	いく+V+POT+IMP+NEG

くれない	くれる+V+NEG
くれない	くれる+V+IMP+NEG
くれない	くる+V+POT+NEG
くれない	くる+V+POT+IMP+NEG
くれない	来る+V+POT+NEG
くれない	来る+V+POT+IMP+NEG

くれない	くれる+V+NEG
くれない	くれる+V+IMP+NEG
くれない	くる+V+POT+NEG
くれない	くる+V+POT+IMP+NEG
くれない	来る+V+POT+NEG
くれない	来る+V+POT+IMP+NEG

しれない	しれる+V+NEG
しれない	しれる+V+IMP+NEG
しれない	しる+V+POT+NEG
しれない	しる+V+POT+IMP+NEG

しれない	しれる+V+NEG
しれない	しれる+V+IMP+NEG
しれない	しる+V+POT+NEG
しれない	しる+V+POT+IMP+NEG

よらない	よる+V+COND+NEG
よらない	よる+V+NEG

傷つけられた	傷つける+V+POT+PFV
傷つけられた	傷つける+V+POT+DESI
傷つけられた	傷つける+V+PASV+PFV
傷つけられた	傷つける+V+PASV+DESI
傷つけられた	傷つく+V+POT+POT+PFV
傷つけられた	傷つく+V+POT+POT+DESI
傷つけられた	傷つく+V+POT+PASV+PFV
傷つけられた	傷つく+V+POT+PASV+DESI

助かりでした	助かる+V+POL+PFV

喜ぶでしょう	喜ぶ+V+POL+VOL
喜ぶでしょう	喜ぶ+V+POL+VOL

あざけられた	あざける+V+PASV+PFV
あざけられた	あざける+V+PASV+DESI

いらっしゃる	いらっしゃる+V

くるでしょう	くる+V+POL+VOL
くるでしょう	くる+V+POL+VOL
くるでしょう	来る+V+POL+VOL
くるでしょう	来る+V+POL+VOL

するでしょう	する+V+POL+VOL
するでしょう	する+V+POL+VOL

するでしょう	する+V+POL+VOL
するでしょう	する+V+POL+VOL

やりたかった	やる+V+DESI+PFV

みなされた	みる+V+IMP+NEG+POL+POT+PFV
みなされた	みる+V+IMP+NEG+POL+POT+DESI
みなされた	みなす+V+PASV+PFV
みなされた	みなす+V+PASV+DESI

いなかった	いる+V+NEG+PFV
いなかった	いる+V+IMP+NEG+PFV

いなかった	いる+V+NEG+PFV
いなかった	いる+V+IMP+NEG+PFV

いなかった	いる+V+NEG+PFV
いなかった	いる+V+IMP+NEG+PFV

こなかった	来る+V+NEG+PFV

しなかった	す+V+IMP+NEG+PFV
しなかった	する+V+IMP+NEG+PFV
しなかった	する+V+NEG+PFV

しなかった	す+V+IMP+NEG+PFV
しなかった	する+V+IMP+NEG+PFV
しなかった	する+V+NEG+PFV

しなかった	す+V+IMP+NEG+PFV
しなかった	する+V+IMP+NEG+PFV
しなかった	する+V+NEG+PFV

しなければ	す+V+IMP+NEG+COND
しなければ	する+V+IMP+NEG+COND
しなければ	する+V+NEG+COND

しなければ	す+V+IMP+NEG+COND
しなければ	する+V+IMP+NEG+COND
しなければ	する+V+NEG+COND

しなければ	す+V+IMP+NEG+COND
しなければ	する+V+IMP+NEG+COND
しなければ	する+V+NEG+COND

しなければ	す+V+IMP+NEG+COND
しなければ	する+V+IMP+NEG+COND
しなければ	する+V+NEG+COND

しなければ	す+V+IMP+NEG+COND
しなければ	する+V+IMP+NEG+COND
しなければ	する+V+NEG+COND

しなければ	す+V+IMP+NEG+COND
しなければ	する+V+IMP+NEG+COND
しなければ	する+V+NEG+COND

しなければ	す+V+IMP+NEG+COND
しなければ	する+V+IMP+NEG+COND
しなければ	する+V+NEG+COND

しなければ	す+V+IMP+NEG+COND
しなければ	する+V+IMP+NEG+COND
しなければ	する+V+NEG+COND

しなければ	す+V+IMP+NEG+COND
しなければ	する+V+IMP+NEG+COND
しなければ	する+V+NEG+COND

しなければ	す+V+IMP+NEG+COND
しなければ	する+V+IMP+NEG+COND
しなければ	する+V+NEG+COND

ありえなく	ありえる+V+NEG
ありえなく	ありえる+V+NEG+ADV
ありえなく	ありえる+V+IMP+NEG
ありえなく	ありえる+V+IMP+NEG+ADV
ありえなく	ありえない+ADJ
ありえなく	ありえない+ADJ+ADV

いられない	いる+V+POT+NEG
いられない	いる+V+POT+IMP+NEG
いられない	いる+V+PASV+NEG
いられない	いる+V+PASV+IMP+NEG
いられない	いる+V+PASV+NEG
いられない	いる+V+PASV+IMP+NEG

かぎらない	かぎる+V+COND+NEG
かぎらない	かぎる+V+NEG

わからない	わかる+V+COND+NEG
わからない	わかる+V+NEG
わからない	わく+V+COND+NEG

わからない	わかる+V+COND+NEG
わからない	わかる+V+NEG
わからない	わく+V+COND+NEG

わからない	わかる+V+COND+NEG
わからない	わかる+V+NEG
わからない	わく+V+COND+NEG

ならない	なる+V+COND+NEG
ならない	なる+V+NEG

ならない	なる+V+COND+NEG
ならない	なる+V+NEG

ならない	なる+V+COND+NEG
ならない	なる+V+NEG

ならない	なる+V+COND+NEG
ならない	なる+V+NEG

ならない	なる+V+COND+NEG
ならない	なる+V+NEG

ならない	なる+V+COND+NEG
ならない	なる+V+NEG

ならない	なる+V+COND+NEG
ならない	なる+V+NEG

ならない	なる+V+COND+NEG
ならない	なる+V+NEG

ならない	なる+V+COND+NEG
ならない	なる+V+NEG

ならない	なる+V+COND+NEG
ならない	なる+V+NEG

ならない	なる+V+COND+NEG
ならない	なる+V+NEG

ならない	なる+V+COND+NEG
ならない	なる+V+NEG

ならない	なる+V+COND+NEG
ならない	なる+V+NEG

ならない	なる+V+COND+NEG
ならない	なる+V+NEG

ならない	なる+V+COND+NEG
ならない	なる+V+NEG

ならない	なる+V+COND+NEG
ならない	なる+V+NEG

ならない	なる+V+COND+NEG
ならない	なる+V+NEG

ならなく	なる+V+COND+NEG
ならなく	なる+V+COND+NEG+ADV
ならなく	なる+V+NEG
ならなく	なる+V+NEG+ADV

なるでしょう	なる+V+POL+VOL
なるでしょう	なる+V+POL+VOL

なるでしょう	なる+V+POL+VOL
なるでしょう	なる+V+POL+VOL

つないでいた	つなぐ+V+TE+PROG+PFV
つないでいた	つなぐ+V+TE+PROG+DESI

守らなければ	守る+V+COND+NEG+COND
守らなければ	守る+V+NEG+COND

備えなければ	備える+V+NEG+COND
備えなければ	備える+V+IMP+NEG+COND

働かなければ	働く+V+NEG+COND

取らなかった	取る+V+COND+NEG+PFV
取らなかった	取る+V+NEG+PFV

できなかった	できる+V+NEG+PFV
できなかった	できる+V+IMP+NEG+PFV

いえなかった	いえる+V+NEG+PFV
いえなかった	いえる+V+IMP+NEG+PFV
いえなかった	いう+V+POT+NEG+PFV
いえなかった	いう+V+POT+IMP+NEG+PFV

くれなかった	くれる+V+NEG+PFV
くれなかった	くれる+V+IMP+NEG+PFV
くれなかった	くる+V+POT+NEG+PFV
くれなかった	くる+V+POT+IMP+NEG+PFV
くれなかった	来る+V+POT+NEG+PFV
くれなかった	来る+V+POT+IMP+NEG+PFV

寄せ付けない	寄せ付ける+V+NEG
寄せ付けない	寄せ付ける+V+IMP+NEG

さらされない	さらす+V+PASV+NEG
さらされない	さらす+V+PASV+IMP+NEG

なくさない	なくす+V+NEG

かなわない	かなわない+ADJ
かなわない	かなう+V+NEG

なったでしょう	なう+V+PFV+POL+VOL
なったでしょう	なう+V+PFV+POL+VOL
なったでしょう	なる+V+PFV+POL+VOL
なったでしょう	なる+V+PFV+POL+VOL

分からなかった	分かる+V+COND+NEG+PFV
分からなかった	分かる+V+NEG+PFV

分からなかった	分かる+V+COND+NEG+PFV
分からなかった	分かる+V+NEG+PFV

わからなかった	わかる+V+COND+NEG+PFV
わからなかった	わかる+V+NEG+PFV
わからなかった	わく+V+COND+NEG+PFV

わからなかった	わかる+V+COND+NEG+PFV
わからなかった	わかる+V+NEG+PFV
わからなかった	わく+V+COND+NEG+PFV

わからなかった	わかる+V+COND+NEG+PFV
わからなかった	わかる+V+NEG+PFV
わからなかった	わく+V+COND+NEG+PFV

わからなかった	わかる+V+COND+NEG+PFV
わからなかった	わかる+V+NEG+PFV
わからなかった	わく+V+COND+NEG+PFV

わからなかった	わかる+V+COND+NEG+PFV
わからなかった	わかる+V+NEG+PFV
わからなかった	わく+V+COND+NEG+PFV

ならなかった	なる+V+COND+NEG+PFV
ならなかった	なる+V+NEG+PFV

ならなかった	なる+V+COND+NEG+PFV
ならなかった	なる+V+NEG+PFV

ならなかった	なる+V+COND+NEG+PFV
ならなかった	なる+V+NEG+PFV

ならなければ	なる+V+COND+NEG+COND
ならなければ	なる+V+NEG+COND

なれなかった	なれる+V+NEG+PFV
なれなかった	なれる+V+IMP+NEG+PFV
なれなかった	なる+V+POT+NEG+PFV
なれなかった	なる+V+POT+IMP+NEG+PFV

かけられなかった	かける+V+POT+NEG+PFV
かけられなかった	かける+V+POT+IMP+NEG+PFV
かけられなかった	かける+V+PASV+NEG+PFV
かけられなかった	かける+V+PASV+IMP+NEG+PFV
かけられなかった	かける+V+PASV+NEG+PFV
かけられなかった	かける+V+PASV+IMP+NEG+PFV
かけられなかった	かく+V+POT+POT+NEG+PFV
かけられなかった	かく+V+POT+POT+IMP+NEG+PFV
かけられなかった	かく+V+POT+PASV+NEG+PFV
かけられなかった	かく+V+POT+PASV+IMP+NEG+PFV

そなえなくて	そなえる+V+NEG+TE
そなえなくて	そなえる+V+IMP+NEG+TE

されなかっただろう	される+V+NEG+PFV+VOL
されなかっただろう	される+V+IMP+NEG+PFV+VOL
されなかっただろう	さる+V+POT+NEG+PFV+VOL
されなかっただろう	さる+V+POT+IMP+NEG+PFV+VOL
されなかっただろう	す+V+PASV+NEG+PFV+VOL
されなかっただろう	す+V+PASV+IMP+NEG+PFV+VOL
されなかっただろう	する+V+PASV+NEG+PFV+VOL
されなかっただろう	する+V+PASV+IMP+NEG+PFV+VOL

なくなって	なくなる+V+TE

もたれかかっていた	もたれかかる+V+TE+PROG+PFV
もたれかかっていた	もたれかかる+V+TE+PROG+DESI

なくなっている	なくなる+V+TE+PROG

取らないで下さい	取る+V+COND+NEG+TE+POL+PROG_CONTINUATIVE
取らないで下さい	取る+V+COND+NEG+TE+POL+PROG_IRREALIS
取らないで下さい	取る+V+COND+NEG+TE+POL+PROG_CONTINUATIVE
取らないで下さい	取る+V+COND+NEG+TE+POL+PROG_IRREALIS
取らないで下さい	取る+V+COND+NEG+TE+POL
取らないで下さい	取る+V+NEG+TE+POL+PROG_CONTINUATIVE
取らないで下さい	取る+V+NEG+TE+POL+PROG_IRREALIS
取らないで下さい	取る+V+NEG+TE+POL+PROG_CONTINUATIVE
取らないで下さい	取る+V+NEG+TE+POL+PROG_IRREALIS
取らないで下さい	取る+V+NEG+TE+POL

ならないだろう	なる+V+COND+NEG+VOL
ならないだろう	なる+V+NEG+VOL

いじめられて	いじめる+V+POT+TE
いじめられて	いじめる+V+PASV+TE

のしかかっている	のしかかる+V+TE+PROG

取り合って	取り合う+V+TE

つき合って	つき合う+V+TE

がんばって	がんばる+V+TE

さわらせて	さわる+V+CAUS+TE

はなして	はなす+V+TE

いなくて	いる+V+NEG+TE
いなくて	いる+V+IMP+NEG+TE

しなくて	す+V+IMP+NEG+TE
しなくて	する+V+IMP+NEG+TE
しなくて	する+V+NEG+TE

しなくて	す+V+IMP+NEG+TE
しなくて	する+V+IMP+NEG+TE
しなくて	する+V+NEG+TE

向き合っている	向き合う+V+TE+PROG

信じられている	信じる+V+POT+TE+PROG
信じられている	信じる+V+PASV+TE+PROG
信じられている	信ずる+V+PASV+TE+PROG

付き合ってられない	付き合う+V+TE+PASV+NEG
付き合ってられない	付き合う+V+TE+PASV+IMP+NEG

なさいます	なさる+V+PROG+POL
なさいます	なさる+V+POL

はなせません	はなせる+V+POL+NEG
はなせません	はなす+V+POT+POL+NEG

はなれません	はなれる+V+POL+NEG

取りこんだ	取りこむ+V+PFV

増やして	増やす+V+TE

叱られて	叱られる+V+TE
叱られて	叱る+V+PASV+TE

あがって	あがる+V+TE

めがけて	めがける+V+TE

もらして	もらす+V+TE

なって	なう+V+TE
なって	なる+V+TE

なって	なう+V+TE
なって	なる+V+TE

なって	なう+V+TE
なって	なる+V+TE

なって	なう+V+TE
なって	なる+V+TE

なって	なう+V+TE
なって	なる+V+TE

なって	なう+V+TE
なって	なる+V+TE

なって	なう+V+TE
なって	なる+V+TE

なって	なう+V+TE
なって	なる+V+TE

なって	なう+V+TE
なって	なる+V+TE

なって	なう+V+TE
なって	なる+V+TE

備わっている	備わる+V+TE+PROG

分かっている	分かる+V+TE+PROG
分かっている	分かつ+V+TE+PROG

いわれていた	いう+V+PASV+TE+PROG+PFV
いわれていた	いう+V+PASV+TE+PROG+DESI

かかっていた	かかる+V+TE+PROG+PFV
かかっていた	かかる+V+TE+PROG+DESI
かかっていた	かく+V+TE+PROG+PFV
かかっていた	かく+V+TE+PROG+DESI

かかっている	かかる+V+TE+PROG
かかっている	かく+V+TE+PROG

太っている	太る+V+TE+PROG

なっていた	なう+V+TE+PROG+PFV
なっていた	なう+V+TE+PROG+DESI
なっていた	なる+V+TE+PROG+PFV
なっていた	なる+V+TE+PROG+DESI

なっている	なう+V+TE+PROG
なっている	なる+V+TE+PROG

なっている	なう+V+TE+PROG
なっている	なる+V+TE+PROG

なっている	なう+V+TE+PROG
なっている	なる+V+TE+PROG

なっている	なう+V+TE+PROG
なっている	なる+V+TE+PROG

なっているだろう	なう+V+TE+PROG+VOL
なっているだろう	なる+V+TE+PROG+VOL

努めています	努める+V+TE+PROG+POL
努めています	努む+V+POT+TE+PROG+POL

動かします	動かす+V+POL

いたします	いる+V+DESI+POL
いたします	いたい+ADJ+POL
いたします	いたす+V+POL

おもいます	おもる+V+PROG+POL
おもいます	おもい+ADJ+POL
おもいます	おもう+V+POL

かかります	かかる+V+POL

かかります	かかる+V+POL

かかります	かかる+V+POL

もらえます	もらえる+V+POL
もらえます	もらう+V+POT+POL

わかります	わかる+V+POL

なります	なる+V+POL

なります	なる+V+POL

変わりません	変わる+V+POL+NEG

分かりません	分かる+V+POL+NEG

なりました	なる+V+NEG+VOL+PFV
なりました	なる+V+POL+PFV

なりません	なる+V+POL+NEG

なりません	なる+V+POL+NEG

かしこまりました	かしこまる+V+NEG+VOL+PFV
かしこまりました	かしこまる+V+POL+PFV

つかんだ	つかむ+V+PFV
つかんだ	つく+V+NEG+VOL

すくんだ	すくむ+V+PFV

くれるだろう	くれる+V+VOL
くれるだろう	くる+V+POT+VOL
くれるだろう	来る+V+POT+VOL

されるだろう	される+V+VOL
されるだろう	さる+V+POT+VOL
されるだろう	す+V+PASV+VOL
されるだろう	する+V+PASV+VOL

されるだろう	される+V+VOL
されるだろう	さる+V+POT+VOL
されるだろう	す+V+PASV+VOL
されるだろう	する+V+PASV+VOL

されるだろう	される+V+VOL
されるだろう	さる+V+POT+VOL
されるだろう	す+V+PASV+VOL
されるだろう	する+V+PASV+VOL

わかるだろう	わかる+V+VOL

なるだろう	なる+V+VOL

たどり着いた	たどり着く+V+PFV

取り替えて下さい	取り替える+V+TE+POL+PROG_CONTINUATIVE
取り替えて下さい	取り替える+V+TE+POL+PROG_IRREALIS
取り替えて下さい	取り替える+V+TE+POL+PROG_CONTINUATIVE
取り替えて下さい	取り替える+V+TE+POL+PROG_IRREALIS
取り替えて下さい	取り替える+V+TE+POL

取り出した	取り出す+V+PFV
取り出した	取り出す+V+DESI

尋ねて	尋ねる+V+TE

忘れて	忘れる+V+TE
忘れて	忘る+V+POT+TE

忘れて	忘れる+V+TE
忘れて	忘る+V+POT+TE

応じて	応じる+V+TE
応じて	応ずる+V+TE

始めて	始める+V+TE

変えて	変える+V+TE

変えて	変える+V+TE

備えて	備える+V+TE

入って	入る+V+TE

入って	入る+V+TE

入れて	入れる+V+TE
入れて	入る+V+POT+TE

取って	取る+V+TE

取って	取る+V+TE

取って	取る+V+TE

受けて	受ける+V+TE

できて	できる+V+TE

できて	できる+V+TE

できて	できる+V+TE

つけて	つける+V+TE
つけて	つく+V+POT+TE

つけて	つける+V+TE
つけて	つく+V+POT+TE

あって	あう+V+TE
あって	ある+V+TE

あげて	あげる+V+TE

いって	いる+V+TE
いって	い+ADJ+TE
いって	いう+V+TE
いって	いる+V+TE

いって	いる+V+TE
いって	い+ADJ+TE
いって	いう+V+TE
いって	いる+V+TE

いって	いる+V+TE
いって	い+ADJ+TE
いって	いう+V+TE
いって	いる+V+TE

いって	いる+V+TE
いって	い+ADJ+TE
いって	いう+V+TE
いって	いる+V+TE

いれて	いれる+V+TE
いれて	いる+V+POT+TE

おいて	おる+V+PROG+TE
おいて	おう+V+TE
おいて	おいる+V+TE
おいて	おく+V+TE

おいて	おる+V+PROG+TE
おいて	おう+V+TE
おいて	おいる+V+TE
おいて	おく+V+TE

かけて	かける+V+TE
かけて	かく+V+POT+TE

かけて	かける+V+TE
かけて	かく+V+POT+TE

かけて	かける+V+TE
かけて	かく+V+POT+TE

くれて	くれる+V+TE
くれて	くる+V+POT+TE
くれて	来る+V+POT+TE

されて	される+V+TE
されて	さる+V+POT+TE
されて	す+V+PASV+TE
されて	する+V+PASV+TE

されて	される+V+TE
されて	さる+V+POT+TE
されて	す+V+PASV+TE
されて	する+V+PASV+TE

すって	す+V+TE
すって	すう+V+TE
すって	する+V+TE

すぎて	すぎる+V+TE

そえて	そえる+V+TE
そえて	そう+V+POT+TE

やって	や+ADJ+TE
やって	やる+V+TE

やって	や+ADJ+TE
やって	やる+V+TE

働いている	働く+V+TE+PROG

光っている	光る+V+TE+PROG

取っていた	取る+V+TE+PROG+PFV
取っていた	取る+V+TE+PROG+DESI

告げていた	告げる+V+TE+PROG+PFV
告げていた	告げる+V+TE+PROG+DESI

商っている	商う+V+TE+PROG

坐っていた	坐る+V+TE+PROG+PFV
坐っていた	坐る+V+TE+PROG+DESI

うちとけた	うちとける+V+PFV
うちとけた	うちとける+V+DESI

はいていた	はる+V+PROG+TE+PROG+PFV
はいていた	はる+V+PROG+TE+PROG+DESI
はいていた	はう+V+TE+PROG+PFV
はいていた	はう+V+TE+PROG+DESI
はいていた	はく+V+TE+PROG+PFV
はいていた	はく+V+TE+PROG+DESI
はいていた	はぐ+V+TE+PROG+PFV
はいていた	はぐ+V+TE+PROG+DESI

できている	できる+V+TE+PROG

できている	できる+V+TE+PROG

ついている	つる+V+PROG+TE+PROG
ついている	ついてる+V+PROG
ついている	ついてる+V+PROG
ついている	ついている+V
ついている	つく+V+TE+PROG
ついている	つぐ+V+TE+PROG

つけていた	つける+V+TE+PROG+PFV
つけていた	つける+V+TE+PROG+DESI
つけていた	つく+V+POT+TE+PROG+PFV
つけていた	つく+V+POT+TE+PROG+DESI

つめていた	つめる+V+TE+PROG+PFV
つめていた	つめる+V+TE+PROG+DESI
つめていた	つむ+V+POT+TE+PROG+PFV
つめていた	つむ+V+POT+TE+PROG+DESI

いっている	いる+V+TE+PROG
いっている	い+ADJ+TE+PROG
いっている	いう+V+TE+PROG
いっている	いる+V+TE+PROG

がっている	が+ADJ+TE+PROG
がっている	がる+V+TE+PROG

きいている	く+V+PROG+TE+PROG
きいている	きる+V+PROG+TE+PROG
きいている	きる+V+PROG+TE+PROG
きいている	きい+ADJ+TE+PROG
きいている	きく+V+TE+PROG
きいている	来る+V+PROG+TE+PROG

くれている	くれる+V+TE+PROG
くれている	くる+V+POT+TE+PROG
くれている	来る+V+POT+TE+PROG

されている	される+V+TE+PROG
されている	さる+V+POT+TE+PROG
されている	す+V+PASV+TE+PROG
されている	する+V+PASV+TE+PROG

されている	される+V+TE+PROG
されている	さる+V+POT+TE+PROG
されている	す+V+PASV+TE+PROG
されている	する+V+PASV+TE+PROG

やっている	や+ADJ+TE+PROG
やっている	やる+V+TE+PROG

やってきた	やって来る+V+PFV
やってきた	やって来る+V+DESI

やってくる	やって来る+V

信じていない	信じる+V+TE+PROG+NEG
信じていない	信じる+V+TE+PROG+IMP+NEG
信じていない	信ずる+V+TE+PROG+NEG
信じていない	信ずる+V+TE+PROG+IMP+NEG

されていない	される+V+TE+PROG+NEG
されていない	される+V+TE+PROG+IMP+NEG
されていない	さる+V+POT+TE+PROG+NEG
されていない	さる+V+POT+TE+PROG+IMP+NEG
されていない	す+V+PASV+TE+PROG+NEG
されていない	す+V+PASV+TE+PROG+IMP+NEG
されていない	する+V+PASV+TE+PROG+NEG
されていない	する+V+PASV+TE+PROG+IMP+NEG

入っています	入る+V+TE+PROG+POL

受けています	受ける+V+TE+PROG+POL

いっています	いる+V+TE+PROG+POL
いっています	い+ADJ+TE+PROG+POL
いっています	いう+V+TE+PROG+POL
いっています	いる+V+TE+PROG+POL

いっています	いる+V+TE+PROG+POL
いっています	い+ADJ+TE+PROG+POL
いっています	いう+V+TE+PROG+POL
いっています	いる+V+TE+PROG+POL

かけています	かける+V+TE+PROG+POL
かけています	かく+V+POT+TE+PROG+POL

回して下さい	回す+V+TE+POL+PROG_CONTINUATIVE
回して下さい	回す+V+TE+POL+PROG_IRREALIS
回して下さい	回す+V+TE+POL+PROG_CONTINUATIVE
回して下さい	回す+V+TE+POL+PROG_IRREALIS
回して下さい	回す+V+TE+POL

させて下さい	させる+V+TE+POL+PROG_CONTINUATIVE
させて下さい	させる+V+TE+POL+PROG_IRREALIS
させて下さい	させる+V+TE+POL+PROG_CONTINUATIVE
させて下さい	させる+V+TE+POL+PROG_IRREALIS
させて下さい	させる+V+TE+POL
させて下さい	さす+V+POT+TE+POL+PROG_CONTINUATIVE
させて下さい	さす+V+POT+TE+POL+PROG_IRREALIS
させて下さい	さす+V+POT+TE+POL+PROG_CONTINUATIVE
させて下さい	さす+V+POT+TE+POL+PROG_IRREALIS
させて下さい	さす+V+POT+TE+POL
させて下さい	す+V+CAUS+TE+POL+PROG_CONTINUATIVE
させて下さい	す+V+CAUS+TE+POL+PROG_IRREALIS
させて下さい	す+V+CAUS+TE+POL+PROG_CONTINUATIVE
させて下さい	す+V+CAUS+TE+POL+PROG_IRREALIS
させて下さい	す+V+CAUS+TE+POL
させて下さい	する+V+CAUS+TE+POL+PROG_CONTINUATIVE
させて下さい	する+V+CAUS+TE+POL+PROG_IRREALIS
させて下さい	する+V+CAUS+TE+POL+PROG_CONTINUATIVE
させて下さい	する+V+CAUS+TE+POL+PROG_IRREALIS
させて下さい	する+V+CAUS+TE+POL

勝ちます	勝つ+V+POL

参ります	参る+V+POL

できます	できる+V+POL

できます	できる+V+POL

できます	できる+V+POL

できます	できる+V+POL

できます	できる+V+POL

つきます	つく+V+POL
つきます	つきる+V+POL

あります	ある+V+POL

あります	ある+V+POL

あります	ある+V+POL

あります	ある+V+POL

あります	ある+V+POL

あります	ある+V+POL

あります	ある+V+POL

あります	ある+V+POL

あります	ある+V+POL

あります	ある+V+POL

あります	ある+V+POL

あります	ある+V+POL

いきます	いく+V+POL
いきます	いい+ADJ+POL
いきます	いきる+V+POL
いきます	いきむ+V+CAUS
いきます	いきむ+V+CAUS_CONTINUATIVE
いきます	いきむ+V+CAUS_IRREALIS
いきます	よい+ADJ+POL

くれます	くれる+V+POL
くれます	くる+V+POT+POL
くれます	来る+V+POT+POL

たちます	たつ+V+POL

入りました	入る+V+NEG+VOL+PFV
入りました	入る+V+POL+PFV

入れません	入れる+V+POL+NEG
入れません	入る+V+POT+POL+NEG

受けました	受ける+V+NEG+VOL+PFV
受けました	受ける+V+POL+PFV

できません	できる+V+POL+NEG

できません	できる+V+POL+NEG

できません	できる+V+POL+NEG

ありません	ある+V+POL+NEG

ありません	ある+V+POL+NEG

ありません	ある+V+POL+NEG

ありません	ある+V+POL+NEG

ありません	ある+V+POL+NEG

ありません	ある+V+POL+NEG

ありません	ある+V+POL+NEG

ありません	ある+V+POL+NEG

いきません	いく+V+POL+NEG
いきません	いい+ADJ+POL+NEG
いきません	いきる+V+POL+NEG
いきません	いきむ+V+CAUS+NEG
いきません	よい+ADJ+POL+NEG

いけません	いける+V+POL+NEG
いけません	いく+V+POT+POL+NEG

いけません	いける+V+POL+NEG
いけません	いく+V+POT+POL+NEG

かねません	かねる+V+POL+NEG

くれません	くれる+V+POL+NEG
くれません	くる+V+POT+POL+NEG
くれません	来る+V+POT+POL+NEG

くれません	くれる+V+POL+NEG
くれません	くる+V+POT+POL+NEG
くれません	来る+V+POT+POL+NEG

くれません	くれる+V+POL+NEG
くれません	くる+V+POT+POL+NEG
くれません	来る+V+POT+POL+NEG

くれません	くれる+V+POL+NEG
くれません	くる+V+POT+POL+NEG
くれません	来る+V+POT+POL+NEG

くれません	くれる+V+POL+NEG
くれません	くる+V+POT+POL+NEG
くれません	来る+V+POT+POL+NEG

くれません	くれる+V+POL+NEG
くれません	くる+V+POT+POL+NEG
くれません	来る+V+POT+POL+NEG

くれません	くれる+V+POL+NEG
くれません	くる+V+POT+POL+NEG
くれません	来る+V+POT+POL+NEG

されました	される+V+NEG+VOL+PFV
されました	される+V+POL+PFV
されました	さる+V+POT+NEG+VOL+PFV
されました	さる+V+POT+POL+PFV
されました	す+V+PASV+NEG+VOL+PFV
されました	す+V+PASV+POL+PFV
されました	する+V+PASV+NEG+VOL+PFV
されました	する+V+PASV+POL+PFV

しれません	しれる+V+POL+NEG
しれません	しる+V+POT+POL+NEG

ありましたら	ある+V+NEG+VOL+PFV+COND
ありましたら	ある+V+POL+COND
ありましたら	ある+V+POL+PFV+COND

おきましょう	おく+V+POL+VOL
おきましょう	おきる+V+POL+VOL

叫んだ	叫ぶ+V+PFV

きずだ	きる+V+NEG+VOL

すんだ	すむ+V+PFV

いただき	いただく+V_CONTINUATIVE

いただき	いただく+V_CONTINUATIVE

きわだった	きわだつ+V+PFV

するだろう	する+V+VOL

やるだろう	やる+V+VOL

いただきます	いただく+V+POL

いただけます	いただける+V+POL
いただけます	いただく+V+POT+POL

いただけます	いただける+V+POL
いただけます	いただく+V+POT+POL

いただけましたら	いただける+V+NEG+VOL+PFV+COND
いただけましたら	いただける+V+POL+COND
いただけましたら	いただける+V+POL+PFV+COND
いただけましたら	いただく+V+POT+NEG+VOL+PFV+COND
いただけましたら	いただく+V+POT+POL+COND
いただけましたら	いただく+V+POT+POL+PFV+COND

取り返した	取り返す+V+PFV
取り返した	取り返す+V+DESI

寝て	寝る+V+TE

みて	みる+V+TE
みて	みつ+V+POT_CONTINUATIVE
みて	みつ+V+POT_IRREALIS
みて	みつ+V+IMP
みて	みつ+V_HYPOTHETICAL

いて	いる+V+TE
いて	い+ADJ+TE
いて	いてる+V_CONTINUATIVE
いて	いてる+V_IRREALIS
いて	く+V+TE

いて	いる+V+TE
いて	い+ADJ+TE
いて	いてる+V_CONTINUATIVE
いて	いてる+V_IRREALIS
いて	く+V+TE

きて	く+V+TE
きて	きる+V+TE
きて	き+ADJ+TE
きて	来る+V+TE

きて	く+V+TE
きて	きる+V+TE
きて	き+ADJ+TE
きて	来る+V+TE

して	す+V+TE
して	する+V+TE

して	す+V+TE
して	する+V+TE

して	す+V+TE
して	する+V+TE

して	す+V+TE
して	する+V+TE

して	す+V+TE
して	する+V+TE

して	す+V+TE
して	する+V+TE

して	す+V+TE
して	する+V+TE

して	す+V+TE
して	する+V+TE

して	す+V+TE
して	する+V+TE

して	す+V+TE
して	する+V+TE

して	す+V+TE
して	する+V+TE

して	す+V+TE
して	する+V+TE

して	す+V+TE
して	する+V+TE

して	す+V+TE
して	する+V+TE

して	す+V+TE
して	する+V+TE

して	す+V+TE
して	する+V+TE

して	す+V+TE
して	する+V+TE

して	す+V+TE
して	する+V+TE

して	す+V+TE
して	する+V+TE

して	す+V+TE
して	する+V+TE

して	す+V+TE
して	する+V+TE

して	す+V+TE
して	する+V+TE

して	す+V+TE
して	する+V+TE

して	す+V+TE
して	する+V+TE

して	す+V+TE
して	する+V+TE

して	す+V+TE
して	する+V+TE

して	す+V+TE
して	する+V+TE

して	す+V+TE
して	する+V+TE

して	す+V+TE
して	する+V+TE

して	す+V+TE
して	する+V+TE

して	す+V+TE
して	する+V+TE

して	す+V+TE
して	する+V+TE

して	す+V+TE
して	する+V+TE

して	す+V+TE
して	する+V+TE

寝ていた	寝る+V+TE+PROG+PFV
寝ていた	寝る+V+TE+PROG+DESI

にている	にる+V+TE+PROG

きている	く+V+TE+PROG
きている	きる+V+TE+PROG
きている	き+ADJ+TE+PROG
きている	来る+V+TE+PROG

していた	す+V+TE+PROG+PFV
していた	す+V+TE+PROG+DESI
していた	する+V+TE+PROG+PFV
していた	する+V+TE+PROG+DESI

していた	す+V+TE+PROG+PFV
していた	す+V+TE+PROG+DESI
していた	する+V+TE+PROG+PFV
していた	する+V+TE+PROG+DESI

していた	す+V+TE+PROG+PFV
していた	す+V+TE+PROG+DESI
していた	する+V+TE+PROG+PFV
していた	する+V+TE+PROG+DESI

していた	す+V+TE+PROG+PFV
していた	す+V+TE+PROG+DESI
していた	する+V+TE+PROG+PFV
していた	する+V+TE+PROG+DESI

していた	す+V+TE+PROG+PFV
していた	す+V+TE+PROG+DESI
していた	する+V+TE+PROG+PFV
していた	する+V+TE+PROG+DESI

していた	す+V+TE+PROG+PFV
していた	す+V+TE+PROG+DESI
していた	する+V+TE+PROG+PFV
していた	する+V+TE+PROG+DESI

していた	す+V+TE+PROG+PFV
していた	す+V+TE+PROG+DESI
していた	する+V+TE+PROG+PFV
していた	する+V+TE+PROG+DESI

していた	す+V+TE+PROG+PFV
していた	す+V+TE+PROG+DESI
していた	する+V+TE+PROG+PFV
していた	する+V+TE+PROG+DESI

していた	す+V+TE+PROG+PFV
していた	す+V+TE+PROG+DESI
していた	する+V+TE+PROG+PFV
していた	する+V+TE+PROG+DESI

している	す+V+TE+PROG
している	する+V+TE+PROG

している	す+V+TE+PROG
している	する+V+TE+PROG

している	す+V+TE+PROG
している	する+V+TE+PROG

している	す+V+TE+PROG
している	する+V+TE+PROG

している	す+V+TE+PROG
している	する+V+TE+PROG

している	す+V+TE+PROG
している	する+V+TE+PROG

している	す+V+TE+PROG
している	する+V+TE+PROG

している	す+V+TE+PROG
している	する+V+TE+PROG

している	す+V+TE+PROG
している	する+V+TE+PROG

している	す+V+TE+PROG
している	する+V+TE+PROG

している	す+V+TE+PROG
している	する+V+TE+PROG

している	す+V+TE+PROG
している	する+V+TE+PROG

している	す+V+TE+PROG
している	する+V+TE+PROG

している	す+V+TE+PROG
している	する+V+TE+PROG

している	す+V+TE+PROG
している	する+V+TE+PROG

している	す+V+TE+PROG
している	する+V+TE+PROG

している	す+V+TE+PROG
している	する+V+TE+PROG

している	す+V+TE+PROG
している	する+V+TE+PROG

している	す+V+TE+PROG
している	する+V+TE+PROG

している	す+V+TE+PROG
している	する+V+TE+PROG

している	す+V+TE+PROG
している	する+V+TE+PROG

している	す+V+TE+PROG
している	する+V+TE+PROG

している	す+V+TE+PROG
している	する+V+TE+PROG

している	す+V+TE+PROG
している	する+V+TE+PROG

している	す+V+TE+PROG
している	する+V+TE+PROG

している	す+V+TE+PROG
している	する+V+TE+PROG

している	す+V+TE+PROG
している	する+V+TE+PROG

している	す+V+TE+PROG
している	する+V+TE+PROG

している	す+V+TE+PROG
している	する+V+TE+PROG

している	す+V+TE+PROG
している	する+V+TE+PROG

している	す+V+TE+PROG
している	する+V+TE+PROG

している	す+V+TE+PROG
している	する+V+TE+PROG

している	す+V+TE+PROG
している	する+V+TE+PROG

している	す+V+TE+PROG
している	する+V+TE+PROG

してやろう	してやる+V+VOL

おとしいれた	おとしいれる+V+PFV
おとしいれた	おとしいれる+V+DESI
おとしいれた	おとす+V+PROG+POT+PFV
おとしいれた	おとす+V+PROG+POT+DESI

していない	す+V+TE+PROG+NEG
していない	す+V+TE+PROG+IMP+NEG
していない	する+V+TE+PROG+NEG
していない	する+V+TE+PROG+IMP+NEG

していない	す+V+TE+PROG+NEG
していない	す+V+TE+PROG+IMP+NEG
していない	する+V+TE+PROG+NEG
していない	する+V+TE+PROG+IMP+NEG

していなかっただろう	す+V+TE+PROG+NEG+PFV+VOL
していなかっただろう	す+V+TE+PROG+IMP+NEG+PFV+VOL
していなかっただろう	する+V+TE+PROG+NEG+PFV+VOL
していなかっただろう	する+V+TE+PROG+IMP+NEG+PFV+VOL

していただろう	す+V+TE+PROG+PFV+VOL
していただろう	する+V+TE+PROG+PFV+VOL

しています	す+V+TE+PROG+POL
しています	する+V+TE+PROG+POL

しています	す+V+TE+PROG+POL
しています	する+V+TE+PROG+POL

しています	す+V+TE+PROG+POL
しています	する+V+TE+PROG+POL

しています	す+V+TE+PROG+POL
しています	する+V+TE+PROG+POL

しています	す+V+TE+PROG+POL
しています	する+V+TE+PROG+POL

しています	す+V+TE+PROG+POL
しています	する+V+TE+PROG+POL

しています	す+V+TE+PROG+POL
しています	する+V+TE+PROG+POL

しています	す+V+TE+PROG+POL
しています	する+V+TE+PROG+POL

しています	す+V+TE+PROG+POL
しています	する+V+TE+PROG+POL

しています	す+V+TE+PROG+POL
しています	する+V+TE+PROG+POL

していました	す+V+TE+PROG+NEG+VOL+PFV
していました	す+V+TE+PROG+POL+PFV
していました	する+V+TE+PROG+NEG+VOL+PFV
していました	する+V+TE+PROG+POL+PFV

していました	す+V+TE+PROG+NEG+VOL+PFV
していました	す+V+TE+PROG+POL+PFV
していました	する+V+TE+PROG+NEG+VOL+PFV
していました	する+V+TE+PROG+POL+PFV

みて下さい	みる+V+TE+POL+PROG_CONTINUATIVE
みて下さい	みる+V+TE+POL+PROG_IRREALIS
みて下さい	みる+V+TE+POL+PROG_CONTINUATIVE
みて下さい	みる+V+TE+POL+PROG_IRREALIS
みて下さい	みる+V+TE+POL
みて下さい	みつ+V+POT+IMP+POL+PROG_CONTINUATIVE
みて下さい	みつ+V+POT+IMP+POL+PROG_IRREALIS
みて下さい	みつ+V+POT+IMP+POL+PROG_CONTINUATIVE
みて下さい	みつ+V+POT+IMP+POL+PROG_IRREALIS
みて下さい	みつ+V+POT+IMP+POL

して下さい	す+V+TE+POL+PROG_CONTINUATIVE
して下さい	す+V+TE+POL+PROG_IRREALIS
して下さい	す+V+TE+POL+PROG_CONTINUATIVE
して下さい	す+V+TE+POL+PROG_IRREALIS
して下さい	す+V+TE+POL
して下さい	する+V+TE+POL+PROG_CONTINUATIVE
して下さい	する+V+TE+POL+PROG_IRREALIS
して下さい	する+V+TE+POL+PROG_CONTINUATIVE
して下さい	する+V+TE+POL+PROG_IRREALIS
して下さい	する+V+TE+POL

して下さい	す+V+TE+POL+PROG_CONTINUATIVE
して下さい	す+V+TE+POL+PROG_IRREALIS
して下さい	す+V+TE+POL+PROG_CONTINUATIVE
して下さい	す+V+TE+POL+PROG_IRREALIS
して下さい	す+V+TE+POL
して下さい	する+V+TE+POL+PROG_CONTINUATIVE
して下さい	する+V+TE+POL+PROG_IRREALIS
して下さい	する+V+TE+POL+PROG_CONTINUATIVE
して下さい	する+V+TE+POL+PROG_IRREALIS
して下さい	する+V+TE+POL

寝ます	寝る+V+POL

みます	みる+V+POL

います	いる+V+POL
います	いむ+V+CAUS
います	いむ+V+CAUS_CONTINUATIVE
います	いむ+V+CAUS_IRREALIS

います	いる+V+POL
います	いむ+V+CAUS
います	いむ+V+CAUS_CONTINUATIVE
います	いむ+V+CAUS_IRREALIS

います	いる+V+POL
います	いむ+V+CAUS
います	いむ+V+CAUS_CONTINUATIVE
います	いむ+V+CAUS_IRREALIS

します	しむ+V+CAUS
します	しむ+V+CAUS_CONTINUATIVE
します	しむ+V+CAUS_IRREALIS
します	す+V+POL
します	する+V+POL
します	する+V+POL

します	しむ+V+CAUS
します	しむ+V+CAUS_CONTINUATIVE
します	しむ+V+CAUS_IRREALIS
します	す+V+POL
します	する+V+POL
します	する+V+POL

します	しむ+V+CAUS
します	しむ+V+CAUS_CONTINUATIVE
します	しむ+V+CAUS_IRREALIS
します	す+V+POL
します	する+V+POL
します	する+V+POL

します	しむ+V+CAUS
します	しむ+V+CAUS_CONTINUATIVE
します	しむ+V+CAUS_IRREALIS
します	す+V+POL
します	する+V+POL
します	する+V+POL

します	しむ+V+CAUS
します	しむ+V+CAUS_CONTINUATIVE
します	しむ+V+CAUS_IRREALIS
します	す+V+POL
します	する+V+POL
します	する+V+POL

します	しむ+V+CAUS
します	しむ+V+CAUS_CONTINUATIVE
します	しむ+V+CAUS_IRREALIS
します	す+V+POL
します	する+V+POL
します	する+V+POL

します	しむ+V+CAUS
します	しむ+V+CAUS_CONTINUATIVE
します	しむ+V+CAUS_IRREALIS
します	す+V+POL
します	する+V+POL
します	する+V+POL

します	しむ+V+CAUS
します	しむ+V+CAUS_CONTINUATIVE
します	しむ+V+CAUS_IRREALIS
します	す+V+POL
します	する+V+POL
します	する+V+POL

します	しむ+V+CAUS
します	しむ+V+CAUS_CONTINUATIVE
します	しむ+V+CAUS_IRREALIS
します	す+V+POL
します	する+V+POL
します	する+V+POL

します	しむ+V+CAUS
します	しむ+V+CAUS_CONTINUATIVE
します	しむ+V+CAUS_IRREALIS
します	す+V+POL
します	する+V+POL
します	する+V+POL

します	しむ+V+CAUS
します	しむ+V+CAUS_CONTINUATIVE
します	しむ+V+CAUS_IRREALIS
します	す+V+POL
します	する+V+POL
します	する+V+POL

します	しむ+V+CAUS
します	しむ+V+CAUS_CONTINUATIVE
します	しむ+V+CAUS_IRREALIS
します	す+V+POL
します	する+V+POL
します	する+V+POL

します	しむ+V+CAUS
します	しむ+V+CAUS_CONTINUATIVE
します	しむ+V+CAUS_IRREALIS
します	す+V+POL
します	する+V+POL
します	する+V+POL

きました	く+V+NEG+VOL+PFV
きました	く+V+POL+PFV
きました	きる+V+NEG+VOL+PFV
きました	きる+V+POL+PFV
きました	来る+V+NEG+VOL+PFV
きました	来る+V+POL+PFV

しまった	しまう+V+PFV
しまった	しまる+V+PFV

しまった	しまう+V+PFV
しまった	しまる+V+PFV

しまった	しまう+V+PFV
しまった	しまる+V+PFV

しまった	しまう+V+PFV
しまった	しまる+V+PFV

しまった	しまう+V+PFV
しまった	しまる+V+PFV

しまった	しまう+V+PFV
しまった	しまる+V+PFV

しません	しむ+V+CAUS+NEG
しません	す+V+POL+NEG
しません	する+V+POL+NEG

しません	しむ+V+CAUS+NEG
しません	す+V+POL+NEG
しません	する+V+POL+NEG

しましょう	す+V+POL+VOL
しましょう	する+V+POL+VOL

しましょう	す+V+POL+VOL
しましょう	する+V+POL+VOL

しましょう	す+V+POL+VOL
しましょう	する+V+POL+VOL

かまわない	かまう+V+NEG

かまわない	かまう+V+NEG

いませんでした	いる+V+POL+NEG+POL+PFV
いませんでした	いむ+V+CAUS+NEG+POL+PFV

しまわなければ	しまう+V+NEG+COND

しまって	しまう+V+TE
しまって	しまる+V+TE
しまって	しむ+V+TE

しまっていた	しまう+V+TE+PROG+PFV
しまっていた	しまう+V+TE+PROG+DESI
しまっていた	しまる+V+TE+PROG+PFV
しまっていた	しまる+V+TE+PROG+DESI
しまっていた	しむ+V+TE+PROG+PFV
しまっていた	しむ+V+TE+PROG+DESI

しまっている	しまう+V+TE+PROG
しまっている	しまる+V+TE+PROG
しまっている	しむ+V+TE+PROG

たまっている	たま+ADJ+TE+PROG
たまっている	たまう+V+TE+PROG
たまっている	たまる+V+TE+PROG

つまっています	つまる+V+TE+PROG+POL
つまっています	つむ+V+TE+PROG+POL

かまいません	かまう+V+POL+NEG

しまいました	しまる+V+PROG+NEG+VOL+PFV
しまいました	しまる+V+PROG+POL+PFV
しまいました	しまう+V+NEG+VOL+PFV
しまいました	しまう+V+POL+PFV
しまいました	す+V+NEG+VOL+NEG+VOL+PFV
しまいました	す+V+NEG+VOL+POL+PFV
しまいました	する+V+NEG+VOL+NEG+VOL+PFV
しまいました	する+V+NEG+VOL+POL+PFV

しまうだろう	しまう+V+VOL

仕上げる	仕上げる+V

仕上げたかった	仕上げる+V+DESI+PFV

ください	下さる+V+PROG_CONTINUATIVE
ください	下さる+V+PROG_IRREALIS
ください	下さる+V+POL

ください	下さる+V+PROG_CONTINUATIVE
ください	下さる+V+PROG_IRREALIS
ください	下さる+V+POL

ください	下さる+V+PROG_CONTINUATIVE
ください	下さる+V+PROG_IRREALIS
ください	下さる+V+POL

ください	下さる+V+PROG_CONTINUATIVE
ください	下さる+V+PROG_IRREALIS
ください	下さる+V+POL

ください	下さる+V+PROG_CONTINUATIVE
ください	下さる+V+PROG_IRREALIS
ください	下さる+V+POL

ください	下さる+V+PROG_CONTINUATIVE
ください	下さる+V+PROG_IRREALIS
ください	下さる+V+POL

ください	下さる+V+PROG_CONTINUATIVE
ください	下さる+V+PROG_IRREALIS
ください	下さる+V+POL

ください	下さる+V+PROG_CONTINUATIVE
ください	下さる+V+PROG_IRREALIS
ください	下さる+V+POL

ください	下さる+V+PROG_CONTINUATIVE
ください	下さる+V+PROG_IRREALIS
ください	下さる+V+POL

ください	下さる+V+PROG_CONTINUATIVE
ください	下さる+V+PROG_IRREALIS
ください	下さる+V+POL

ください	下さる+V+PROG_CONTINUATIVE
ください	下さる+V+PROG_IRREALIS
ください	下さる+V+POL

ください	下さる+V+PROG_CONTINUATIVE
ください	下さる+V+PROG_IRREALIS
ください	下さる+V+POL

ください	下さる+V+PROG_CONTINUATIVE
ください	下さる+V+PROG_IRREALIS
ください	下さる+V+POL

ください	下さる+V+PROG_CONTINUATIVE
ください	下さる+V+PROG_IRREALIS
ください	下さる+V+POL

ください	下さる+V+PROG_CONTINUATIVE
ください	下さる+V+PROG_IRREALIS
ください	下さる+V+POL

ください	下さる+V+PROG_CONTINUATIVE
ください	下さる+V+PROG_IRREALIS
ください	下さる+V+POL

治す	治す+V

沈み	沈む+V_CONTINUATIVE

曲がり	曲がる+V_CONTINUATIVE

曲がったら	曲がる+V+PFV+COND

悲しんでいる	悲しむ+V+TE+PROG

曲がって	曲がる+V+TE

沿って	沿う+V+TE

泳ぐ	泳ぐ+V

泳ぐ	泳ぐ+V

泳げる	泳げる+V
泳げる	泳ぐ+V+POT

泣いた	泣く+V+PFV

泣いた	泣く+V+PFV

泊まった	泊まる+V+PFV

死ぬ	死ぬ+V

歩く	歩く+V

残す	残す+V

思う	思う+V

思う	思う+V

思う	思う+V

思う	思う+V

思う	思う+V

思う	思う+V

慣れ	慣れる+V_CONTINUATIVE
慣れ	慣れる+V_IRREALIS

慎む	慎む+V

憎み	憎む+V_CONTINUATIVE

戻る	戻る+V

成り	成る+V_CONTINUATIVE

払う	払う+V

持っ	持つ+V_CONTINUATIVE

探し	探す+V_CONTINUATIVE

掛け	掛ける+V_CONTINUATIVE
掛け	掛ける+V_IRREALIS

断る	断る+V

替え	替える+V_CONTINUATIVE
替え	替える+V_IRREALIS

来た	来る+V+PFV
来た	来る+V+DESI

来た	来る+V+PFV
来た	来る+V+DESI

来た	来る+V+PFV
来た	来る+V+DESI

来た	来る+V+PFV
来た	来る+V+DESI

来た	来る+V+PFV
来た	来る+V+DESI

来る	来る+V

来る	来る+V

来る	来る+V

来る	来る+V

来る	来る+V

来る	来る+V

来る	来る+V

比べて	比べる+V+TE

浮かぶ	浮かぶ+V

死んで	死ぬ+V+TE

死んで	死ぬ+V+TE

歩いた	歩く+V+PFV

歩いた	歩く+V+PFV

止めた	止める+V+PFV
止めた	止める+V+DESI
止めた	止む+V+POT+PFV
止めた	止む+V+POT+DESI

止めた	止める+V+PFV
止めた	止める+V+DESI
止めた	止む+V+POT+PFV
止めた	止む+V+POT+DESI

消した	消す+V+PFV
消した	消す+V+DESI

求めた	求める+V+PFV
求めた	求める+V+DESI
求めた	求む+V+POT+PFV
求めた	求む+V+POT+DESI

急いで	急く+V+TE
急いで	急ぐ+V+TE

急いで	急く+V+TE
急いで	急ぐ+V+TE

思った	思う+V+PFV

思った	思う+V+PFV

思った	思う+V+PFV

思える	思える+V
思える	思う+V+POT

恥じた	恥じる+V+PFV
恥じた	恥じる+V+DESI

愛した	愛す+V+PFV
愛した	愛す+V+DESI
愛した	愛する+V+PFV
愛した	愛する+V+DESI

感じた	感じる+V+PFV
感じた	感じる+V+DESI
感じた	感ずる+V+PFV
感じた	感ずる+V+DESI

感じる	感じる+V

扱った	扱う+V+PFV

折った	折る+V+PFV

持った	持つ+V+PFV

探そう	探す+V+VOL

敷いた	敷く+V+PFV

教える	教える+V

断った	断る+V+PFV
断った	断つ+V+PFV

断った	断る+V+PFV
断った	断つ+V+PFV

望める	望める+V
望める	望む+V+POT

来たら	来る+V+PFV+COND
来たら	来たる+V+COND
来たら	来たる+V_IRREALIS

来たら	来る+V+PFV+COND
来たら	来たる+V+COND
来たら	来たる+V_IRREALIS

気づいた	気づく+V+PFV

歩きたい	歩く+V+PFV+PROG_CONTINUATIVE
歩きたい	歩く+V+PFV+PROG_IRREALIS
歩きたい	歩く+V+DESI

扱ったら	扱う+V+PFV+COND

招かれた	招く+V+PASV+PFV
招かれた	招く+V+PASV+DESI

持たせる	持たせる+V
持たせる	持つ+V+CAUS

捕らえた	捕らえる+V+PFV
捕らえた	捕らえる+V+DESI

来なく	来る+V+NEG
来なく	来る+V+NEG+ADV
来なく	来る+V+IMP+NEG
来なく	来る+V+IMP+NEG+ADV

打ち寄せた	打ち寄せる+V+PFV
打ち寄せた	打ち寄せる+V+DESI

気がついた	気がつく+V+PFV

悩んでいる	悩む+V+TE+PROG

投げかける	投げかける+V

散らかった	散らかる+V+PFV

望んでいる	望む+V+TE+PROG

望んでいる	望む+V+TE+PROG

止めない	止める+V+NEG
止めない	止める+V+IMP+NEG
止めない	止む+V+POT+NEG
止めない	止む+V+POT+IMP+NEG

愛さない	愛す+V+NEG

感じない	感じる+V+NEG
感じない	感じる+V+IMP+NEG
感じない	感ずる+V+IMP+NEG
感じない	感ずる+V+NEG

招きたかった	招く+V+DESI+PFV

来なかった	来る+V+NEG+PFV
来なかった	来る+V+IMP+NEG+PFV

止めないで	止める+V+NEG+TE
止めないで	止める+V+IMP+NEG+TE
止めないで	止む+V+POT+NEG+TE
止めないで	止む+V+POT+IMP+NEG+TE

歩かなければ	歩く+V+NEG+COND

歩けなかった	歩ける+V+NEG+PFV
歩けなかった	歩ける+V+IMP+NEG+PFV
歩けなかった	歩く+V+POT+NEG+PFV
歩けなかった	歩く+V+POT+IMP+NEG+PFV

掛けなければ	掛ける+V+NEG+COND
掛けなければ	掛ける+V+IMP+NEG+COND

気に入らない	気に入る+V+COND+NEG
気に入らない	気に入る+V+NEG

思いつかない	思いつく+V+NEG

気づかなかった	気づく+V+NEG+PFV

来られなかった	来る+V+POT+NEG+PFV
来られなかった	来る+V+POT+IMP+NEG+PFV
来られなかった	来る+V+PASV+NEG+PFV
来られなかった	来る+V+PASV+IMP+NEG+PFV
来られなかった	来る+V+PASV+NEG+PFV
来られなかった	来る+V+PASV+IMP+NEG+PFV

止めさせなければ	止める+V+CAUS+NEG+COND
止めさせなければ	止める+V+CAUS+IMP+NEG+COND
止めさせなければ	止む+V+POT+CAUS+NEG+COND
止めさせなければ	止む+V+POT+CAUS+IMP+NEG+COND

折り合って	折り合う+V+TE

歩き回っていた	歩き回る+V+TE+PROG+PFV
歩き回っていた	歩き回る+V+TE+PROG+DESI

戻らせて	戻る+V+CAUS+TE

打たれて	打たれる+V+TE
打たれて	打つ+V+PASV+TE

来られて	来る+V+POT+TE
来られて	来る+V+PASV+TE
来られて	来る+V+PASV+TE

植わっている	植わる+V+TE+PROG

思われていた	思われる+V+TE+PROG+PFV
思われていた	思われる+V+TE+PROG+DESI
思われていた	思う+V+PASV+TE+PROG+PFV
思われていた	思う+V+PASV+TE+PROG+DESI

思われている	思われる+V+TE+PROG
思われている	思う+V+PASV+TE+PROG

描かれていた	描く+V+PASV+TE+PROG+PFV
描かれていた	描く+V+PASV+TE+PROG+DESI

暮らしている	暮らす+V+TE+PROG

愛されています	愛す+V+PASV+TE+PROG+POL
愛されています	愛する+V+PASV+TE+PROG+POL

浮かんだ	浮かぶ+V+PFV
浮かんだ	浮く+V+NEG+VOL

思い描いている	思い描く+V+TE+PROG

明け暮れていた	明け暮れる+V+TE+PROG+PFV
明け暮れていた	明け暮れる+V+TE+PROG+DESI

思い悩まないで	思い悩む+V+NEG+TE

思い出す	思い出す+V

思い出せない	思い出せる+V+NEG
思い出せない	思い出せる+V+IMP+NEG
思い出せない	思い出す+V+POT+NEG
思い出せない	思い出す+V+POT+IMP+NEG

歩いて	歩く+V+TE

止めて	止める+V+TE
止めて	止む+V+POT+TE

止めて	止める+V+TE
止めて	止む+V+POT+TE

消して	消す+V+TE

求めて	求める+V+TE
求めて	求む+V+POT+TE

怒って	怒る+V+TE

戻って	戻る+V+TE

戻して	戻す+V+TE

打って	打つ+V+TE

抱えて	抱える+V+TE

折って	折る+V+TE

抜いて	抜く+V+TE

招いて	招く+V+TE

持って	持つ+V+TE

持って	持つ+V+TE

持って	持つ+V+TE

敷いて	敷く+V+TE

流れている	流れる+V+TE+PROG

歩いている	歩く+V+TE+PROG

残っていた	残る+V+TE+PROG+PFV
残っていた	残る+V+TE+PROG+DESI

思っている	思う+V+TE+PROG

思っている	思う+V+TE+PROG

恐れている	恐れる+V+TE+PROG

感じている	感じる+V+TE+PROG
感じている	感ずる+V+TE+PROG

感じている	感じる+V+TE+PROG
感じている	感ずる+V+TE+PROG

扱っている	扱う+V+TE+PROG

扱っている	扱う+V+TE+PROG

持っていた	持つ+V+TE+PROG+PFV
持っていた	持つ+V+TE+PROG+DESI

持っている	持つ+V+TE+PROG

持っている	持つ+V+TE+PROG

持っている	持つ+V+TE+PROG

接している	接しる+V+TE+PROG
接している	接す+V+TE+PROG

描いている	描く+V+TE+PROG

教えている	教える+V+TE+PROG

暮れている	暮れる+V+TE+PROG

構えていて	構える+V+TE+PROG+TE
構えていて	構う+V+POT+TE+PROG+TE

思っています	思う+V+TE+PROG+POL

思っています	思う+V+TE+PROG+POL

持っています	持つ+V+TE+PROG+POL

持っています	持つ+V+TE+PROG+POL

持っています	持つ+V+TE+PROG+POL

教えて下さい	教える+V+TE+POL+PROG_CONTINUATIVE
教えて下さい	教える+V+TE+POL+PROG_IRREALIS
教えて下さい	教える+V+TE+POL+PROG_CONTINUATIVE
教えて下さい	教える+V+TE+POL+PROG_IRREALIS
教えて下さい	教える+V+TE+POL

思います	思う+V+POL

思います	思う+V+POL

思います	思う+V+POL

思います	思う+V+POL

慣れます	慣れる+V+POL

戻ります	戻る+V+POL

止めましょう	止める+V+POL+VOL
止めましょう	止む+V+POT+POL+VOL

持ち上げる	持ち上げる+V

混んだ	混む+V+PFV

急いだ	急ぐ+V+PFV

死んだら	死ぬ+V+PFV+COND

曇りだった	曇る+V+PFV+VOL

来るだろう	来る+V+VOL

握り締めた	握り締める+V+PFV
握り締めた	握り締める+V+DESI

滑り降りた	滑り降りる+V+PFV
滑り降りた	滑り降りる+V+DESI

振る舞った	振る舞う+V+PFV

成し遂げられた	成し遂げる+V+POT+PFV
成し遂げられた	成し遂げる+V+POT+DESI
成し遂げられた	成し遂げる+V+PASV+PFV
成し遂げられた	成し遂げる+V+PASV+DESI

振り返って	振り返る+V+TE

滅ぼした	滅ぼす+V+PFV
滅ぼした	滅ぼす+V+DESI

手伝って	手伝う+V+TE

手伝います	手伝う+V+POL

手伝います	手伝う+V+POL

来て	来る+V+TE

来て	来る+V+TE

来て下さい	来る+V+TE+POL+PROG_CONTINUATIVE
来て下さい	来る+V+TE+POL+PROG_IRREALIS
来て下さい	来る+V+TE+POL+PROG_CONTINUATIVE
来て下さい	来る+V+TE+POL+PROG_IRREALIS
来て下さい	来る+V+TE+POL

来ました	来る+V+NEG+VOL+PFV
来ました	来る+V+POL+PFV

流行っています	流行る+V+TE+PROG+POL

決め	決める+V_CONTINUATIVE
決め	決める+V_IRREALIS

溢れ	溢れる+V_CONTINUATIVE
溢れ	溢れる+V_IRREALIS

決めた	決める+V+PFV
決めた	決める+V+DESI

決める	決める+V

殺されました	殺す+V+PASV+NEG+VOL+PFV
殺されました	殺す+V+PASV+POL+PFV

潜る	潜る+V

漏れた	漏れる+V+PFV
漏れた	漏れる+V+DESI
漏れた	漏る+V+POT+PFV
漏れた	漏る+V+POT+DESI

楽しめる	楽しめる+V
楽しめる	楽しむ+V+POT

押し入ろう	押し入る+V+VOL

楽しんでいる	楽しむ+V+TE+PROG

楽しんでいる	楽しむ+V+TE+PROG

楽しんだ	楽しむ+V+PFV

漂って	漂う+V+TE

戦った	戦う+V+PFV

横切る	横切る+V

推し進める	推し進める+V

捨てた	捨てる+V+PFV
捨てた	捨てる+V+DESI

捨てた	捨てる+V+PFV
捨てた	捨てる+V+DESI

捨てた	捨てる+V+PFV
捨てた	捨てる+V+DESI

放した	放す+V+PFV
放した	放す+V+DESI

書く	書く+V

書く	書く+V

渡る	渡る+V

洗う	洗う+V

浴びていた	浴びる+V+TE+PROG+PFV
浴びていた	浴びる+V+TE+PROG+DESI

書いた	書く+V+PFV

書いた	書く+V+PFV

書いた	書く+V+PFV

書いた	書く+V+PFV

書いた	書く+V+PFV

清める	清める+V
清める	清む+V+POT

減らす	減らす+V
減らす	減る+V+CAUS
減らす	減る+V+CAUS_CONTINUATIVE
減らす	減る+V+CAUS_IRREALIS

書かねば	書く+V+COND+NEG

渡りたい	渡る+V+PFV+PROG_CONTINUATIVE
渡りたい	渡る+V+PFV+PROG_IRREALIS
渡りたい	渡る+V+DESI

減らした	減らす+V+PFV
減らした	減らす+V+DESI

書き取った	書き取る+V+PFV

書かれていた	書く+V+PASV+TE+PROG+PFV
書かれていた	書く+V+PASV+TE+PROG+DESI

書かれている	書く+V+PASV+TE+PROG

書いていました	書く+V+TE+PROG+NEG+VOL+PFV
書いていました	書く+V+TE+PROG+POL+PFV

掴んだ	掴む+V+PFV

出	出る+V_CONTINUATIVE
出	出る+V_IRREALIS

出す	出す+V

出た	出る+V+PFV
出た	出る+V+DESI

出る	出る+V

出る	出る+V

出る	出る+V

座る	座る+V

出した	出す+V+PFV
出した	出す+V+DESI

座れる	座れる+V
座れる	座る+V+POT

争った	争う+V+PFV

出かけた	出かける+V+PFV
出かけた	出かける+V+DESI

出ない	出る+V+NEG
出ない	出る+V+IMP+NEG

出さなくて	出す+V+NEG+TE

出くわしました	出くわす+V+NEG+VOL+PFV
出くわしました	出くわす+V+POL+PFV

基づいている	基づく+V+TE+PROG

出かけます	出かける+V+POL

出して	出す+V+TE

出して	出す+V+TE

出来る	出来る+V

出来る	出来る+V

出来るだろう	出来る+V+VOL

事欠かない	事欠かない+ADJ
事欠かない	事欠く+V+NEG

出て	出る+V+TE

建てられた	建てる+V+POT+PFV
建てられた	建てる+V+POT+DESI
建てられた	建てる+V+PASV+PFV
建てられた	建てる+V+PASV+DESI
建てられた	建つ+V+POT+POT+PFV
建てられた	建つ+V+POT+POT+DESI
建てられた	建つ+V+POT+PASV+PFV
建てられた	建つ+V+POT+PASV+DESI

出盛りです	出盛る+V+POL

役に立つ	役に立つ+V

役に立たない	役に立たない+ADJ
役に立たない	役に立つ+V+NEG

役に立たない	役に立たない+ADJ
役に立たない	役に立つ+V+NEG

役に立たなかった	役に立たない+ADJ+PFV
役に立たなかった	役に立つ+V+NEG+PFV

役立たず	役立つ+V+NEG

役立つだろう	役立つ+V+VOL

使う	使う+V

作り	作る+V_CONTINUATIVE

作る	作る+V

休み	休む+V_CONTINUATIVE

会い	会う+V_CONTINUATIVE

会い	会う+V_CONTINUATIVE

会う	会う+V

会う	会う+V

尽くし	尽くす+V_CONTINUATIVE

命じた	命じる+V+PFV
命じた	命じる+V+DESI
命じた	命ずる+V+PFV
命じた	命ずる+V+DESI

当たる	当たる+V

引いた	引く+V+PFV

作った	作る+V+PFV

作った	作る+V+PFV

会った	会う+V+PFV

会った	会う+V+PFV

会った	会う+V+PFV

会った	会う+V+PFV

会った	会う+V+PFV

会いた	会う+V+PFV
会いた	会う+V+DESI

伝える	伝える+V
伝える	伝う+V+POT

伝える	伝える+V
伝える	伝う+V+POT

伝わる	伝わる+V

使われる	使う+V+PASV

使われる	使う+V+PASV

会ったら	会う+V+PFV+COND

会いたい	会う+V+PFV+PROG_CONTINUATIVE
会いたい	会う+V+PFV+PROG_IRREALIS
会いたい	会う+V+DESI

伝わった	伝わる+V+PFV

住んでいる	住む+V+TE+PROG

住んでいる	住む+V+TE+PROG

住んでいる	住む+V+TE+PROG

住んでいる	住む+V+TE+PROG

住んでいる	住む+V+TE+PROG

住んでいる	住む+V+TE+PROG

住んでいる	住む+V+TE+PROG

住んでいる	住む+V+TE+PROG

使えなく	使える+V+NEG
使えなく	使える+V+NEG+ADV
使えなく	使える+V+IMP+NEG
使えなく	使える+V+IMP+NEG+ADV
使えなく	使う+V+POT+NEG
使えなく	使う+V+POT+NEG+ADV
使えなく	使う+V+POT+IMP+NEG
使えなく	使う+V+POT+IMP+NEG+ADV

使えなく	使える+V+NEG
使えなく	使える+V+NEG+ADV
使えなく	使える+V+IMP+NEG
使えなく	使える+V+IMP+NEG+ADV
使えなく	使う+V+POT+NEG
使えなく	使う+V+POT+NEG+ADV
使えなく	使う+V+POT+IMP+NEG
使えなく	使う+V+POT+IMP+NEG+ADV

会わない	会う+V+NEG

住んでいました	住む+V+TE+PROG+NEG+VOL+PFV
住んでいました	住む+V+TE+PROG+POL+PFV

呼ばれて	呼ばれる+V+TE
呼ばれて	呼ぶ+V+PASV+TE

使わせて	使わす+V+POT+TE
使わせて	使う+V+CAUS+TE

使わせて	使わす+V+POT+TE
使わせて	使う+V+CAUS+TE

使い果たして	使い果たす+V+TE

引いて	引く+V+TE

使って	使う+V+TE

使っている	使う+V+TE+PROG

使っている	使う+V+TE+PROG

会っていない	会う+V+TE+PROG+NEG
会っていない	会う+V+TE+PROG+IMP+NEG

張ります	張る+V+POL

作ります	作る+V+POL

休んだ	休む+V+PFV

休んだら	休む+V+PFV+COND

引っ込めた	引っ込める+V+PFV
引っ込めた	引っ込める+V+DESI
引っ込めた	引っ込む+V+POT+PFV
引っ込めた	引っ込む+V+POT+DESI

当てた	当てる+V+PFV
当てた	当てる+V+DESI

当てはまる	当てはまる+V

当てはまらない	当てはまる+V+COND+NEG
当てはまらない	当てはまる+V+NEG

好まない	好む+V+NEG

伺い	伺う+V_CONTINUATIVE

似ている	似る+V+TE+PROG

似ている	似る+V+TE+PROG

似ている	似る+V+TE+PROG

似ている	似る+V+TE+PROG

弾いて	弾く+V+TE

伴わない	伴う+V+NEG

学ぶ	学ぶ+V

学ぶ	学ぶ+V

とき	とく+V_CONTINUATIVE
とき	とい+ADJ

てた	てる+V+PFV
てた	てる+V+DESI

学べる	学べる+V
学べる	学ぶ+V+POT

学んでいる	学ぶ+V+TE+PROG

てなかった	てる+V+NEG+PFV
てなかった	てる+V+IMP+NEG+PFV

とらなかった	とる+V+COND+NEG+PFV
とらなかった	とる+V+NEG+PFV

とって	とる+V+TE

とめて	とめる+V+TE
とめて	とむ+V+POT+TE

とっている	とる+V+TE+PROG

待つ	待つ+V

得た	得る+V+PFV
得た	得る+V+DESI

得る	得る+V

待った	待つ+V+PFV

待ったら	待つ+V+PFV+COND

得られれば	得る+V+POT+COND
得られれば	得る+V+POT+POT+COND
得られれば	得る+V+PASV+COND
得られれば	得る+V+PASV+POT+COND

まちがえた	まちがえる+V+PFV
まちがえた	まちがえる+V+DESI
まちがえた	まちがう+V+POT+PFV
まちがえた	まちがう+V+POT+DESI

従わない	従う+V+NEG

得なかった	得る+V+NEG+PFV
得なかった	得る+V+IMP+NEG+PFV
得なかった	得ない+ADJ+PFV

従わなければ	従う+V+NEG+COND

待たなくて	待つ+V+NEG+TE

まいりました	まいる+V+NEG+VOL+PFV
まいりました	まいる+V+POL+PFV

待ちます	待つ+V+POL

待とう	待つ+V+VOL

微笑み	微笑む+V_CONTINUATIVE

吸っ	吸う+V_CONTINUATIVE

帰り	帰る+V_CONTINUATIVE

帰る	帰る+V

帰った	帰る+V+PFV

上がっ	上がる+V_CONTINUATIVE

下さい	下さる+V+PROG_CONTINUATIVE
下さい	下さる+V+PROG_IRREALIS
下さい	下さる+V+POL

下さい	下さる+V+PROG_CONTINUATIVE
下さい	下さる+V+PROG_IRREALIS
下さい	下さる+V+POL

与えた	与える+V+PFV
与えた	与える+V+DESI

与えた	与える+V+PFV
与えた	与える+V+DESI

与える	与える+V

与える	与える+V

与える	与える+V

下された	下す+V+PASV+PFV
下された	下す+V+PASV+DESI

帰れない	帰れる+V+NEG
帰れない	帰れる+V+IMP+NEG
帰れない	帰る+V+POT+NEG
帰れない	帰る+V+POT+IMP+NEG

帰らなければ	帰る+V+COND+NEG+COND
帰らなければ	帰る+V+NEG+COND

上がるだろう	上がる+V+VOL

帰って	帰る+V+TE

帰って	帰る+V+TE

帰って	帰る+V+TE

帰って	帰る+V+TE

帰って	帰る+V+TE

帰って	帰る+V+TE

与えて	与える+V+TE

並べた	並べる+V+PFV
並べた	並べる+V+DESI
並べた	並ぶ+V+POT+PFV
並べた	並ぶ+V+POT+DESI

報われる	報う+V+PASV

加えて	加える+V+TE

だいています	だく+V+TE+PROG+POL

だまし	だます+V_CONTINUATIVE

疲れ	疲れる+V_CONTINUATIVE
疲れ	疲れる+V_IRREALIS

疲れていた	疲れる+V+TE+PROG+PFV
疲れていた	疲れる+V+TE+PROG+DESI

疲れていた	疲れる+V+TE+PROG+PFV
疲れていた	疲れる+V+TE+PROG+DESI

疲れていた	疲れる+V+TE+PROG+PFV
疲れていた	疲れる+V+TE+PROG+DESI

疲れていて	疲れる+V+TE+PROG+TE

習う	習う+V

立ち	立つ+V_CONTINUATIVE

立ち	立つ+V_CONTINUATIVE

祈る	祈る+V

着き	着く+V_CONTINUATIVE

着く	着く+V

着る	着る+V

笑った	笑う+V+PFV

笑った	笑う+V+PFV

笑わず	笑う+V+NEG

笑わず	笑う+V+NEG

終えた	終える+V+PFV
終えた	終える+V+DESI
終えた	終う+V+POT+PFV
終えた	終う+V+POT+DESI

終えた	終える+V+PFV
終えた	終える+V+DESI
終えた	終う+V+POT+PFV
終えた	終う+V+POT+DESI

終える	終える+V
終える	終う+V+POT

終える	終える+V
終える	終う+V+POT

終わり	終わる+V_CONTINUATIVE

終わり	終わる+V_CONTINUATIVE

終わり	終わる+V_CONTINUATIVE

答える	答える+V

答える	答える+V

続ける	続ける+V
続ける	続く+V+POT

生きる	生きる+V

省ける	省ける+V
省ける	省く+V+POT

着いた	着る+V+PROG+PFV
着いた	着る+V+PROG+DESI
着いた	着る+V+PROG+PFV
着いた	着る+V+PROG+DESI
着いた	着く+V+PFV

着いた	着る+V+PROG+PFV
着いた	着る+V+PROG+DESI
着いた	着る+V+PROG+PFV
着いた	着る+V+PROG+DESI
着いた	着く+V+PFV

着いた	着る+V+PROG+PFV
着いた	着る+V+PROG+DESI
着いた	着る+V+PROG+PFV
着いた	着る+V+PROG+DESI
着いた	着く+V+PFV

着いた	着る+V+PROG+PFV
着いた	着る+V+PROG+DESI
着いた	着る+V+PROG+PFV
着いた	着る+V+PROG+DESI
着いた	着く+V+PFV

着いた	着る+V+PROG+PFV
着いた	着る+V+PROG+DESI
着いた	着る+V+PROG+PFV
着いた	着る+V+PROG+DESI
着いた	着く+V+PFV

着いた	着る+V+PROG+PFV
着いた	着る+V+PROG+DESI
着いた	着る+V+PROG+PFV
着いた	着る+V+PROG+DESI
着いた	着く+V+PFV

知った	知る+V+PFV

知れた	知れる+V+PFV
知れた	知れる+V+DESI
知れた	知る+V+POT+PFV
知れた	知る+V+POT+DESI

知り合い	知り合う+V_CONTINUATIVE

笑わざる	笑う+V+NEG

笑わせた	笑わせる+V+PFV
笑わせた	笑わせる+V+DESI
笑わせた	笑う+V+CAUS+PFV
笑わせた	笑う+V+CAUS+DESI

終えたら	終える+V+PFV+COND
終えたら	終う+V+POT+PFV+COND

続ければ	続ける+V+COND
続ければ	続ける+V+POT+COND
続ければ	続く+V+POT+COND
続ければ	続く+V+POT+POT+COND

片づける	片づける+V
片づける	片づく+V+POT

着いたら	着る+V+PROG+PFV+COND
着いたら	着る+V+PROG+PFV+COND
着いたら	着く+V+PFV+COND

立ち向かい	立ち向かう+V_CONTINUATIVE

終わったら	終わる+V+PFV+COND

終わりです	終わる+V+POL

積んでいる	積む+V+TE+PROG

着けない	着ける+V+NEG
着けない	着ける+V+IMP+NEG
着けない	着く+V+POT+NEG
着けない	着く+V+POT+IMP+NEG

知らない	知る+V+COND+NEG
知らない	知らない+ADJ
知らない	知る+V+NEG

知らない	知る+V+COND+NEG
知らない	知らない+ADJ
知らない	知る+V+NEG

片付けない	片付ける+V+NEG
片付けない	片付ける+V+IMP+NEG
片付けない	片付く+V+POT+NEG
片付けない	片付く+V+POT+IMP+NEG

終えるでしょう	終える+V+POL+VOL
終えるでしょう	終える+V+POL+VOL
終えるでしょう	終う+V+POT+POL+VOL
終えるでしょう	終う+V+POT+POL+VOL

知らなかった	知る+V+COND+NEG+PFV
知らなかった	知らない+ADJ+PFV
知らなかった	知る+V+NEG+PFV

知らなかった	知る+V+COND+NEG+PFV
知らなかった	知らない+ADJ+PFV
知らなかった	知る+V+NEG+PFV

突きつけられた	突きつける+V+POT+PFV
突きつけられた	突きつける+V+POT+DESI
突きつけられた	突きつける+V+PASV+PFV
突きつけられた	突きつける+V+PASV+DESI

立ち寄って	立ち寄る+V+TE

突き出ていた	突き出る+V+TE+PROG+PFV
突き出ていた	突き出る+V+TE+PROG+DESI

片付けて	片付ける+V+TE
片付けて	片付く+V+POT+TE

片づけて	片づける+V+TE
片づけて	片づく+V+POT+TE

知らせて	知らせる+V+TE
知らせて	知らす+V+POT+TE
知らせて	知る+V+CAUS+TE

知られている	知る+V+PASV+TE+PROG

片付けます	片付ける+V+POL
片付けます	片付く+V+POT+POL

知れ渡るだろう	知れ渡る+V+VOL

生み出す	生み出す+V

笑って	笑う+V+TE

続いて	続く+V+TE
続いて	続ぐ+V+TE

続けて	続ける+V+TE
続けて	続く+V+POT+TE

知って	知る+V+TE

立っている	立つ+V+TE+PROG

生きている	生きる+V+TE+PROG

生きている	生きる+V+TE+PROG

知っていた	知る+V+TE+PROG+PFV
知っていた	知る+V+TE+PROG+DESI

知っている	知る+V+TE+PROG

知っている	知る+V+TE+PROG

知っている	知る+V+TE+PROG

知っている	知る+V+TE+PROG

知っている	知る+V+TE+PROG

知っている	知る+V+TE+PROG

終えていなかった	終える+V+TE+PROG+NEG+PFV
終えていなかった	終える+V+TE+PROG+IMP+NEG+PFV
終えていなかった	終う+V+POT+TE+PROG+NEG+PFV
終えていなかった	終う+V+POT+TE+PROG+IMP+NEG+PFV

知っていなくて	知る+V+TE+PROG+NEG+TE
知っていなくて	知る+V+TE+PROG+IMP+NEG+TE

生きています	生きる+V+TE+PROG+POL

知っています	知る+V+TE+PROG+POL

経ちました	経つ+V+NEG+VOL+PFV
経ちました	経つ+V+POL+PFV

知りません	知る+V+POL+NEG

立ち上がった	立ち上がる+V+PFV

継いだ	継ぐ+V+PFV

痛んだ	痛む+V+PFV

盗んだ	盗む+V+PFV

盗んだ	盗む+V+PFV

盗んだ	盗む+V+PFV

立てた	立てる+V+PFV
立てた	立てる+V+DESI
立てた	立つ+V+POT+PFV
立てた	立つ+V+POT+DESI

立てる	立てる+V
立てる	立つ+V+POT

立てて	立てる+V+TE
立てて	立つ+V+POT+TE

留まる	留まる+V

生まれた	生まれる+V+PFV
生まれた	生まれる+V+DESI
生まれた	生む+V+PASV+PFV
生まれた	生む+V+PASV+DESI

盗まれた	盗む+V+PASV+PFV
盗まれた	盗む+V+PASV+DESI

盗まれた	盗む+V+PASV+PFV
盗まれた	盗む+V+PASV+DESI

盗まれる	盗む+V+PASV

示す	示す+V

空いた	空く+V+PFV

示した	示す+V+PFV
示した	示す+V+DESI

示した	示す+V+PFV
示した	示す+V+DESI

眺めた	眺める+V+PFV
眺めた	眺める+V+DESI

置き忘れた	置き忘れる+V+PFV
置き忘れた	置き忘れる+V+DESI

置き忘れない	置き忘れる+V+NEG
置き忘れない	置き忘れる+V+IMP+NEG

焼いている	焼く+V+TE+PROG

磨いて	磨る+V+PROG+TE
磨いて	磨く+V+TE
磨いて	磨ぐ+V+TE

現した	現す+V+PFV
現した	現す+V+DESI

現れなかった	現れる+V+NEG+PFV
現れなかった	現れる+V+IMP+NEG+PFV
現れなかった	現る+V+POT+NEG+PFV
現れなかった	現る+V+POT+IMP+NEG+PFV

紡ぎ	紡ぐ+V_CONTINUATIVE

眠れない	眠れる+V+NEG
眠れない	眠れる+V+IMP+NEG
眠れない	眠る+V+POT+NEG
眠れない	眠る+V+POT+IMP+NEG

眠れなかった	眠れる+V+NEG+PFV
眠れなかった	眠れる+V+IMP+NEG+PFV
眠れなかった	眠る+V+POT+NEG+PFV
眠れなかった	眠る+V+POT+IMP+NEG+PFV

眠っている	眠る+V+TE+PROG

眠っている	眠る+V+TE+PROG

眠り込んだ	眠り込む+V+PFV

破る	破る+V

破らない	破る+V+COND+NEG
破らない	破る+V+NEG

飲み	飲む+V_CONTINUATIVE

飲み	飲む+V_CONTINUATIVE

飲め	飲める+V_CONTINUATIVE
飲め	飲める+V_IRREALIS
飲め	飲む+V+POT_CONTINUATIVE
飲め	飲む+V+POT_IRREALIS
飲め	飲む+V+IMP
飲め	飲む+V_HYPOTHETICAL

進む	進む+V

責め	責める+V_CONTINUATIVE
責め	責める+V_IRREALIS

飲んで	飲む+V+TE

飲んで	飲む+V+TE

進める	進める+V
進める	進む+V+POT

譲った	譲る+V+PFV

育った	育つ+V+PFV

貯める	貯める+V

買った	買う+V+PFV

買った	買う+V+PFV

買った	買う+V+PFV

買った	買う+V+PFV

買えた	買える+V+PFV
買えた	買える+V+DESI
買えた	買う+V+POT+PFV
買えた	買う+V+POT+DESI

飲みたい	飲む+V+PFV+PROG_CONTINUATIVE
飲みたい	飲む+V+PFV+PROG_IRREALIS
飲みたい	飲む+V+DESI

飲みたい	飲む+V+PFV+PROG_CONTINUATIVE
飲みたい	飲む+V+PFV+PROG_IRREALIS
飲みたい	飲む+V+DESI

襲われた	襲う+V+PASV+PFV
襲われた	襲う+V+PASV+DESI

買えたら	買える+V+PFV+COND
買えたら	買う+V+POT+PFV+COND

買わなければ	買う+V+NEG+COND

襲って	襲う+V+TE

買って	買う+V+TE

買って	買う+V+TE

買って	買う+V+TE

買います	買う+V+POL

買います	買う+V+POL

責めません	責める+V+POL+NEG

買いました	買う+V+NEG+VOL+PFV
買いました	買う+V+POL+PFV

飲んだ	飲む+V+PFV

進んだ	進む+V+PFV
進んだ	進ぶ+V+PFV

進んだ	進む+V+PFV
進んだ	進ぶ+V+PFV

育てた	育てる+V+PFV
育てた	育てる+V+DESI
育てた	育つ+V+POT+PFV
育てた	育つ+V+POT+DESI

育てる	育てる+V
育てる	育つ+V+POT

貸した	貸す+V+PFV
貸した	貸す+V+DESI

貸して	貸す+V+TE

貸して	貸す+V+TE

足りない	足る+V+IMP+NEG
足りない	足りる+V+NEG
足りない	足りる+V+IMP+NEG
足りない	足りない+ADJ

鳴った	鳴る+V+PFV

鳴った	鳴る+V+PFV

飛ぶ	飛ぶ+V

通る	通る+V

避け	避ける+V_CONTINUATIVE
避け	避ける+V_IRREALIS
避け	避く+V+POT_CONTINUATIVE
避け	避く+V+POT_IRREALIS
避け	避く+V+IMP
避け	避く+V_HYPOTHETICAL

遊ぶ	遊ぶ+V

過ぎ	過ぎる+V_CONTINUATIVE
過ぎ	過ぎる+V_IRREALIS

謝る	謝る+V

走り	走る+V_CONTINUATIVE

行っ	行う+V_CONTINUATIVE
行っ	行る+V_CONTINUATIVE

行う	行う+V

行く	行く+V

行く	行く+V

行く	行く+V

行く	行く+V

行く	行く+V

行け	行ける+V_CONTINUATIVE
行け	行ける+V_IRREALIS
行け	行く+V+POT_CONTINUATIVE
行け	行く+V+POT_IRREALIS
行け	行く+V+IMP
行け	行く+V_HYPOTHETICAL

迷う	迷う+V

返す	返す+V

解く	解く+V

話し	話す+V_CONTINUATIVE

話す	話す+V

考え	考える+V_CONTINUATIVE
考え	考える+V_IRREALIS

聞き	聞く+V_CONTINUATIVE

聞き	聞く+V_CONTINUATIVE

聞く	聞く+V

聞く	聞く+V

食べ	食べる+V_CONTINUATIVE
食べ	食べる+V_IRREALIS

食べた	食べる+V+PFV
食べた	食べる+V+DESI

食べる	食べる+V

述べた	述べる+V+PFV
述べた	述べる+V+DESI

食べない	食べる+V+NEG
食べない	食べる+V+IMP+NEG

運べない	運べる+V+NEG
運べない	運べる+V+IMP+NEG
運べない	運ぶ+V+POT+NEG
運べない	運ぶ+V+POT+IMP+NEG

食べたいです	食べる+V+PFV+PROG+POL
食べたいです	食べる+V+DESI+POL

食べて	食べる+V+TE

食べました	食べる+V+NEG+VOL+PFV
食べました	食べる+V+POL+PFV

飛び出して	飛び出す+V+TE

黙った	黙る+V+PFV

驚いた	驚く+V+PFV

通れる	通れる+V
通れる	通る+V+POT

遅れた	遅れる+V+PFV
遅れた	遅れる+V+DESI

遅れた	遅れる+V+PFV
遅れた	遅れる+V+DESI

運んで	運ぶ+V+TE

関わる	関わる+V

閉じる	閉じる+V

開けた	開ける+V+PFV
開けた	開ける+V+DESI
開けた	開く+V+POT+PFV
開けた	開く+V+POT+DESI

降った	降る+V+PFV

降りる	降りる+V

離れた	離れる+V+PFV
離れた	離れる+V+DESI

走った	走る+V+PFV

走った	走る+V+PFV

走れる	走れる+V
走れる	走る+V+POT

起きた	起きる+V+PFV
起きた	起きる+V+DESI

起きる	起きる+V

起こす	起こす+V

衰える	衰える+V

行った	行う+V+PFV
行った	行る+V+PFV

行った	行う+V+PFV
行った	行る+V+PFV

行った	行う+V+PFV
行った	行る+V+PFV

行った	行う+V+PFV
行った	行る+V+PFV

行った	行う+V+PFV
行った	行る+V+PFV

行った	行う+V+PFV
行った	行る+V+PFV

行った	行う+V+PFV
行った	行る+V+PFV

行った	行う+V+PFV
行った	行る+V+PFV

行った	行う+V+PFV
行った	行る+V+PFV

行った	行う+V+PFV
行った	行る+V+PFV

行えば	行える+V+COND
行えば	行う+V+COND
行えば	行う+V+POT+COND

行きた	行く+V+PFV
行きた	行く+V+DESI

行ける	行ける+V
行ける	行く+V+POT

行こう	行く+V+VOL

行こう	行く+V+VOL

迷った	迷う+V+PFV

迫った	迫る+V+PFV

近づく	近づく+V

解こう	解く+V+VOL

話した	話す+V+PFV
話した	話す+V+DESI

話せる	話せる+V
話せる	話す+V+POT

考える	考える+V

聞いた	聞く+V+PFV

聞いた	聞く+V+PFV

聞いた	聞く+V+PFV

聞かせ	聞かせる+V_CONTINUATIVE
聞かせ	聞かせる+V_IRREALIS
聞かせ	聞かす+V+POT_CONTINUATIVE
聞かせ	聞かす+V+POT_IRREALIS
聞かせ	聞かす+V+IMP
聞かせ	聞かす+V_HYPOTHETICAL
聞かせ	聞く+V+CAUS_CONTINUATIVE
聞かせ	聞く+V+CAUS_IRREALIS

肥った	肥る+V+PFV

脱いで	脱ぐ+V+TE

脅かす	脅かす+V

読み	読む+V_CONTINUATIVE

読む	読む+V

調べ	調べる+V_CONTINUATIVE
調べ	調べる+V_IRREALIS

調べて	調べる+V+TE

間に合う	間に合う+V

黙らせた	黙る+V+CAUS+PFV
黙らせた	黙る+V+CAUS+DESI

遅れたら	遅れる+V+PFV+COND

過ごした	過ごす+V+PFV
過ごした	過ごす+V+DESI

起こった	起こる+V+PFV

行かせた	行かす+V+POT+PFV
行かせた	行かす+V+POT+DESI
行かせた	行く+V+CAUS+PFV
行かせた	行く+V+CAUS+DESI

行きたい	行く+V+PFV+PROG_CONTINUATIVE
行きたい	行く+V+PFV+PROG_IRREALIS
行きたい	行く+V+DESI

行きたい	行く+V+PFV+PROG_CONTINUATIVE
行きたい	行く+V+PFV+PROG_IRREALIS
行きたい	行く+V+DESI

聞こえた	聞こえる+V+PFV
聞こえた	聞こえる+V+DESI

聞こえた	聞こえる+V+PFV
聞こえた	聞こえる+V+DESI

聞こえる	聞こえる+V

読めば	読める+V+COND
読めば	読む+V+COND
読めば	読む+V+POT+COND

読んで	読む+V+TE

読んで	読む+V+TE

認めた	認める+V+PFV
認めた	認める+V+DESI

間に合った	間に合う+V+PFV

話し合った	話し合う+V+PFV

通じさせる	通じる+V+CAUS
通じさせる	通ずる+V+CAUS

遊んでいる	遊む+V+TE+PROG
遊んでいる	遊ぶ+V+TE+PROG

開けられる	開ける+V+POT
開けられる	開ける+V+PASV
開けられる	開く+V+POT+POT
開けられる	開く+V+POT+PASV

考えられる	考える+V+POT
考えられる	考える+V+PASV

通らない	通る+V+COND+NEG
通らない	通+ADJ+COND+NEG
通らない	通る+V+NEG

遅れない	遅れる+V+NEG
遅れない	遅れる+V+IMP+NEG

限らない	限る+V+COND+NEG
限らない	限る+V+NEG

限らない	限る+V+COND+NEG
限らない	限る+V+NEG

行かない	行く+V+NEG

行かない	行く+V+NEG

行けない	行ける+V+NEG
行けない	行ける+V+IMP+NEG
行けない	行く+V+POT+NEG
行けない	行く+V+POT+IMP+NEG

解らない	解る+V+COND+NEG
解らない	解る+V+NEG

避けられたで	避ける+V+POT+PFV+TE
避けられたで	避ける+V+PASV+PFV+TE
避けられたで	避く+V+POT+POT+PFV+TE
避けられたで	避く+V+POT+PASV+PFV+TE

読んでいる	読む+V+TE+PROG

送らなきゃ	送る+V+COND+NEG
送らなきゃ	送る+V+NEG

行かなかった	行く+V+NEG+PFV

行かなかった	行く+V+NEG+PFV

行かなければ	行く+V+NEG+COND

行けなかった	行ける+V+NEG+PFV
行けなかった	行ける+V+IMP+NEG+PFV
行けなかった	行く+V+POT+NEG+PFV
行けなかった	行く+V+POT+IMP+NEG+PFV

考えられない	考える+V+POT+NEG
考えられない	考える+V+POT+IMP+NEG
考えられない	考える+V+PASV+NEG
考えられない	考える+V+PASV+IMP+NEG
考えられない	考えられない+ADJ

耐えられない	耐える+V+POT+NEG
耐えられない	耐える+V+POT+IMP+NEG
耐えられない	耐える+V+PASV+NEG
耐えられない	耐える+V+PASV+IMP+NEG

話しかけたくなかった	話しかける+V+DESI+NEG+PFV

聞きつけて	聞きつける+V+TE

間に合います	間に合う+V+POL

行われるだろう	行われる+V+VOL
行われるだろう	行う+V+PASV+VOL

降られて	降る+V+PASV+TE

起こって	起こる+V+TE

聞かして	聞かす+V+TE

聞こえて	聞こえる+V+TE

誓って	誓う+V+TE

語って	語る+V+TE

限られている	限る+V+PASV+TE+PROG

近づいている	近づく+V+TE+PROG

読んだ	読む+V+PFV

走れるだろう	走れる+V+VOL
走れるだろう	走る+V+POT+VOL

降り出す	降り出す+V

逃げ出した	逃げ出す+V+PFV
逃げ出した	逃げ出す+V+DESI

降り出した	降り出す+V+PFV
降り出した	降り出す+V+DESI

聞き出した	聞き出す+V+PFV
聞き出した	聞き出す+V+DESI

願って	願う+V+TE

連れて	連れる+V+TE

連れて	連れる+V+TE

閉めて	閉める+V+TE

開けて	開ける+V+TE
開けて	開く+V+POT+TE

降りて	降る+V+TE
降りて	降りる+V+TE

限って	限る+V+TE

離れて	離れる+V+TE

走って	走る+V+TE

行って	行う+V+TE
行って	行る+V+TE

行って	行う+V+TE
行って	行る+V+TE

行って	行う+V+TE
行って	行る+V+TE

行って	行う+V+TE
行って	行る+V+TE

行って	行う+V+TE
行って	行る+V+TE

行って	行う+V+TE
行って	行る+V+TE

行って	行う+V+TE
行って	行る+V+TE

越えて	越える+V+TE

話して	話す+V+TE

考えて	考える+V+TE

聞いて	聞く+V+TE

聞いて	聞く+V+TE

聞いて	聞く+V+TE

黙っていた	黙+ADJ+TE+PROG+PFV
黙っていた	黙+ADJ+TE+PROG+DESI
黙っていた	黙る+V+TE+PROG+PFV
黙っていた	黙る+V+TE+PROG+DESI

黙っていた	黙+ADJ+TE+PROG+PFV
黙っていた	黙+ADJ+TE+PROG+DESI
黙っていた	黙る+V+TE+PROG+PFV
黙っていた	黙る+V+TE+PROG+DESI

連れている	連れる+V+TE+PROG

適している	適す+V+TE+PROG

開いている	開く+V+TE+PROG

開けていた	開ける+V+TE+PROG+PFV
開けていた	開ける+V+TE+PROG+DESI
開けていた	開く+V+POT+TE+PROG+PFV
開けていた	開く+V+POT+TE+PROG+DESI

降っていた	降る+V+TE+PROG+PFV
降っていた	降る+V+TE+PROG+DESI

降っている	降る+V+TE+PROG

雇っている	雇う+V+TE+PROG

震えていた	震える+V+TE+PROG+PFV
震えていた	震える+V+TE+PROG+DESI
震えていた	震う+V+POT+TE+PROG+PFV
震えていた	震う+V+POT+TE+PROG+DESI

走っている	走る+V+TE+PROG

話している	話す+V+TE+PROG

話している	話す+V+TE+PROG

聞いていた	聞く+V+TE+PROG+PFV
聞いていた	聞く+V+TE+PROG+DESI

腐っていた	腐る+V+TE+PROG+PFV
腐っていた	腐る+V+TE+PROG+DESI

話していない	話す+V+TE+PROG+NEG
話していない	話す+V+TE+PROG+IMP+NEG

聞いていない	聞く+V+TE+PROG+NEG
聞いていない	聞く+V+TE+PROG+IMP+NEG

酔っていて	酔う+V+TE+PROG+TE

考えています	考える+V+TE+PROG+POL

起きていません	起きる+V+TE+PROG+POL+NEG

話して下さい	話す+V+TE+POL+PROG_CONTINUATIVE
話して下さい	話す+V+TE+POL+PROG_IRREALIS
話して下さい	話す+V+TE+POL+PROG_CONTINUATIVE
話して下さい	話す+V+TE+POL+PROG_IRREALIS
話して下さい	話す+V+TE+POL

話して下さい	話す+V+TE+POL+PROG_CONTINUATIVE
話して下さい	話す+V+TE+POL+PROG_IRREALIS
話して下さい	話す+V+TE+POL+PROG_CONTINUATIVE
話して下さい	話す+V+TE+POL+PROG_IRREALIS
話して下さい	話す+V+TE+POL

送ります	送る+V+POL

送ります	送る+V+POL

通ります	通る+V+POL

開きます	開く+V+POL

行きます	行く+V+POL

行けます	行ける+V+POL
行けます	行く+V+POT+POL

話せます	話せる+V+POL
話せます	話す+V+POT+POL

送りました	送る+V+NEG+VOL+PFV
送りました	送る+V+POL+PFV

行きました	行く+V+NEG+VOL+PFV
行きました	行く+V+POL+PFV

話しません	話す+V+POL+NEG

行きましょう	行く+V+POL+VOL

飛んだ	飛ぶ+V+PFV

通り越した	通り越す+V+PFV
通り越した	通り越す+V+DESI

腰掛けて	腰掛ける+V+TE

飛ぼう	飛ぶ+V+VOL

詰まり	詰まる+V_CONTINUATIVE

詰まった	詰まる+V+PFV

集まりましょう	集まる+V+POL+VOL

静まり返っている	静まり返る+V+TE+PROG

間違っている	間違う+V+TE+PROG

輝く	輝く+V

落ちる	落ちる+V

轢かれ	轢く+V+PASV_CONTINUATIVE
轢かれ	轢く+V+PASV_IRREALIS

追いつく	追いつく+V

轢かれる	轢く+V+PASV

追いやられた	追いやる+V+PASV+PFV
追いやられた	追いやる+V+PASV+DESI

追いつくでしょう	追いつく+V+POL+VOL
追いつくでしょう	追いつく+V+POL+VOL

追いかけて	追いかける+V+TE

載っている	載る+V+TE+PROG

輝いている	輝く+V+TE+PROG

輝きました	輝く+V+NEG+VOL+PFV
輝きました	輝く+V+POL+PFV

落ち着かせない	落ち着く+V+CAUS+NEG
落ち着かせない	落ち着く+V+CAUS+IMP+NEG

落ち込んでいた	落ち込む+V+TE+PROG+PFV
落ち込んでいた	落ち込む+V+TE+PROG+DESI

落とした	落とす+V+PFV
落とした	落とす+V+DESI

落としている	落とす+V+TE+PROG

騒ぎ	騒ぐ+V_CONTINUATIVE

表す	表す+V

表す	表す+V

言う	言う+V

言う	言う+V

言う	言う+V

言う	言う+V

言う	言う+V

見た	見る+V+PFV
見た	見る+V+DESI

見た	見る+V+PFV
見た	見る+V+DESI

見た	見る+V+PFV
見た	見る+V+DESI

見た	見る+V+PFV
見た	見る+V+DESI

見た	見る+V+PFV
見た	見る+V+DESI

見た	見る+V+PFV
見た	見る+V+DESI

見た	見る+V+PFV
見た	見る+V+DESI

見た	見る+V+PFV
見た	見る+V+DESI

見た	見る+V+PFV
見た	見る+V+DESI

見た	見る+V+PFV
見た	見る+V+DESI

見た	見る+V+PFV
見た	見る+V+DESI

見る	見る+V

見る	見る+V

覚え	覚える+V_CONTINUATIVE
覚え	覚える+V_IRREALIS

見守る	見守る+V

許せば	許せる+V+COND
許せば	許す+V+COND
許せば	許す+V+POT+COND

言った	言う+V+PFV

言った	言う+V+PFV

言った	言う+V+PFV

言った	言う+V+PFV

言った	言う+V+PFV

言った	言う+V+PFV

言った	言う+V+PFV

言えば	言える+V+COND
言えば	言う+V+COND
言えば	言う+V+POT+COND

言えば	言える+V+COND
言えば	言う+V+COND
言えば	言う+V+POT+COND

言える	言える+V
言える	言う+V+POT

言わず	言う+V+NEG

言わん	言う+V+NEG

言わん	言う+V+NEG

計った	計る+V+PFV

試みた	試む+V+PFV
試みた	試む+V+DESI
試みた	試みる+V+PFV
試みた	試みる+V+DESI

試みた	試む+V+PFV
試みた	試む+V+DESI
試みた	試みる+V+PFV
試みた	試みる+V+DESI

見えた	見える+V+PFV
見えた	見える+V+DESI

見える	見える+V

見える	見える+V

見える	見える+V

見える	見える+V

見える	見える+V

見るで	見る+V+TE

覚える	覚える+V

見守った	見守る+V+PFV

言いたい	言う+V+PFV+PROG_CONTINUATIVE
言いたい	言う+V+PFV+PROG_IRREALIS
言いたい	言う+V+DESI

言いたい	言う+V+PFV+PROG_CONTINUATIVE
言いたい	言う+V+PFV+PROG_IRREALIS
言いたい	言う+V+DESI

言いたく	言う+V+DESI
言いたく	言う+V+DESI+ADV

言えよう	言える+V+VOL
言えよう	言う+V+POT+VOL

見つけた	見つける+V+PFV
見つけた	見つける+V+DESI

見つけた	見つける+V+PFV
見つけた	見つける+V+DESI

見つけた	見つける+V+PFV
見つけた	見つける+V+DESI

見つけた	見つける+V+PFV
見つけた	見つける+V+DESI

見つけた	見つける+V+PFV
見つけた	見つける+V+DESI

見かけた	見かける+V+PFV
見かけた	見かける+V+DESI

見かけた	見かける+V+PFV
見かけた	見かける+V+DESI

訪ねた	訪ねる+V+PFV
訪ねた	訪ねる+V+DESI

見たいです	見る+V+PFV+PROG+POL
見たいです	見る+V+DESI+POL

見えない	見える+V+NEG
見えない	見える+V+IMP+NEG

見えなく	見える+V+NEG
見えなく	見える+V+NEG+ADV
見えなく	見える+V+IMP+NEG
見えなく	見える+V+IMP+NEG+ADV

言わないで	言う+V+NEG+TE

見られない	見る+V+POT+NEG
見られない	見る+V+PASV+NEG
見られない	見る+V+PASV+IMP+NEG
見られない	見る+V+POT+IMP+NEG

見えなかった	見える+V+NEG+PFV
見えなかった	見える+V+IMP+NEG+PFV

見えなかった	見える+V+NEG+PFV
見えなかった	見える+V+IMP+NEG+PFV

許されなかった	許す+V+PASV+NEG+PFV
許されなかった	許す+V+PASV+IMP+NEG+PFV

見つからなかった	見つかる+V+COND+NEG+PFV
見つからなかった	見つかる+V+NEG+PFV

見られないでしょう	見る+V+POT+NEG+POL+VOL
見られないでしょう	見る+V+POT+NEG+POL+VOL
見られないでしょう	見る+V+POT+IMP+NEG+POL+VOL
見られないでしょう	見る+V+POT+IMP+NEG+POL+VOL
見られないでしょう	見る+V+PASV+NEG+POL+VOL
見られないでしょう	見る+V+PASV+NEG+POL+VOL
見られないでしょう	見る+V+PASV+IMP+NEG+POL+VOL
見られないでしょう	見る+V+PASV+IMP+NEG+POL+VOL

見つかります	見つかる+V+POL

訪れている	訪れる+V+TE+PROG

言い換えれば	言い換える+V+COND
言い換えれば	言い換える+V+POT+COND

言って	言う+V+TE

言って	言う+V+TE

見せて	見せる+V+TE
見せて	見す+V+POT+TE

言っている	言う+V+TE+PROG

言っている	言う+V+TE+PROG

言っている	言う+V+TE+PROG

見えている	見える+V+TE+PROG

覚えている	覚える+V+TE+PROG

言えます	言える+V+POL
言えます	言う+V+POT+POL

見えます	見える+V+POL

見えます	見える+V+POL

許しませぬ	+?

見渡せる	見渡せる+V
見渡せる	見渡す+V+POT

見て	見る+V+TE

見て	見る+V+TE

見て	見る+V+TE

見て	見る+V+TE

見て	見る+V+TE

見て	見る+V+TE

見て	見る+V+TE

見て下さい	見る+V+TE+POL+PROG_CONTINUATIVE
見て下さい	見る+V+TE+POL+PROG_IRREALIS
見て下さい	見る+V+TE+POL+PROG_CONTINUATIVE
見て下さい	見る+V+TE+POL+PROG_IRREALIS
見て下さい	見る+V+TE+POL

見ます	見る+V+POL

見ました	見る+V+NEG+VOL+PFV
見ました	見る+V+POL+PFV

見ました	見る+V+NEG+VOL+PFV
見ました	見る+V+POL+PFV

見下された	見る+V+IMP+POL+POT+PFV
見下された	見る+V+IMP+POL+POT+DESI
見下された	見下す+V+PASV+PFV
見下された	見下す+V+PASV+DESI

見下して	見下す+V+TE

見直されています	見直す+V+PASV+TE+PROG+POL

馬鹿げた	馬鹿げる+V+PFV
馬鹿げた	馬鹿げる+V+DESI

馬鹿げている	馬鹿げる+V+TE+PROG

見込めない	見込める+V+NEG
見込めない	見込める+V+IMP+NEG
見込めない	見込む+V+POT+NEG
見込めない	見込む+V+POT+IMP+NEG

辞する	辞する+V

込み入った	込み入る+V+PFV

選んで	選ぶ+V+TE

選んで	選ぶ+V+TE

踏んで	踏む+V+TE

選ばない	選る+V+COND+NEG
選ばない	選ぶ+V+NEG

選ばなければ	選る+V+COND+NEG+COND
選ばなければ	選ぶ+V+NEG+COND

選ばれるだろう	選ばれる+V+VOL
選ばれるだろう	選ぶ+V+PASV+VOL

踏み出した	踏み出す+V+PFV
踏み出した	踏み出す+V+DESI

聴いて	聴く+V+TE

選んだ	選ぶ+V+PFV

頂く	頂く+V

預かり	預かる+V_CONTINUATIVE

隠し持っている	隠し持つ+V+TE+PROG

頼む	頼む+V

頼んだ	頼む+V+PFV

頼まれた	頼む+V+PASV+PFV
頼まれた	頼む+V+PASV+DESI
